%!PS-Adobe-3.0 EPSF-3.0
%%Creator: (MATLAB, The Mathworks, Inc. Version 9.7.0.1190202 \(R2019b\). Operating System: Windows 10)
%%Title: ./img/area_vs_gamma_fmincon_greedy.eps
%%CreationDate: 2021-12-16T22:14:08
%%Pages: (atend)
%%BoundingBox:    20     3   383   304
%%LanguageLevel: 3
%%EndComments
%%BeginProlog
%%BeginResource: procset (Apache XML Graphics Std ProcSet) 1.2 0
%%Version: 1.2 0
%%Copyright: (Copyright 2001-2003,2010 The Apache Software Foundation. License terms: http://www.apache.org/licenses/LICENSE-2.0)
/bd{bind def}bind def
/ld{load def}bd
/GR/grestore ld
/GS/gsave ld
/RM/rmoveto ld
/C/curveto ld
/t/show ld
/L/lineto ld
/ML/setmiterlimit ld
/CT/concat ld
/f/fill ld
/N/newpath ld
/S/stroke ld
/CC/setcmykcolor ld
/A/ashow ld
/cp/closepath ld
/RC/setrgbcolor ld
/LJ/setlinejoin ld
/GC/setgray ld
/LW/setlinewidth ld
/M/moveto ld
/re {4 2 roll M
1 index 0 rlineto
0 exch rlineto
neg 0 rlineto
cp } bd
/_ctm matrix def
/_tm matrix def
/BT { _ctm currentmatrix pop matrix _tm copy pop 0 0 moveto } bd
/ET { _ctm setmatrix } bd
/iTm { _ctm setmatrix _tm concat } bd
/Tm { _tm astore pop iTm 0 0 moveto } bd
/ux 0.0 def
/uy 0.0 def
/F {
  /Tp exch def
  /Tf exch def
  Tf findfont Tp scalefont setfont
  /cf Tf def  /cs Tp def
} bd
/ULS {currentpoint /uy exch def /ux exch def} bd
/ULE {
  /Tcx currentpoint pop def
  gsave
  newpath
  cf findfont cs scalefont dup
  /FontMatrix get 0 get /Ts exch def /FontInfo get dup
  /UnderlinePosition get Ts mul /To exch def
  /UnderlineThickness get Ts mul /Tt exch def
  ux uy To add moveto  Tcx uy To add lineto
  Tt setlinewidth stroke
  grestore
} bd
/OLE {
  /Tcx currentpoint pop def
  gsave
  newpath
  cf findfont cs scalefont dup
  /FontMatrix get 0 get /Ts exch def /FontInfo get dup
  /UnderlinePosition get Ts mul /To exch def
  /UnderlineThickness get Ts mul /Tt exch def
  ux uy To add cs add moveto Tcx uy To add cs add lineto
  Tt setlinewidth stroke
  grestore
} bd
/SOE {
  /Tcx currentpoint pop def
  gsave
  newpath
  cf findfont cs scalefont dup
  /FontMatrix get 0 get /Ts exch def /FontInfo get dup
  /UnderlinePosition get Ts mul /To exch def
  /UnderlineThickness get Ts mul /Tt exch def
  ux uy To add cs 10 mul 26 idiv add moveto Tcx uy To add cs 10 mul 26 idiv add lineto
  Tt setlinewidth stroke
  grestore
} bd
/QT {
/Y22 exch store
/X22 exch store
/Y21 exch store
/X21 exch store
currentpoint
/Y21 load 2 mul add 3 div exch
/X21 load 2 mul add 3 div exch
/X21 load 2 mul /X22 load add 3 div
/Y21 load 2 mul /Y22 load add 3 div
/X22 load /Y22 load curveto
} bd
/SSPD {
dup length /d exch dict def
{
/v exch def
/k exch def
currentpagedevice k known {
/cpdv currentpagedevice k get def
v cpdv ne {
/upd false def
/nullv v type /nulltype eq def
/nullcpdv cpdv type /nulltype eq def
nullv nullcpdv or
{
/upd true def
} {
/sametype v type cpdv type eq def
sametype {
v type /arraytype eq {
/vlen v length def
/cpdvlen cpdv length def
vlen cpdvlen eq {
0 1 vlen 1 sub {
/i exch def
/obj v i get def
/cpdobj cpdv i get def
obj cpdobj ne {
/upd true def
exit
} if
} for
} {
/upd true def
} ifelse
} {
v type /dicttype eq {
v {
/dv exch def
/dk exch def
/cpddv cpdv dk get def
dv cpddv ne {
/upd true def
exit
} if
} forall
} {
/upd true def
} ifelse
} ifelse
} if
} ifelse
upd true eq {
d k v put
} if
} if
} if
} forall
d length 0 gt {
d setpagedevice
} if
} bd
/RE { % /NewFontName [NewEncodingArray] /FontName RE -
  findfont dup length dict begin
  {
    1 index /FID ne
    {def} {pop pop} ifelse
  } forall
  /Encoding exch def
  /FontName 1 index def
  currentdict definefont pop
  end
} bind def
%%EndResource
%%BeginResource: procset (Apache XML Graphics EPS ProcSet) 1.0 0
%%Version: 1.0 0
%%Copyright: (Copyright 2002-2003 The Apache Software Foundation. License terms: http://www.apache.org/licenses/LICENSE-2.0)
/BeginEPSF { %def
/b4_Inc_state save def         % Save state for cleanup
/dict_count countdictstack def % Count objects on dict stack
/op_count count 1 sub def      % Count objects on operand stack
userdict begin                 % Push userdict on dict stack
/showpage { } def              % Redefine showpage, { } = null proc
0 setgray 0 setlinecap         % Prepare graphics state
1 setlinewidth 0 setlinejoin
10 setmiterlimit [ ] 0 setdash newpath
/languagelevel where           % If level not equal to 1 then
{pop languagelevel             % set strokeadjust and
1 ne                           % overprint to their defaults.
{false setstrokeadjust false setoverprint
} if
} if
} bd
/EndEPSF { %def
count op_count sub {pop} repeat            % Clean up stacks
countdictstack dict_count sub {end} repeat
b4_Inc_state restore
} bd
%%EndResource
%FOPBeginFontDict
%%IncludeResource: font Courier-Oblique
%%IncludeResource: font Courier-BoldOblique
%%IncludeResource: font Courier-Bold
%%IncludeResource: font ZapfDingbats
%%IncludeResource: font Symbol
%%IncludeResource: font Helvetica
%%IncludeResource: font Helvetica-Oblique
%%IncludeResource: font Helvetica-Bold
%%IncludeResource: font Helvetica-BoldOblique
%%IncludeResource: font Times-Roman
%%IncludeResource: font Times-Italic
%%IncludeResource: font Times-Bold
%%IncludeResource: font Times-BoldItalic
%%IncludeResource: font Courier
%FOPEndFontDict
%%BeginResource: encoding WinAnsiEncoding
/WinAnsiEncoding [
/.notdef /.notdef /.notdef /.notdef /.notdef
/.notdef /.notdef /.notdef /.notdef /.notdef
/.notdef /.notdef /.notdef /.notdef /.notdef
/.notdef /.notdef /.notdef /.notdef /.notdef
/.notdef /.notdef /.notdef /.notdef /.notdef
/.notdef /.notdef /.notdef /.notdef /.notdef
/.notdef /.notdef /space /exclam /quotedbl
/numbersign /dollar /percent /ampersand /quotesingle
/parenleft /parenright /asterisk /plus /comma
/hyphen /period /slash /zero /one
/two /three /four /five /six
/seven /eight /nine /colon /semicolon
/less /equal /greater /question /at
/A /B /C /D /E
/F /G /H /I /J
/K /L /M /N /O
/P /Q /R /S /T
/U /V /W /X /Y
/Z /bracketleft /backslash /bracketright /asciicircum
/underscore /quoteleft /a /b /c
/d /e /f /g /h
/i /j /k /l /m
/n /o /p /q /r
/s /t /u /v /w
/x /y /z /braceleft /bar
/braceright /asciitilde /bullet /Euro /bullet
/quotesinglbase /florin /quotedblbase /ellipsis /dagger
/daggerdbl /circumflex /perthousand /Scaron /guilsinglleft
/OE /bullet /Zcaron /bullet /bullet
/quoteleft /quoteright /quotedblleft /quotedblright /bullet
/endash /emdash /asciitilde /trademark /scaron
/guilsinglright /oe /bullet /zcaron /Ydieresis
/space /exclamdown /cent /sterling /currency
/yen /brokenbar /section /dieresis /copyright
/ordfeminine /guillemotleft /logicalnot /sfthyphen /registered
/macron /degree /plusminus /twosuperior /threesuperior
/acute /mu /paragraph /middot /cedilla
/onesuperior /ordmasculine /guillemotright /onequarter /onehalf
/threequarters /questiondown /Agrave /Aacute /Acircumflex
/Atilde /Adieresis /Aring /AE /Ccedilla
/Egrave /Eacute /Ecircumflex /Edieresis /Igrave
/Iacute /Icircumflex /Idieresis /Eth /Ntilde
/Ograve /Oacute /Ocircumflex /Otilde /Odieresis
/multiply /Oslash /Ugrave /Uacute /Ucircumflex
/Udieresis /Yacute /Thorn /germandbls /agrave
/aacute /acircumflex /atilde /adieresis /aring
/ae /ccedilla /egrave /eacute /ecircumflex
/edieresis /igrave /iacute /icircumflex /idieresis
/eth /ntilde /ograve /oacute /ocircumflex
/otilde /odieresis /divide /oslash /ugrave
/uacute /ucircumflex /udieresis /yacute /thorn
/ydieresis
] def
%%EndResource
%FOPBeginFontReencode
/Courier-Oblique findfont
dup length dict begin
  {1 index /FID ne {def} {pop pop} ifelse} forall
  /Encoding WinAnsiEncoding def
  currentdict
end
/Courier-Oblique exch definefont pop
/Courier-BoldOblique findfont
dup length dict begin
  {1 index /FID ne {def} {pop pop} ifelse} forall
  /Encoding WinAnsiEncoding def
  currentdict
end
/Courier-BoldOblique exch definefont pop
/Courier-Bold findfont
dup length dict begin
  {1 index /FID ne {def} {pop pop} ifelse} forall
  /Encoding WinAnsiEncoding def
  currentdict
end
/Courier-Bold exch definefont pop
/Helvetica findfont
dup length dict begin
  {1 index /FID ne {def} {pop pop} ifelse} forall
  /Encoding WinAnsiEncoding def
  currentdict
end
/Helvetica exch definefont pop
/Helvetica-Oblique findfont
dup length dict begin
  {1 index /FID ne {def} {pop pop} ifelse} forall
  /Encoding WinAnsiEncoding def
  currentdict
end
/Helvetica-Oblique exch definefont pop
/Helvetica-Bold findfont
dup length dict begin
  {1 index /FID ne {def} {pop pop} ifelse} forall
  /Encoding WinAnsiEncoding def
  currentdict
end
/Helvetica-Bold exch definefont pop
/Helvetica-BoldOblique findfont
dup length dict begin
  {1 index /FID ne {def} {pop pop} ifelse} forall
  /Encoding WinAnsiEncoding def
  currentdict
end
/Helvetica-BoldOblique exch definefont pop
/Times-Roman findfont
dup length dict begin
  {1 index /FID ne {def} {pop pop} ifelse} forall
  /Encoding WinAnsiEncoding def
  currentdict
end
/Times-Roman exch definefont pop
/Times-Italic findfont
dup length dict begin
  {1 index /FID ne {def} {pop pop} ifelse} forall
  /Encoding WinAnsiEncoding def
  currentdict
end
/Times-Italic exch definefont pop
/Times-Bold findfont
dup length dict begin
  {1 index /FID ne {def} {pop pop} ifelse} forall
  /Encoding WinAnsiEncoding def
  currentdict
end
/Times-Bold exch definefont pop
/Times-BoldItalic findfont
dup length dict begin
  {1 index /FID ne {def} {pop pop} ifelse} forall
  /Encoding WinAnsiEncoding def
  currentdict
end
/Times-BoldItalic exch definefont pop
/Courier findfont
dup length dict begin
  {1 index /FID ne {def} {pop pop} ifelse} forall
  /Encoding WinAnsiEncoding def
  currentdict
end
/Courier exch definefont pop
%FOPEndFontReencode
%%EndProlog
%%Page: 1 1
%%PageBoundingBox: 0 0 420 315
%%BeginPageSetup
[1 0 0 -1 0 315] CT
%%EndPageSetup
GS
[0.375 0 0 0.375 0 0] CT
1 GC
N
0 0 1120 840 re
f
GR
GS
[0.375 0 0 0.375 0 0] CT
1 GC
N
0 0 1120 840 re
f
GR
GS
[0.375 0 0 0.375 0 0] CT
1 GC
N
146 748 M
1014 748 L
1014 63 L
146 63 L
cp
f
GR
GS
[0.375 0 0 0.375 0 0] CT
0.873 GC
1 LJ
1.333 LW
N
146 748 M
146 63 L
S
GR
GS
[0.375 0 0 0.375 0 0] CT
0.873 GC
1 LJ
1.333 LW
N
363 748 M
363 63 L
S
GR
GS
[0.375 0 0 0.375 0 0] CT
0.873 GC
1 LJ
1.333 LW
N
580 748 M
580 63 L
S
GR
GS
[0.375 0 0 0.375 0 0] CT
0.873 GC
1 LJ
1.333 LW
N
797 748 M
797 63 L
S
GR
GS
[0.375 0 0 0.375 0 0] CT
0.873 GC
1 LJ
1.333 LW
N
1014 748 M
1014 63 L
S
GR
GS
[0.375 0 0 0.375 0 0] CT
0.873 GC
1 LJ
1.333 LW
N
1014 748 M
146 748 L
S
GR
GS
[0.375 0 0 0.375 0 0] CT
0.873 GC
1 LJ
1.333 LW
N
1014 672.725 M
146 672.725 L
S
GR
GS
[0.375 0 0 0.375 0 0] CT
0.873 GC
1 LJ
1.333 LW
N
1014 597.451 M
146 597.451 L
S
GR
GS
[0.375 0 0 0.375 0 0] CT
0.873 GC
1 LJ
1.333 LW
N
1014 522.176 M
146 522.176 L
S
GR
GS
[0.375 0 0 0.375 0 0] CT
0.873 GC
1 LJ
1.333 LW
N
1014 446.901 M
146 446.901 L
S
GR
GS
[0.375 0 0 0.375 0 0] CT
0.873 GC
1 LJ
1.333 LW
N
1014 371.626 M
146 371.626 L
S
GR
GS
[0.375 0 0 0.375 0 0] CT
0.873 GC
1 LJ
1.333 LW
N
1014 296.352 M
146 296.352 L
S
GR
GS
[0.375 0 0 0.375 0 0] CT
0.873 GC
1 LJ
1.333 LW
N
1014 221.077 M
146 221.077 L
S
GR
GS
[0.375 0 0 0.375 0 0] CT
0.873 GC
1 LJ
1.333 LW
N
1014 145.802 M
146 145.802 L
S
GR
GS
[0.375 0 0 0.375 0 0] CT
0.873 GC
1 LJ
1.333 LW
N
1014 70.527 M
146 70.527 L
S
GR
GS
[0.375 0 0 0.375 0 0] CT
0.149 GC
2 setlinecap
1 LJ
1.333 LW
N
146 748 M
1014 748 L
S
GR
GS
[0.375 0 0 0.375 0 0] CT
0.149 GC
2 setlinecap
1 LJ
1.333 LW
N
146 63 M
1014 63 L
S
GR
GS
[0.375 0 0 0.375 0 0] CT
0.149 GC
2 setlinecap
1 LJ
1.333 LW
N
146 748 M
146 739.32 L
S
GR
GS
[0.375 0 0 0.375 0 0] CT
0.149 GC
2 setlinecap
1 LJ
1.333 LW
N
363 748 M
363 739.32 L
S
GR
GS
[0.375 0 0 0.375 0 0] CT
0.149 GC
2 setlinecap
1 LJ
1.333 LW
N
580 748 M
580 739.32 L
S
GR
GS
[0.375 0 0 0.375 0 0] CT
0.149 GC
2 setlinecap
1 LJ
1.333 LW
N
797 748 M
797 739.32 L
S
GR
GS
[0.375 0 0 0.375 0 0] CT
0.149 GC
2 setlinecap
1 LJ
1.333 LW
N
1014 748 M
1014 739.32 L
S
GR
GS
[0.375 0 0 0.375 0 0] CT
0.149 GC
2 setlinecap
1 LJ
1.333 LW
N
146 63 M
146 71.68 L
S
GR
GS
[0.375 0 0 0.375 0 0] CT
0.149 GC
2 setlinecap
1 LJ
1.333 LW
N
363 63 M
363 71.68 L
S
GR
GS
[0.375 0 0 0.375 0 0] CT
0.149 GC
2 setlinecap
1 LJ
1.333 LW
N
580 63 M
580 71.68 L
S
GR
GS
[0.375 0 0 0.375 0 0] CT
0.149 GC
2 setlinecap
1 LJ
1.333 LW
N
797 63 M
797 71.68 L
S
GR
GS
[0.375 0 0 0.375 0 0] CT
0.149 GC
2 setlinecap
1 LJ
1.333 LW
N
1014 63 M
1014 71.68 L
S
GR
GS
[0.375 0 0 0.375 54.75 284.50001] CT
0.149 GC
/Helvetica 26.667 F
GS
[1 0 0 1 0 0] CT
-7.5 27 moveto 
1 -1 scale
(0) t 
GR
GR
GS
[0.375 0 0 0.375 136.125 284.50001] CT
0.149 GC
/Helvetica 26.667 F
GS
[1 0 0 1 0 0] CT
-19 27 moveto 
1 -1 scale
(0.5) t 
GR
GR
GS
[0.375 0 0 0.375 217.5 284.50001] CT
0.149 GC
/Helvetica 26.667 F
GS
[1 0 0 1 0 0] CT
-7.5 27 moveto 
1 -1 scale
(1) t 
GR
GR
GS
[0.375 0 0 0.375 298.875 284.50001] CT
0.149 GC
/Helvetica 26.667 F
GS
[1 0 0 1 0 0] CT
-19 27 moveto 
1 -1 scale
(1.5) t 
GR
GR
GS
[0.375 0 0 0.375 380.25 284.50001] CT
0.149 GC
/Helvetica 26.667 F
GS
[1 0 0 1 0 0] CT
-7.5 27 moveto 
1 -1 scale
(2) t 
GR
GR
GS
[0.375 0 0 0.375 214.5 309] CT
0.149 GC
N
8.547 5.672 M
8.547 5.031 8.844 3.781 QT
9.141 2.531 9.555 1.125 QT
9.969 -0.281 10.266 -1.188 QT
10.375 -2.641 10.375 -3.375 QT
10.375 -5.234 10.008 -6.844 QT
9.641 -8.453 8.625 -9.539 QT
7.609 -10.625 5.781 -10.625 QT
4.813 -10.625 3.859 -10.211 QT
2.906 -9.797 2.219 -9.063 QT
1.531 -8.328 1.281 -7.391 QT
1.219 -7.219 1.047 -7.219 QT
0.688 -7.219 L
0.469 -7.219 0.469 -7.484 QT
0.469 -7.578 L
0.797 -8.875 1.625 -10.086 QT
2.453 -11.297 3.648 -12.055 QT
4.844 -12.813 6.172 -12.813 QT
7.531 -12.813 8.523 -11.891 QT
9.516 -10.969 10.109 -9.555 QT
10.703 -8.141 10.969 -6.695 QT
11.234 -5.25 11.234 -3.984 QT
12.688 -7.938 14.5 -11.484 QT
14.938 -12.422 L
15.031 -12.5 15.141 -12.5 QT
15.484 -12.5 L
15.719 -12.5 15.719 -12.234 QT
15.719 -12.172 15.656 -12.063 QT
15.219 -11.156 L
13.969 -8.656 12.914 -6.078 QT
11.859 -3.5 11.109 -1.109 QT
10.984 -0.125 10.664 1.57 QT
10.344 3.266 9.891 4.734 QT
9.438 6.203 8.984 6.266 QT
8.547 6.266 8.547 5.672 QT
cp
f
GR
GS
[0.375 0 0 0.375 0 0] CT
0.149 GC
2 setlinecap
1 LJ
1.333 LW
N
146 748 M
146 63 L
S
GR
GS
[0.375 0 0 0.375 0 0] CT
0.149 GC
2 setlinecap
1 LJ
1.333 LW
N
1014 748 M
1014 63 L
S
GR
GS
[0.375 0 0 0.375 0 0] CT
0.149 GC
2 setlinecap
1 LJ
1.333 LW
N
146 748 M
154.68 748 L
S
GR
GS
[0.375 0 0 0.375 0 0] CT
0.149 GC
2 setlinecap
1 LJ
1.333 LW
N
146 672.725 M
154.68 672.725 L
S
GR
GS
[0.375 0 0 0.375 0 0] CT
0.149 GC
2 setlinecap
1 LJ
1.333 LW
N
146 597.451 M
154.68 597.451 L
S
GR
GS
[0.375 0 0 0.375 0 0] CT
0.149 GC
2 setlinecap
1 LJ
1.333 LW
N
146 522.176 M
154.68 522.176 L
S
GR
GS
[0.375 0 0 0.375 0 0] CT
0.149 GC
2 setlinecap
1 LJ
1.333 LW
N
146 446.901 M
154.68 446.901 L
S
GR
GS
[0.375 0 0 0.375 0 0] CT
0.149 GC
2 setlinecap
1 LJ
1.333 LW
N
146 371.626 M
154.68 371.626 L
S
GR
GS
[0.375 0 0 0.375 0 0] CT
0.149 GC
2 setlinecap
1 LJ
1.333 LW
N
146 296.352 M
154.68 296.352 L
S
GR
GS
[0.375 0 0 0.375 0 0] CT
0.149 GC
2 setlinecap
1 LJ
1.333 LW
N
146 221.077 M
154.68 221.077 L
S
GR
GS
[0.375 0 0 0.375 0 0] CT
0.149 GC
2 setlinecap
1 LJ
1.333 LW
N
146 145.802 M
154.68 145.802 L
S
GR
GS
[0.375 0 0 0.375 0 0] CT
0.149 GC
2 setlinecap
1 LJ
1.333 LW
N
146 70.527 M
154.68 70.527 L
S
GR
GS
[0.375 0 0 0.375 0 0] CT
0.149 GC
2 setlinecap
1 LJ
1.333 LW
N
1014 748 M
1005.32 748 L
S
GR
GS
[0.375 0 0 0.375 0 0] CT
0.149 GC
2 setlinecap
1 LJ
1.333 LW
N
1014 672.725 M
1005.32 672.725 L
S
GR
GS
[0.375 0 0 0.375 0 0] CT
0.149 GC
2 setlinecap
1 LJ
1.333 LW
N
1014 597.451 M
1005.32 597.451 L
S
GR
GS
[0.375 0 0 0.375 0 0] CT
0.149 GC
2 setlinecap
1 LJ
1.333 LW
N
1014 522.176 M
1005.32 522.176 L
S
GR
GS
[0.375 0 0 0.375 0 0] CT
0.149 GC
2 setlinecap
1 LJ
1.333 LW
N
1014 446.901 M
1005.32 446.901 L
S
GR
GS
[0.375 0 0 0.375 0 0] CT
0.149 GC
2 setlinecap
1 LJ
1.333 LW
N
1014 371.626 M
1005.32 371.626 L
S
GR
GS
[0.375 0 0 0.375 0 0] CT
0.149 GC
2 setlinecap
1 LJ
1.333 LW
N
1014 296.352 M
1005.32 296.352 L
S
GR
GS
[0.375 0 0 0.375 0 0] CT
0.149 GC
2 setlinecap
1 LJ
1.333 LW
N
1014 221.077 M
1005.32 221.077 L
S
GR
GS
[0.375 0 0 0.375 0 0] CT
0.149 GC
2 setlinecap
1 LJ
1.333 LW
N
1014 145.802 M
1005.32 145.802 L
S
GR
GS
[0.375 0 0 0.375 0 0] CT
0.149 GC
2 setlinecap
1 LJ
1.333 LW
N
1014 70.527 M
1005.32 70.527 L
S
GR
GS
[0.375 0 0 0.375 50.75 280.5] CT
0.149 GC
/Helvetica 26.667 F
GS
[1 0 0 1 0 0] CT
-30 10.5 moveto 
1 -1 scale
(10) t 
GR
GR
GS
[0.375 0 0 0.375 50.75 252.27198] CT
0.149 GC
/Helvetica 26.667 F
GS
[1 0 0 1 0 0] CT
-30 10.5 moveto 
1 -1 scale
(20) t 
GR
GR
GS
[0.375 0 0 0.375 50.75 224.04396] CT
0.149 GC
/Helvetica 26.667 F
GS
[1 0 0 1 0 0] CT
-30 10.5 moveto 
1 -1 scale
(30) t 
GR
GR
GS
[0.375 0 0 0.375 50.75 195.81594] CT
0.149 GC
/Helvetica 26.667 F
GS
[1 0 0 1 0 0] CT
-30 10.5 moveto 
1 -1 scale
(40) t 
GR
GR
GS
[0.375 0 0 0.375 50.75 167.58791] CT
0.149 GC
/Helvetica 26.667 F
GS
[1 0 0 1 0 0] CT
-30 10.5 moveto 
1 -1 scale
(50) t 
GR
GR
GS
[0.375 0 0 0.375 50.75 139.35989] CT
0.149 GC
/Helvetica 26.667 F
GS
[1 0 0 1 0 0] CT
-30 10.5 moveto 
1 -1 scale
(60) t 
GR
GR
GS
[0.375 0 0 0.375 50.75 111.13187] CT
0.149 GC
/Helvetica 26.667 F
GS
[1 0 0 1 0 0] CT
-30 10.5 moveto 
1 -1 scale
(70) t 
GR
GR
GS
[0.375 0 0 0.375 50.75 82.90384] CT
0.149 GC
/Helvetica 26.667 F
GS
[1 0 0 1 0 0] CT
-30 10.5 moveto 
1 -1 scale
(80) t 
GR
GR
GS
[0.375 0 0 0.375 50.75 54.67583] CT
0.149 GC
/Helvetica 26.667 F
GS
[1 0 0 1 0 0] CT
-30 10.5 moveto 
1 -1 scale
(90) t 
GR
GR
GS
[0.375 0 0 0.375 50.75 26.4478] CT
0.149 GC
/Helvetica 26.667 F
GS
[1 0 0 1 0 0] CT
-45 10.5 moveto 
1 -1 scale
(100) t 
GR
GR
GS
[0 -0.375 0.375 0 30.875 152.06239] CT
0.149 GC
/Helvetica 29.333 F
GS
[1 0 0 1 0 0] CT
-119 -7 moveto 
1 -1 scale
(% of area covered) t 
GR
GR
GS
[0.375 0 0 0.375 81 19.875] CT
/Helvetica-Bold 29.333 F
GS
[1 0 0 1 0 0] CT
0 0 moveto 
1 -1 scale
(% area covered vs ) t 
GR
GR
GS
[0.375 0 0 0.375 180 19.875] CT
N
9.547 5.672 M
9.547 5.031 9.844 3.781 QT
10.141 2.531 10.555 1.125 QT
10.969 -0.281 11.266 -1.188 QT
11.375 -2.641 11.375 -3.375 QT
11.375 -5.234 11.008 -6.844 QT
10.641 -8.453 9.625 -9.539 QT
8.609 -10.625 6.781 -10.625 QT
6.781 -10.625 5.844 -10.211 QT
4.906 -9.797 4.219 -9.063 QT
3.531 -8.328 3.281 -7.391 QT
3.219 -7.219 2.047 -7.219 QT
1.688 -7.219 L
1.469 -7.219 1.469 -7.484 QT
1.469 -7.578 L
1.797 -8.875 2.625 -10.086 QT
3.453 -11.297 4.648 -12.055 QT
5.844 -12.813 7.172 -12.813 QT
9.531 -12.813 10.523 -11.891 QT
11.516 -10.969 12.109 -9.555 QT
12.703 -8.141 12.875 -6.695 QT
13.047 -5.25 13.047 -5.25 QT
13.688 -7.938 15.5 -11.484 QT
15.938 -12.422 L
16.031 -12.5 16.141 -12.5 QT
16.484 -12.5 L
17.719 -12.5 17.719 -12.234 QT
17.719 -12.172 17.656 -12.063 QT
17.219 -11.156 L
15.969 -8.656 14.914 -6.078 QT
13.859 -3.5 13.109 -1.109 QT
12.984 -0.125 12.664 1.57 QT
12.344 3.266 11.891 4.734 QT
11.438 6.203 10.984 6.266 QT
9.547 6.266 9.547 5.672 QT
cp
f
GR
GS
[0.375 0 0 0.375 186.375 19.875] CT
/Helvetica-Bold 29.333 F
GS
[1 0 0 1 0 0] CT
0 0 moveto 
1 -1 scale
( - ) t 
GR
GR
GS
[0.375 0 0 0.375 196.5 19.875] CT
N
3.188 0 M
2.938 0 2.781 -0.172 QT
2.625 -0.344 2.625 -0.578 QT
2.625 -0.797 2.781 -0.977 QT
2.938 -1.156 3.188 -1.156 QT
11.703 -1.156 L
11.703 -9.078 L
3.188 -9.078 L
2.938 -9.078 2.781 -9.258 QT
2.625 -9.438 2.625 -9.656 QT
2.625 -9.875 2.781 -10.055 QT
2.938 -10.234 3.188 -10.234 QT
11.703 -10.234 L
11.703 -18.797 L
11.703 -19.016 11.875 -19.164 QT
12.047 -19.313 12.281 -19.313 QT
13.484 -19.313 13.672 -19.164 QT
13.859 -19.016 13.859 -18.797 QT
13.859 -10.234 L
21.391 -10.234 L
22.609 -10.234 22.766 -10.055 QT
22.922 -9.875 22.922 -9.656 QT
22.922 -9.438 22.766 -9.258 QT
22.609 -9.078 21.391 -9.078 QT
13.859 -9.078 L
13.859 -1.156 L
21.391 -1.156 L
22.609 -1.156 22.766 -0.977 QT
22.922 -0.797 22.922 -0.578 QT
22.922 -0.344 22.766 -0.172 QT
22.609 0 21.391 0 QT
3.188 0 L
cp
f
GR
GS
[0.375 0 0 0.375 205.875 19.875] CT
/Helvetica-Bold 29.333 F
GS
[1 0 0 1 0 0] CT
0 0 moveto 
1 -1 scale
( 0.5 standard dev. error bars) t 
GR
GR
GS
[0.375 0 0 0.375 0 0] CT
0 0.447 0.741 RC
1 LJ
5.333 LW
N
146 79.87 M
146 86.178 L
S
GR
GS
[0.375 0 0 0.375 0 0] CT
0 0.447 0.741 RC
1 LJ
5.333 LW
N
175.121 79.493 M
175.121 89.75 L
S
GR
GS
[0.375 0 0 0.375 0 0] CT
0 0.447 0.741 RC
1 LJ
5.333 LW
N
204.243 89.224 M
204.243 99.906 L
S
GR
GS
[0.375 0 0 0.375 0 0] CT
0 0.447 0.741 RC
1 LJ
5.333 LW
N
233.364 104.74 M
233.364 115.591 L
S
GR
GS
[0.375 0 0 0.375 0 0] CT
0 0.447 0.741 RC
1 LJ
5.333 LW
N
262.529 105.066 M
262.529 120.643 L
S
GR
GS
[0.375 0 0 0.375 0 0] CT
0 0.447 0.741 RC
1 LJ
5.333 LW
N
291.65 135.051 M
291.65 149.233 L
S
GR
GS
[0.375 0 0 0.375 0 0] CT
0 0.447 0.741 RC
1 LJ
5.333 LW
N
320.772 144.757 M
320.772 167.251 L
S
GR
GS
[0.375 0 0 0.375 0 0] CT
0 0.447 0.741 RC
1 LJ
5.333 LW
N
349.893 159.958 M
349.893 187.929 L
S
GR
GS
[0.375 0 0 0.375 0 0] CT
0 0.447 0.741 RC
1 LJ
5.333 LW
N
379.015 154.786 M
379.015 186.061 L
S
GR
GS
[0.375 0 0 0.375 0 0] CT
0 0.447 0.741 RC
1 LJ
5.333 LW
N
408.136 158.62 M
408.136 188.693 L
S
GR
GS
[0.375 0 0 0.375 0 0] CT
0 0.447 0.741 RC
1 LJ
5.333 LW
N
437.257 155.668 M
437.257 213.477 L
S
GR
GS
[0.375 0 0 0.375 0 0] CT
0 0.447 0.741 RC
1 LJ
5.333 LW
N
466.422 171.431 M
466.422 206.539 L
S
GR
GS
[0.375 0 0 0.375 0 0] CT
0 0.447 0.741 RC
1 LJ
5.333 LW
N
495.544 171.129 M
495.544 212.025 L
S
GR
GS
[0.375 0 0 0.375 0 0] CT
0 0.447 0.741 RC
1 LJ
5.333 LW
N
524.665 217.332 M
524.665 247.101 L
S
GR
GS
[0.375 0 0 0.375 0 0] CT
0 0.447 0.741 RC
1 LJ
5.333 LW
N
553.786 264.682 M
553.786 315.923 L
S
GR
GS
[0.375 0 0 0.375 0 0] CT
0 0.447 0.741 RC
1 LJ
5.333 LW
N
582.908 245.655 M
582.908 286.577 L
S
GR
GS
[0.375 0 0 0.375 0 0] CT
0 0.447 0.741 RC
1 LJ
5.333 LW
N
612.029 247.498 M
612.029 291.241 L
S
GR
GS
[0.375 0 0 0.375 0 0] CT
0 0.447 0.741 RC
1 LJ
5.333 LW
N
641.151 249.896 M
641.151 289.674 L
S
GR
GS
[0.375 0 0 0.375 0 0] CT
0 0.447 0.741 RC
1 LJ
5.333 LW
N
670.315 273.723 M
670.315 313.265 L
S
GR
GS
[0.375 0 0 0.375 0 0] CT
0 0.447 0.741 RC
1 LJ
5.333 LW
N
699.437 267.432 M
699.437 315.118 L
S
GR
GS
[0.375 0 0 0.375 0 0] CT
0 0.447 0.741 RC
1 LJ
5.333 LW
N
728.558 277.881 M
728.558 321.726 L
S
GR
GS
[0.375 0 0 0.375 0 0] CT
0 0.447 0.741 RC
1 LJ
5.333 LW
N
757.68 288.67 M
757.68 327.221 L
S
GR
GS
[0.375 0 0 0.375 0 0] CT
0 0.447 0.741 RC
1 LJ
5.333 LW
N
786.801 283.738 M
786.801 335.498 L
S
GR
GS
[0.375 0 0 0.375 0 0] CT
0 0.447 0.741 RC
1 LJ
5.333 LW
N
815.922 276.67 M
815.922 325.053 L
S
GR
GS
[0.375 0 0 0.375 0 0] CT
0 0.447 0.741 RC
1 LJ
5.333 LW
N
845.044 278.764 M
845.044 324.479 L
S
GR
GS
[0.375 0 0 0.375 0 0] CT
0 0.447 0.741 RC
1 LJ
5.333 LW
N
874.209 286.639 M
874.209 337.636 L
S
GR
GS
[0.375 0 0 0.375 0 0] CT
0 0.447 0.741 RC
1 LJ
5.333 LW
N
903.33 284.853 M
903.33 333.87 L
S
GR
GS
[0.375 0 0 0.375 0 0] CT
0 0.447 0.741 RC
1 LJ
5.333 LW
N
932.451 292.308 M
932.451 339.422 L
S
GR
GS
[0.375 0 0 0.375 0 0] CT
0 0.447 0.741 RC
1 LJ
5.333 LW
N
961.573 289.54 M
961.573 331.123 L
S
GR
GS
[0.375 0 0 0.375 0 0] CT
0 0.447 0.741 RC
1 LJ
5.333 LW
N
990.694 293.907 M
990.694 342.518 L
S
GR
GS
[0.375 0 0 0.375 0 0] CT
0 0.447 0.741 RC
1 LJ
5.333 LW
N
146 79.87 M
146 73.562 L
S
GR
GS
[0.375 0 0 0.375 0 0] CT
0 0.447 0.741 RC
1 LJ
5.333 LW
N
175.121 79.493 M
175.121 69.235 L
S
GR
GS
[0.375 0 0 0.375 0 0] CT
0 0.447 0.741 RC
1 LJ
5.333 LW
N
204.243 89.224 M
204.243 78.541 L
S
GR
GS
[0.375 0 0 0.375 0 0] CT
0 0.447 0.741 RC
1 LJ
5.333 LW
N
233.364 104.74 M
233.364 93.89 L
S
GR
GS
[0.375 0 0 0.375 0 0] CT
0 0.447 0.741 RC
1 LJ
5.333 LW
N
262.529 105.066 M
262.529 89.49 L
S
GR
GS
[0.375 0 0 0.375 0 0] CT
0 0.447 0.741 RC
1 LJ
5.333 LW
N
291.65 135.051 M
291.65 120.868 L
S
GR
GS
[0.375 0 0 0.375 0 0] CT
0 0.447 0.741 RC
1 LJ
5.333 LW
N
320.772 144.757 M
320.772 122.263 L
S
GR
GS
[0.375 0 0 0.375 0 0] CT
0 0.447 0.741 RC
1 LJ
5.333 LW
N
349.893 159.958 M
349.893 131.986 L
S
GR
GS
[0.375 0 0 0.375 0 0] CT
0 0.447 0.741 RC
1 LJ
5.333 LW
N
379.015 154.786 M
379.015 123.512 L
S
GR
GS
[0.375 0 0 0.375 0 0] CT
0 0.447 0.741 RC
1 LJ
5.333 LW
N
408.136 158.62 M
408.136 128.547 L
S
GR
GS
[0.375 0 0 0.375 0 0] CT
0 0.447 0.741 RC
1 LJ
5.333 LW
N
437.257 155.668 M
437.257 97.86 L
S
GR
GS
[0.375 0 0 0.375 0 0] CT
0 0.447 0.741 RC
1 LJ
5.333 LW
N
466.422 171.431 M
466.422 136.323 L
S
GR
GS
[0.375 0 0 0.375 0 0] CT
0 0.447 0.741 RC
1 LJ
5.333 LW
N
495.544 171.129 M
495.544 130.234 L
S
GR
GS
[0.375 0 0 0.375 0 0] CT
0 0.447 0.741 RC
1 LJ
5.333 LW
N
524.665 217.332 M
524.665 187.563 L
S
GR
GS
[0.375 0 0 0.375 0 0] CT
0 0.447 0.741 RC
1 LJ
5.333 LW
N
553.786 264.682 M
553.786 213.44 L
S
GR
GS
[0.375 0 0 0.375 0 0] CT
0 0.447 0.741 RC
1 LJ
5.333 LW
N
582.908 245.655 M
582.908 204.732 L
S
GR
GS
[0.375 0 0 0.375 0 0] CT
0 0.447 0.741 RC
1 LJ
5.333 LW
N
612.029 247.498 M
612.029 203.754 L
S
GR
GS
[0.375 0 0 0.375 0 0] CT
0 0.447 0.741 RC
1 LJ
5.333 LW
N
641.151 249.896 M
641.151 210.118 L
S
GR
GS
[0.375 0 0 0.375 0 0] CT
0 0.447 0.741 RC
1 LJ
5.333 LW
N
670.315 273.723 M
670.315 234.181 L
S
GR
GS
[0.375 0 0 0.375 0 0] CT
0 0.447 0.741 RC
1 LJ
5.333 LW
N
699.437 267.432 M
699.437 219.746 L
S
GR
GS
[0.375 0 0 0.375 0 0] CT
0 0.447 0.741 RC
1 LJ
5.333 LW
N
728.558 277.881 M
728.558 234.035 L
S
GR
GS
[0.375 0 0 0.375 0 0] CT
0 0.447 0.741 RC
1 LJ
5.333 LW
N
757.68 288.67 M
757.68 250.12 L
S
GR
GS
[0.375 0 0 0.375 0 0] CT
0 0.447 0.741 RC
1 LJ
5.333 LW
N
786.801 283.738 M
786.801 231.979 L
S
GR
GS
[0.375 0 0 0.375 0 0] CT
0 0.447 0.741 RC
1 LJ
5.333 LW
N
815.922 276.67 M
815.922 228.287 L
S
GR
GS
[0.375 0 0 0.375 0 0] CT
0 0.447 0.741 RC
1 LJ
5.333 LW
N
845.044 278.764 M
845.044 233.05 L
S
GR
GS
[0.375 0 0 0.375 0 0] CT
0 0.447 0.741 RC
1 LJ
5.333 LW
N
874.209 286.639 M
874.209 235.642 L
S
GR
GS
[0.375 0 0 0.375 0 0] CT
0 0.447 0.741 RC
1 LJ
5.333 LW
N
903.33 284.853 M
903.33 235.836 L
S
GR
GS
[0.375 0 0 0.375 0 0] CT
0 0.447 0.741 RC
1 LJ
5.333 LW
N
932.451 292.308 M
932.451 245.195 L
S
GR
GS
[0.375 0 0 0.375 0 0] CT
0 0.447 0.741 RC
1 LJ
5.333 LW
N
961.573 289.54 M
961.573 247.957 L
S
GR
GS
[0.375 0 0 0.375 0 0] CT
0 0.447 0.741 RC
1 LJ
5.333 LW
N
990.694 293.907 M
990.694 245.295 L
S
GR
GS
[0.375 0 0 0.375 0 0] CT
0 0.447 0.741 RC
1 LJ
5.333 LW
N
146 79.87 M
175.121 79.493 L
204.243 89.224 L
233.364 104.74 L
262.529 105.066 L
291.65 135.051 L
320.772 144.757 L
349.893 159.958 L
379.015 154.786 L
408.136 158.62 L
437.257 155.668 L
466.422 171.431 L
495.544 171.129 L
524.665 217.332 L
553.786 264.682 L
582.908 245.655 L
612.029 247.498 L
641.151 249.896 L
670.315 273.723 L
699.437 267.432 L
728.558 277.881 L
757.68 288.67 L
786.801 283.738 L
815.922 276.67 L
845.044 278.764 L
874.209 286.639 L
903.33 284.853 L
932.451 292.308 L
961.573 289.54 L
990.694 293.907 L
S
GR
GS
[0.375 0 0 0.375 54.75 32.31693] CT
0 0.447 0.741 RC
N
-8 0 M
8 0 L
f
GR
GS
[0.375 0 0 0.375 54.75 32.31693] CT
0 0.447 0.741 RC
10.0 ML
5.333 LW
N
-8 0 M
8 0 L
S
GR
GS
[0.375 0 0 0.375 65.67052 33.65629] CT
0 0.447 0.741 RC
N
/f1004432658{-8 0 M
8 0 L}def
f1004432658
f
GR
GS
[0.375 0 0 0.375 65.67052 33.65629] CT
0 0.447 0.741 RC
10.0 ML
5.333 LW
N
-8 0 M
8 0 L
S
GR
GS
[0.375 0 0 0.375 76.59105 37.46477] CT
0 0.447 0.741 RC
N
f1004432658
f
GR
GS
[0.375 0 0 0.375 76.59105 37.46477] CT
0 0.447 0.741 RC
10.0 ML
5.333 LW
N
-8 0 M
8 0 L
S
GR
GS
[0.375 0 0 0.375 87.51157 43.34645] CT
0 0.447 0.741 RC
N
f1004432658
f
GR
GS
[0.375 0 0 0.375 87.51157 43.34645] CT
0 0.447 0.741 RC
10.0 ML
5.333 LW
N
-8 0 M
8 0 L
S
GR
GS
[0.375 0 0 0.375 98.44837 45.241] CT
0 0.447 0.741 RC
N
f1004432658
f
GR
GS
[0.375 0 0 0.375 98.44837 45.241] CT
0 0.447 0.741 RC
10.0 ML
5.333 LW
N
-8 0 M
8 0 L
S
GR
GS
[0.375 0 0 0.375 109.3689 55.96255] CT
0 0.447 0.741 RC
N
f1004432658
f
GR
GS
[0.375 0 0 0.375 109.3689 55.96255] CT
0 0.447 0.741 RC
10.0 ML
5.333 LW
N
-8 0 M
8 0 L
S
GR
GS
[0.375 0 0 0.375 120.28942 62.71902] CT
0 0.447 0.741 RC
N
f1004432658
f
GR
GS
[0.375 0 0 0.375 120.28942 62.71902] CT
0 0.447 0.741 RC
10.0 ML
5.333 LW
N
-8 0 M
8 0 L
S
GR
GS
[0.375 0 0 0.375 131.20995 70.4735] CT
0 0.447 0.741 RC
N
f1004432658
f
GR
GS
[0.375 0 0 0.375 131.20995 70.4735] CT
0 0.447 0.741 RC
10.0 ML
5.333 LW
N
-8 0 M
8 0 L
S
GR
GS
[0.375 0 0 0.375 142.13047 69.77288] CT
0 0.447 0.741 RC
N
f1004432658
f
GR
GS
[0.375 0 0 0.375 142.13047 69.77288] CT
0 0.447 0.741 RC
10.0 ML
5.333 LW
N
-8 0 M
8 0 L
S
GR
GS
[0.375 0 0 0.375 153.05099 70.76006] CT
0 0.447 0.741 RC
N
f1004432658
f
GR
GS
[0.375 0 0 0.375 153.05099 70.76006] CT
0 0.447 0.741 RC
10.0 ML
5.333 LW
N
-8 0 M
8 0 L
S
GR
GS
[0.375 0 0 0.375 163.97153 80.05384] CT
0 0.447 0.741 RC
N
f1004432658
f
GR
GS
[0.375 0 0 0.375 163.97153 80.05384] CT
0 0.447 0.741 RC
10.0 ML
5.333 LW
N
-8 0 M
8 0 L
S
GR
GS
[0.375 0 0 0.375 174.90833 77.45201] CT
0 0.447 0.741 RC
N
f1004432658
f
GR
GS
[0.375 0 0 0.375 174.90833 77.45201] CT
0 0.447 0.741 RC
10.0 ML
5.333 LW
N
-8 0 M
8 0 L
S
GR
GS
[0.375 0 0 0.375 185.82885 79.50926] CT
0 0.447 0.741 RC
N
f1004432658
f
GR
GS
[0.375 0 0 0.375 185.82885 79.50926] CT
0 0.447 0.741 RC
10.0 ML
5.333 LW
N
-8 0 M
8 0 L
S
GR
GS
[0.375 0 0 0.375 196.74937 92.66283] CT
0 0.447 0.741 RC
N
f1004432658
f
GR
GS
[0.375 0 0 0.375 196.74937 92.66283] CT
0 0.447 0.741 RC
10.0 ML
5.333 LW
N
-8 0 M
8 0 L
S
GR
GS
[0.375 0 0 0.375 207.66989 118.47113] CT
0 0.447 0.741 RC
N
f1004432658
f
GR
GS
[0.375 0 0 0.375 207.66989 118.47113] CT
0 0.447 0.741 RC
10.0 ML
5.333 LW
N
-8 0 M
8 0 L
S
GR
GS
[0.375 0 0 0.375 218.59044 107.46635] CT
0 0.447 0.741 RC
N
f1004432658
f
GR
GS
[0.375 0 0 0.375 218.59044 107.46635] CT
0 0.447 0.741 RC
10.0 ML
5.333 LW
N
-8 0 M
8 0 L
S
GR
GS
[0.375 0 0 0.375 229.51094 109.21549] CT
0 0.447 0.741 RC
N
f1004432658
f
GR
GS
[0.375 0 0 0.375 229.51094 109.21549] CT
0 0.447 0.741 RC
10.0 ML
5.333 LW
N
-8 0 M
8 0 L
S
GR
GS
[0.375 0 0 0.375 240.43149 108.62761] CT
0 0.447 0.741 RC
N
f1004432658
f
GR
GS
[0.375 0 0 0.375 240.43149 108.62761] CT
0 0.447 0.741 RC
10.0 ML
5.333 LW
N
-8 0 M
8 0 L
S
GR
GS
[0.375 0 0 0.375 251.36826 117.47454] CT
0 0.447 0.741 RC
N
f1004432658
f
GR
GS
[0.375 0 0 0.375 251.36826 117.47454] CT
0 0.447 0.741 RC
10.0 ML
5.333 LW
N
-8 0 M
8 0 L
S
GR
GS
[0.375 0 0 0.375 262.28881 118.16932] CT
0 0.447 0.741 RC
N
f1004432658
f
GR
GS
[0.375 0 0 0.375 262.28881 118.16932] CT
0 0.447 0.741 RC
10.0 ML
5.333 LW
N
-8 0 M
8 0 L
S
GR
GS
[0.375 0 0 0.375 273.20934 120.64725] CT
0 0.447 0.741 RC
N
f1004432658
f
GR
GS
[0.375 0 0 0.375 273.20934 120.64725] CT
0 0.447 0.741 RC
10.0 ML
5.333 LW
N
-8 0 M
8 0 L
S
GR
GS
[0.375 0 0 0.375 284.12984 122.70774] CT
0 0.447 0.741 RC
N
f1004432658
f
GR
GS
[0.375 0 0 0.375 284.12984 122.70774] CT
0 0.447 0.741 RC
10.0 ML
5.333 LW
N
-8 0 M
8 0 L
S
GR
GS
[0.375 0 0 0.375 295.05038 125.81165] CT
0 0.447 0.741 RC
N
f1004432658
f
GR
GS
[0.375 0 0 0.375 295.05038 125.81165] CT
0 0.447 0.741 RC
10.0 ML
5.333 LW
N
-8 0 M
8 0 L
S
GR
GS
[0.375 0 0 0.375 305.97089 121.89488] CT
0 0.447 0.741 RC
N
f1004432658
f
GR
GS
[0.375 0 0 0.375 305.97089 121.89488] CT
0 0.447 0.741 RC
10.0 ML
5.333 LW
N
-8 0 M
8 0 L
S
GR
GS
[0.375 0 0 0.375 316.89143 121.67965] CT
0 0.447 0.741 RC
N
f1004432658
f
GR
GS
[0.375 0 0 0.375 316.89143 121.67965] CT
0 0.447 0.741 RC
10.0 ML
5.333 LW
N
-8 0 M
8 0 L
S
GR
GS
[0.375 0 0 0.375 327.82821 126.61344] CT
0 0.447 0.741 RC
N
f1004432658
f
GR
GS
[0.375 0 0 0.375 327.82821 126.61344] CT
0 0.447 0.741 RC
10.0 ML
5.333 LW
N
-8 0 M
8 0 L
S
GR
GS
[0.375 0 0 0.375 338.74876 125.20132] CT
0 0.447 0.741 RC
N
f1004432658
f
GR
GS
[0.375 0 0 0.375 338.74876 125.20132] CT
0 0.447 0.741 RC
10.0 ML
5.333 LW
N
-8 0 M
8 0 L
S
GR
GS
[0.375 0 0 0.375 349.66928 127.28329] CT
0 0.447 0.741 RC
N
f1004432658
f
GR
GS
[0.375 0 0 0.375 349.66928 127.28329] CT
0 0.447 0.741 RC
10.0 ML
5.333 LW
N
-8 0 M
8 0 L
S
GR
GS
[0.375 0 0 0.375 360.58981 124.17125] CT
0 0.447 0.741 RC
N
f1004432658
f
GR
GS
[0.375 0 0 0.375 360.58981 124.17125] CT
0 0.447 0.741 RC
10.0 ML
5.333 LW
N
-8 0 M
8 0 L
S
GR
GS
[0.375 0 0 0.375 371.51033 128.44427] CT
0 0.447 0.741 RC
N
f1004432658
f
GR
GS
[0.375 0 0 0.375 371.51033 128.44427] CT
0 0.447 0.741 RC
10.0 ML
5.333 LW
N
-8 0 M
8 0 L
S
GR
GS
[0.375 0 0 0.375 54.75 27.58589] CT
0 0.447 0.741 RC
N
f1004432658
f
GR
GS
[0.375 0 0 0.375 54.75 27.58589] CT
0 0.447 0.741 RC
10.0 ML
5.333 LW
N
-8 0 M
8 0 L
S
GR
GS
[0.375 0 0 0.375 65.67052 25.96309] CT
0 0.447 0.741 RC
N
f1004432658
f
GR
GS
[0.375 0 0 0.375 65.67052 25.96309] CT
0 0.447 0.741 RC
10.0 ML
5.333 LW
N
-8 0 M
8 0 L
S
GR
GS
[0.375 0 0 0.375 76.59105 29.45291] CT
0 0.447 0.741 RC
N
f1004432658
f
GR
GS
[0.375 0 0 0.375 76.59105 29.45291] CT
0 0.447 0.741 RC
10.0 ML
5.333 LW
N
-8 0 M
8 0 L
S
GR
GS
[0.375 0 0 0.375 87.51157 35.20889] CT
0 0.447 0.741 RC
N
f1004432658
f
GR
GS
[0.375 0 0 0.375 87.51157 35.20889] CT
0 0.447 0.741 RC
10.0 ML
5.333 LW
N
-8 0 M
8 0 L
S
GR
GS
[0.375 0 0 0.375 98.44837 33.55865] CT
0 0.447 0.741 RC
N
f1004432658
f
GR
GS
[0.375 0 0 0.375 98.44837 33.55865] CT
0 0.447 0.741 RC
10.0 ML
5.333 LW
N
-8 0 M
8 0 L
S
GR
GS
[0.375 0 0 0.375 109.3689 45.32557] CT
0 0.447 0.741 RC
N
f1004432658
f
GR
GS
[0.375 0 0 0.375 109.3689 45.32557] CT
0 0.447 0.741 RC
10.0 ML
5.333 LW
N
-8 0 M
8 0 L
S
GR
GS
[0.375 0 0 0.375 120.28942 45.84877] CT
0 0.447 0.741 RC
N
f1004432658
f
GR
GS
[0.375 0 0 0.375 120.28942 45.84877] CT
0 0.447 0.741 RC
10.0 ML
5.333 LW
N
-8 0 M
8 0 L
S
GR
GS
[0.375 0 0 0.375 131.20995 49.49482] CT
0 0.447 0.741 RC
N
f1004432658
f
GR
GS
[0.375 0 0 0.375 131.20995 49.49482] CT
0 0.447 0.741 RC
10.0 ML
5.333 LW
N
-8 0 M
8 0 L
S
GR
GS
[0.375 0 0 0.375 142.13047 46.31701] CT
0 0.447 0.741 RC
N
f1004432658
f
GR
GS
[0.375 0 0 0.375 142.13047 46.31701] CT
0 0.447 0.741 RC
10.0 ML
5.333 LW
N
-8 0 M
8 0 L
S
GR
GS
[0.375 0 0 0.375 153.05099 48.20525] CT
0 0.447 0.741 RC
N
f1004432658
f
GR
GS
[0.375 0 0 0.375 153.05099 48.20525] CT
0 0.447 0.741 RC
10.0 ML
5.333 LW
N
-8 0 M
8 0 L
S
GR
GS
[0.375 0 0 0.375 163.97153 36.69741] CT
0 0.447 0.741 RC
N
f1004432658
f
GR
GS
[0.375 0 0 0.375 163.97153 36.69741] CT
0 0.447 0.741 RC
10.0 ML
5.333 LW
N
-8 0 M
8 0 L
S
GR
GS
[0.375 0 0 0.375 174.90833 51.12109] CT
0 0.447 0.741 RC
N
f1004432658
f
GR
GS
[0.375 0 0 0.375 174.90833 51.12109] CT
0 0.447 0.741 RC
10.0 ML
5.333 LW
N
-8 0 M
8 0 L
S
GR
GS
[0.375 0 0 0.375 185.82885 48.83766] CT
0 0.447 0.741 RC
N
f1004432658
f
GR
GS
[0.375 0 0 0.375 185.82885 48.83766] CT
0 0.447 0.741 RC
10.0 ML
5.333 LW
N
-8 0 M
8 0 L
S
GR
GS
[0.375 0 0 0.375 196.74937 70.33605] CT
0 0.447 0.741 RC
N
f1004432658
f
GR
GS
[0.375 0 0 0.375 196.74937 70.33605] CT
0 0.447 0.741 RC
10.0 ML
5.333 LW
N
-8 0 M
8 0 L
S
GR
GS
[0.375 0 0 0.375 207.66989 80.04006] CT
0 0.447 0.741 RC
N
f1004432658
f
GR
GS
[0.375 0 0 0.375 207.66989 80.04006] CT
0 0.447 0.741 RC
10.0 ML
5.333 LW
N
-8 0 M
8 0 L
S
GR
GS
[0.375 0 0 0.375 218.59044 76.77465] CT
0 0.447 0.741 RC
N
f1004432658
f
GR
GS
[0.375 0 0 0.375 218.59044 76.77465] CT
0 0.447 0.741 RC
10.0 ML
5.333 LW
N
-8 0 M
8 0 L
S
GR
GS
[0.375 0 0 0.375 229.51094 76.40762] CT
0 0.447 0.741 RC
N
f1004432658
f
GR
GS
[0.375 0 0 0.375 229.51094 76.40762] CT
0 0.447 0.741 RC
10.0 ML
5.333 LW
N
-8 0 M
8 0 L
S
GR
GS
[0.375 0 0 0.375 240.43149 78.79419] CT
0 0.447 0.741 RC
N
f1004432658
f
GR
GS
[0.375 0 0 0.375 240.43149 78.79419] CT
0 0.447 0.741 RC
10.0 ML
5.333 LW
N
-8 0 M
8 0 L
S
GR
GS
[0.375 0 0 0.375 251.36826 87.81769] CT
0 0.447 0.741 RC
N
f1004432658
f
GR
GS
[0.375 0 0 0.375 251.36826 87.81769] CT
0 0.447 0.741 RC
10.0 ML
5.333 LW
N
-8 0 M
8 0 L
S
GR
GS
[0.375 0 0 0.375 262.28881 82.40468] CT
0 0.447 0.741 RC
N
f1004432658
f
GR
GS
[0.375 0 0 0.375 262.28881 82.40468] CT
0 0.447 0.741 RC
10.0 ML
5.333 LW
N
-8 0 M
8 0 L
S
GR
GS
[0.375 0 0 0.375 273.20934 87.76327] CT
0 0.447 0.741 RC
N
f1004432658
f
GR
GS
[0.375 0 0 0.375 273.20934 87.76327] CT
0 0.447 0.741 RC
10.0 ML
5.333 LW
N
-8 0 M
8 0 L
S
GR
GS
[0.375 0 0 0.375 284.12984 93.79508] CT
0 0.447 0.741 RC
N
f1004432658
f
GR
GS
[0.375 0 0 0.375 284.12984 93.79508] CT
0 0.447 0.741 RC
10.0 ML
5.333 LW
N
-8 0 M
8 0 L
S
GR
GS
[0.375 0 0 0.375 295.05038 86.99218] CT
0 0.447 0.741 RC
N
f1004432658
f
GR
GS
[0.375 0 0 0.375 295.05038 86.99218] CT
0 0.447 0.741 RC
10.0 ML
5.333 LW
N
-8 0 M
8 0 L
S
GR
GS
[0.375 0 0 0.375 305.97089 85.6076] CT
0 0.447 0.741 RC
N
f1004432658
f
GR
GS
[0.375 0 0 0.375 305.97089 85.6076] CT
0 0.447 0.741 RC
10.0 ML
5.333 LW
N
-8 0 M
8 0 L
S
GR
GS
[0.375 0 0 0.375 316.89143 87.39368] CT
0 0.447 0.741 RC
N
f1004432658
f
GR
GS
[0.375 0 0 0.375 316.89143 87.39368] CT
0 0.447 0.741 RC
10.0 ML
5.333 LW
N
-8 0 M
8 0 L
S
GR
GS
[0.375 0 0 0.375 327.82821 88.36581] CT
0 0.447 0.741 RC
N
f1004432658
f
GR
GS
[0.375 0 0 0.375 327.82821 88.36581] CT
0 0.447 0.741 RC
10.0 ML
5.333 LW
N
-8 0 M
8 0 L
S
GR
GS
[0.375 0 0 0.375 338.74876 88.43849] CT
0 0.447 0.741 RC
N
f1004432658
f
GR
GS
[0.375 0 0 0.375 338.74876 88.43849] CT
0 0.447 0.741 RC
10.0 ML
5.333 LW
N
-8 0 M
8 0 L
S
GR
GS
[0.375 0 0 0.375 349.66928 91.948] CT
0 0.447 0.741 RC
N
f1004432658
f
GR
GS
[0.375 0 0 0.375 349.66928 91.948] CT
0 0.447 0.741 RC
10.0 ML
5.333 LW
N
-8 0 M
8 0 L
S
GR
GS
[0.375 0 0 0.375 360.58981 92.98388] CT
0 0.447 0.741 RC
N
f1004432658
f
GR
GS
[0.375 0 0 0.375 360.58981 92.98388] CT
0 0.447 0.741 RC
10.0 ML
5.333 LW
N
-8 0 M
8 0 L
S
GR
GS
[0.375 0 0 0.375 371.51033 91.98565] CT
0 0.447 0.741 RC
N
f1004432658
f
GR
GS
[0.375 0 0 0.375 371.51033 91.98565] CT
0 0.447 0.741 RC
10.0 ML
5.333 LW
N
-8 0 M
8 0 L
S
GR
GS
[0.375 0 0 0.375 0 0] CT
0.851 0.325 0.098 RC
1 LJ
5.333 LW
N
146 82.989 M
146 85.718 L
S
GR
GS
[0.375 0 0 0.375 0 0] CT
0.851 0.325 0.098 RC
1 LJ
5.333 LW
N
175.121 85.064 M
175.121 95.534 L
S
GR
GS
[0.375 0 0 0.375 0 0] CT
0.851 0.325 0.098 RC
1 LJ
5.333 LW
N
204.243 95.467 M
204.243 117.768 L
S
GR
GS
[0.375 0 0 0.375 0 0] CT
0.851 0.325 0.098 RC
1 LJ
5.333 LW
N
233.364 162.578 M
233.364 192.771 L
S
GR
GS
[0.375 0 0 0.375 0 0] CT
0.851 0.325 0.098 RC
1 LJ
5.333 LW
N
262.529 180.94 M
262.529 216.767 L
S
GR
GS
[0.375 0 0 0.375 0 0] CT
0.851 0.325 0.098 RC
1 LJ
5.333 LW
N
291.65 201.204 M
291.65 239.86 L
S
GR
GS
[0.375 0 0 0.375 0 0] CT
0.851 0.325 0.098 RC
1 LJ
5.333 LW
N
320.772 223.459 M
320.772 272.148 L
S
GR
GS
[0.375 0 0 0.375 0 0] CT
0.851 0.325 0.098 RC
1 LJ
5.333 LW
N
349.893 262.257 M
349.893 308.554 L
S
GR
GS
[0.375 0 0 0.375 0 0] CT
0.851 0.325 0.098 RC
1 LJ
5.333 LW
N
379.015 270.628 M
379.015 308.299 L
S
GR
GS
[0.375 0 0 0.375 0 0] CT
0.851 0.325 0.098 RC
1 LJ
5.333 LW
N
408.136 270.628 M
408.136 309.637 L
S
GR
GS
[0.375 0 0 0.375 0 0] CT
0.851 0.325 0.098 RC
1 LJ
5.333 LW
N
437.257 275.417 M
437.257 339.999 L
S
GR
GS
[0.375 0 0 0.375 0 0] CT
0.851 0.325 0.098 RC
1 LJ
5.333 LW
N
466.422 300.484 M
466.422 366.082 L
S
GR
GS
[0.375 0 0 0.375 0 0] CT
0.851 0.325 0.098 RC
1 LJ
5.333 LW
N
495.544 298.785 M
495.544 405.163 L
S
GR
GS
[0.375 0 0 0.375 0 0] CT
0.851 0.325 0.098 RC
1 LJ
5.333 LW
N
524.665 298.785 M
524.665 405.163 L
S
GR
GS
[0.375 0 0 0.375 0 0] CT
0.851 0.325 0.098 RC
1 LJ
5.333 LW
N
553.786 297.405 M
553.786 379.834 L
S
GR
GS
[0.375 0 0 0.375 0 0] CT
0.851 0.325 0.098 RC
1 LJ
5.333 LW
N
582.908 310.485 M
582.908 391.278 L
S
GR
GS
[0.375 0 0 0.375 0 0] CT
0.851 0.325 0.098 RC
1 LJ
5.333 LW
N
612.029 329.58 M
612.029 405.994 L
S
GR
GS
[0.375 0 0 0.375 0 0] CT
0.851 0.325 0.098 RC
1 LJ
5.333 LW
N
641.151 329.58 M
641.151 406.34 L
S
GR
GS
[0.375 0 0 0.375 0 0] CT
0.851 0.325 0.098 RC
1 LJ
5.333 LW
N
670.315 518.271 M
670.315 629.362 L
S
GR
GS
[0.375 0 0 0.375 0 0] CT
0.851 0.325 0.098 RC
1 LJ
5.333 LW
N
699.437 518.271 M
699.437 628.037 L
S
GR
GS
[0.375 0 0 0.375 0 0] CT
0.851 0.325 0.098 RC
1 LJ
5.333 LW
N
728.558 413.461 M
728.558 512.967 L
S
GR
GS
[0.375 0 0 0.375 0 0] CT
0.851 0.325 0.098 RC
1 LJ
5.333 LW
N
757.68 413.461 M
757.68 512.967 L
S
GR
GS
[0.375 0 0 0.375 0 0] CT
0.851 0.325 0.098 RC
1 LJ
5.333 LW
N
786.801 498.205 M
786.801 596.533 L
S
GR
GS
[0.375 0 0 0.375 0 0] CT
0.851 0.325 0.098 RC
1 LJ
5.333 LW
N
815.922 508.856 M
815.922 605.458 L
S
GR
GS
[0.375 0 0 0.375 0 0] CT
0.851 0.325 0.098 RC
1 LJ
5.333 LW
N
845.044 508.856 M
845.044 606.104 L
S
GR
GS
[0.375 0 0 0.375 0 0] CT
0.851 0.325 0.098 RC
1 LJ
5.333 LW
N
874.209 532.427 M
874.209 632.715 L
S
GR
GS
[0.375 0 0 0.375 0 0] CT
0.851 0.325 0.098 RC
1 LJ
5.333 LW
N
903.33 604.471 M
903.33 676.654 L
S
GR
GS
[0.375 0 0 0.375 0 0] CT
0.851 0.325 0.098 RC
1 LJ
5.333 LW
N
932.451 605.489 M
932.451 678.502 L
S
GR
GS
[0.375 0 0 0.375 0 0] CT
0.851 0.325 0.098 RC
1 LJ
5.333 LW
N
961.573 605.489 M
961.573 700.453 L
S
GR
GS
[0.375 0 0 0.375 0 0] CT
0.851 0.325 0.098 RC
1 LJ
5.333 LW
N
990.694 635.029 M
990.694 728.789 L
S
GR
GS
[0.375 0 0 0.375 0 0] CT
0.851 0.325 0.098 RC
1 LJ
5.333 LW
N
146 82.989 M
146 80.259 L
S
GR
GS
[0.375 0 0 0.375 0 0] CT
0.851 0.325 0.098 RC
1 LJ
5.333 LW
N
175.121 85.064 M
175.121 74.594 L
S
GR
GS
[0.375 0 0 0.375 0 0] CT
0.851 0.325 0.098 RC
1 LJ
5.333 LW
N
204.243 95.467 M
204.243 73.166 L
S
GR
GS
[0.375 0 0 0.375 0 0] CT
0.851 0.325 0.098 RC
1 LJ
5.333 LW
N
233.364 162.578 M
233.364 132.386 L
S
GR
GS
[0.375 0 0 0.375 0 0] CT
0.851 0.325 0.098 RC
1 LJ
5.333 LW
N
262.529 180.94 M
262.529 145.112 L
S
GR
GS
[0.375 0 0 0.375 0 0] CT
0.851 0.325 0.098 RC
1 LJ
5.333 LW
N
291.65 201.204 M
291.65 162.547 L
S
GR
GS
[0.375 0 0 0.375 0 0] CT
0.851 0.325 0.098 RC
1 LJ
5.333 LW
N
320.772 223.459 M
320.772 174.771 L
S
GR
GS
[0.375 0 0 0.375 0 0] CT
0.851 0.325 0.098 RC
1 LJ
5.333 LW
N
349.893 262.257 M
349.893 215.96 L
S
GR
GS
[0.375 0 0 0.375 0 0] CT
0.851 0.325 0.098 RC
1 LJ
5.333 LW
N
379.015 270.628 M
379.015 232.958 L
S
GR
GS
[0.375 0 0 0.375 0 0] CT
0.851 0.325 0.098 RC
1 LJ
5.333 LW
N
408.136 270.628 M
408.136 231.62 L
S
GR
GS
[0.375 0 0 0.375 0 0] CT
0.851 0.325 0.098 RC
1 LJ
5.333 LW
N
437.257 275.417 M
437.257 210.834 L
S
GR
GS
[0.375 0 0 0.375 0 0] CT
0.851 0.325 0.098 RC
1 LJ
5.333 LW
N
466.422 300.484 M
466.422 234.887 L
S
GR
GS
[0.375 0 0 0.375 0 0] CT
0.851 0.325 0.098 RC
1 LJ
5.333 LW
N
495.544 298.785 M
495.544 192.406 L
S
GR
GS
[0.375 0 0 0.375 0 0] CT
0.851 0.325 0.098 RC
1 LJ
5.333 LW
N
524.665 298.785 M
524.665 192.406 L
S
GR
GS
[0.375 0 0 0.375 0 0] CT
0.851 0.325 0.098 RC
1 LJ
5.333 LW
N
553.786 297.405 M
553.786 214.977 L
S
GR
GS
[0.375 0 0 0.375 0 0] CT
0.851 0.325 0.098 RC
1 LJ
5.333 LW
N
582.908 310.485 M
582.908 229.693 L
S
GR
GS
[0.375 0 0 0.375 0 0] CT
0.851 0.325 0.098 RC
1 LJ
5.333 LW
N
612.029 329.58 M
612.029 253.165 L
S
GR
GS
[0.375 0 0 0.375 0 0] CT
0.851 0.325 0.098 RC
1 LJ
5.333 LW
N
641.151 329.58 M
641.151 252.819 L
S
GR
GS
[0.375 0 0 0.375 0 0] CT
0.851 0.325 0.098 RC
1 LJ
5.333 LW
N
670.315 518.271 M
670.315 407.179 L
S
GR
GS
[0.375 0 0 0.375 0 0] CT
0.851 0.325 0.098 RC
1 LJ
5.333 LW
N
699.437 518.271 M
699.437 408.505 L
S
GR
GS
[0.375 0 0 0.375 0 0] CT
0.851 0.325 0.098 RC
1 LJ
5.333 LW
N
728.558 413.461 M
728.558 313.955 L
S
GR
GS
[0.375 0 0 0.375 0 0] CT
0.851 0.325 0.098 RC
1 LJ
5.333 LW
N
757.68 413.461 M
757.68 313.955 L
S
GR
GS
[0.375 0 0 0.375 0 0] CT
0.851 0.325 0.098 RC
1 LJ
5.333 LW
N
786.801 498.205 M
786.801 399.877 L
S
GR
GS
[0.375 0 0 0.375 0 0] CT
0.851 0.325 0.098 RC
1 LJ
5.333 LW
N
815.922 508.856 M
815.922 412.253 L
S
GR
GS
[0.375 0 0 0.375 0 0] CT
0.851 0.325 0.098 RC
1 LJ
5.333 LW
N
845.044 508.856 M
845.044 411.608 L
S
GR
GS
[0.375 0 0 0.375 0 0] CT
0.851 0.325 0.098 RC
1 LJ
5.333 LW
N
874.209 532.427 M
874.209 432.138 L
S
GR
GS
[0.375 0 0 0.375 0 0] CT
0.851 0.325 0.098 RC
1 LJ
5.333 LW
N
903.33 604.471 M
903.33 532.288 L
S
GR
GS
[0.375 0 0 0.375 0 0] CT
0.851 0.325 0.098 RC
1 LJ
5.333 LW
N
932.451 605.489 M
932.451 532.475 L
S
GR
GS
[0.375 0 0 0.375 0 0] CT
0.851 0.325 0.098 RC
1 LJ
5.333 LW
N
961.573 605.489 M
961.573 510.524 L
S
GR
GS
[0.375 0 0 0.375 0 0] CT
0.851 0.325 0.098 RC
1 LJ
5.333 LW
N
990.694 635.029 M
990.694 541.268 L
S
GR
GS
[0.375 0 0 0.375 0 0] CT
0.851 0.325 0.098 RC
1 LJ
5.333 LW
N
146 82.989 M
175.121 85.064 L
204.243 95.467 L
233.364 162.578 L
262.529 180.94 L
291.65 201.204 L
320.772 223.459 L
349.893 262.257 L
379.015 270.628 L
408.136 270.628 L
437.257 275.417 L
466.422 300.484 L
495.544 298.785 L
524.665 298.785 L
553.786 297.405 L
582.908 310.485 L
612.029 329.58 L
641.151 329.58 L
670.315 518.271 L
699.437 518.271 L
728.558 413.461 L
757.68 413.461 L
786.801 498.205 L
815.922 508.856 L
845.044 508.856 L
874.209 532.427 L
903.33 604.471 L
932.451 605.489 L
961.573 605.489 L
990.694 635.029 L
S
GR
GS
[0.375 0 0 0.375 54.75 32.14438] CT
0.851 0.325 0.098 RC
N
f1004432658
f
GR
GS
[0.375 0 0 0.375 54.75 32.14438] CT
0.851 0.325 0.098 RC
10.0 ML
5.333 LW
N
-8 0 M
8 0 L
S
GR
GS
[0.375 0 0 0.375 65.67052 35.82517] CT
0.851 0.325 0.098 RC
N
f1004432658
f
GR
GS
[0.375 0 0 0.375 65.67052 35.82517] CT
0.851 0.325 0.098 RC
10.0 ML
5.333 LW
N
-8 0 M
8 0 L
S
GR
GS
[0.375 0 0 0.375 76.59105 44.16306] CT
0.851 0.325 0.098 RC
N
f1004432658
f
GR
GS
[0.375 0 0 0.375 76.59105 44.16306] CT
0.851 0.325 0.098 RC
10.0 ML
5.333 LW
N
-8 0 M
8 0 L
S
GR
GS
[0.375 0 0 0.375 87.51157 72.28903] CT
0.851 0.325 0.098 RC
N
f1004432658
f
GR
GS
[0.375 0 0 0.375 87.51157 72.28903] CT
0.851 0.325 0.098 RC
10.0 ML
5.333 LW
N
-8 0 M
8 0 L
S
GR
GS
[0.375 0 0 0.375 98.44837 81.28772] CT
0.851 0.325 0.098 RC
N
f1004432658
f
GR
GS
[0.375 0 0 0.375 98.44837 81.28772] CT
0.851 0.325 0.098 RC
10.0 ML
5.333 LW
N
-8 0 M
8 0 L
S
GR
GS
[0.375 0 0 0.375 109.3689 89.94741] CT
0.851 0.325 0.098 RC
N
f1004432658
f
GR
GS
[0.375 0 0 0.375 109.3689 89.94741] CT
0.851 0.325 0.098 RC
10.0 ML
5.333 LW
N
-8 0 M
8 0 L
S
GR
GS
[0.375 0 0 0.375 120.28942 102.05537] CT
0.851 0.325 0.098 RC
N
f1004432658
f
GR
GS
[0.375 0 0 0.375 120.28942 102.05537] CT
0.851 0.325 0.098 RC
10.0 ML
5.333 LW
N
-8 0 M
8 0 L
S
GR
GS
[0.375 0 0 0.375 131.20995 115.70789] CT
0.851 0.325 0.098 RC
N
f1004432658
f
GR
GS
[0.375 0 0 0.375 131.20995 115.70789] CT
0.851 0.325 0.098 RC
10.0 ML
5.333 LW
N
-8 0 M
8 0 L
S
GR
GS
[0.375 0 0 0.375 142.13047 115.61219] CT
0.851 0.325 0.098 RC
N
f1004432658
f
GR
GS
[0.375 0 0 0.375 142.13047 115.61219] CT
0.851 0.325 0.098 RC
10.0 ML
5.333 LW
N
-8 0 M
8 0 L
S
GR
GS
[0.375 0 0 0.375 153.05099 116.11383] CT
0.851 0.325 0.098 RC
N
f1004432658
f
GR
GS
[0.375 0 0 0.375 153.05099 116.11383] CT
0.851 0.325 0.098 RC
10.0 ML
5.333 LW
N
-8 0 M
8 0 L
S
GR
GS
[0.375 0 0 0.375 163.97153 127.49957] CT
0.851 0.325 0.098 RC
N
f1004432658
f
GR
GS
[0.375 0 0 0.375 163.97153 127.49957] CT
0.851 0.325 0.098 RC
10.0 ML
5.333 LW
N
-8 0 M
8 0 L
S
GR
GS
[0.375 0 0 0.375 174.90833 137.28072] CT
0.851 0.325 0.098 RC
N
f1004432658
f
GR
GS
[0.375 0 0 0.375 174.90833 137.28072] CT
0.851 0.325 0.098 RC
10.0 ML
5.333 LW
N
-8 0 M
8 0 L
S
GR
GS
[0.375 0 0 0.375 185.82885 151.93596] CT
0.851 0.325 0.098 RC
N
f1004432658
f
GR
GS
[0.375 0 0 0.375 185.82885 151.93596] CT
0.851 0.325 0.098 RC
10.0 ML
5.333 LW
N
-8 0 M
8 0 L
S
GR
GS
[0.375 0 0 0.375 196.74937 151.93596] CT
0.851 0.325 0.098 RC
N
f1004432658
f
GR
GS
[0.375 0 0 0.375 196.74937 151.93596] CT
0.851 0.325 0.098 RC
10.0 ML
5.333 LW
N
-8 0 M
8 0 L
S
GR
GS
[0.375 0 0 0.375 207.66989 142.4376] CT
0.851 0.325 0.098 RC
N
f1004432658
f
GR
GS
[0.375 0 0 0.375 207.66989 142.4376] CT
0.851 0.325 0.098 RC
10.0 ML
5.333 LW
N
-8 0 M
8 0 L
S
GR
GS
[0.375 0 0 0.375 218.59044 146.72919] CT
0.851 0.325 0.098 RC
N
f1004432658
f
GR
GS
[0.375 0 0 0.375 218.59044 146.72919] CT
0.851 0.325 0.098 RC
10.0 ML
5.333 LW
N
-8 0 M
8 0 L
S
GR
GS
[0.375 0 0 0.375 229.51094 152.24792] CT
0.851 0.325 0.098 RC
N
f1004432658
f
GR
GS
[0.375 0 0 0.375 229.51094 152.24792] CT
0.851 0.325 0.098 RC
10.0 ML
5.333 LW
N
-8 0 M
8 0 L
S
GR
GS
[0.375 0 0 0.375 240.43149 152.37749] CT
0.851 0.325 0.098 RC
N
f1004432658
f
GR
GS
[0.375 0 0 0.375 240.43149 152.37749] CT
0.851 0.325 0.098 RC
10.0 ML
5.333 LW
N
-8 0 M
8 0 L
S
GR
GS
[0.375 0 0 0.375 251.36826 236.01089] CT
0.851 0.325 0.098 RC
N
f1004432658
f
GR
GS
[0.375 0 0 0.375 251.36826 236.01089] CT
0.851 0.325 0.098 RC
10.0 ML
5.333 LW
N
-8 0 M
8 0 L
S
GR
GS
[0.375 0 0 0.375 262.28881 235.51371] CT
0.851 0.325 0.098 RC
N
f1004432658
f
GR
GS
[0.375 0 0 0.375 262.28881 235.51371] CT
0.851 0.325 0.098 RC
10.0 ML
5.333 LW
N
-8 0 M
8 0 L
S
GR
GS
[0.375 0 0 0.375 273.20934 192.36266] CT
0.851 0.325 0.098 RC
N
f1004432658
f
GR
GS
[0.375 0 0 0.375 273.20934 192.36266] CT
0.851 0.325 0.098 RC
10.0 ML
5.333 LW
N
-8 0 M
8 0 L
S
GR
GS
[0.375 0 0 0.375 284.12984 192.36266] CT
0.851 0.325 0.098 RC
N
f1004432658
f
GR
GS
[0.375 0 0 0.375 284.12984 192.36266] CT
0.851 0.325 0.098 RC
10.0 ML
5.333 LW
N
-8 0 M
8 0 L
S
GR
GS
[0.375 0 0 0.375 295.05038 223.70004] CT
0.851 0.325 0.098 RC
N
f1004432658
f
GR
GS
[0.375 0 0 0.375 295.05038 223.70004] CT
0.851 0.325 0.098 RC
10.0 ML
5.333 LW
N
-8 0 M
8 0 L
S
GR
GS
[0.375 0 0 0.375 305.97089 227.04675] CT
0.851 0.325 0.098 RC
N
f1004432658
f
GR
GS
[0.375 0 0 0.375 305.97089 227.04675] CT
0.851 0.325 0.098 RC
10.0 ML
5.333 LW
N
-8 0 M
8 0 L
S
GR
GS
[0.375 0 0 0.375 316.89143 227.28884] CT
0.851 0.325 0.098 RC
N
f1004432658
f
GR
GS
[0.375 0 0 0.375 316.89143 227.28884] CT
0.851 0.325 0.098 RC
10.0 ML
5.333 LW
N
-8 0 M
8 0 L
S
GR
GS
[0.375 0 0 0.375 327.82821 237.26807] CT
0.851 0.325 0.098 RC
N
f1004432658
f
GR
GS
[0.375 0 0 0.375 327.82821 237.26807] CT
0.851 0.325 0.098 RC
10.0 ML
5.333 LW
N
-8 0 M
8 0 L
S
GR
GS
[0.375 0 0 0.375 338.74876 253.7452] CT
0.851 0.325 0.098 RC
N
f1004432658
f
GR
GS
[0.375 0 0 0.375 338.74876 253.7452] CT
0.851 0.325 0.098 RC
10.0 ML
5.333 LW
N
-8 0 M
8 0 L
S
GR
GS
[0.375 0 0 0.375 349.66928 254.43821] CT
0.851 0.325 0.098 RC
N
f1004432658
f
GR
GS
[0.375 0 0 0.375 349.66928 254.43821] CT
0.851 0.325 0.098 RC
10.0 ML
5.333 LW
N
-8 0 M
8 0 L
S
GR
GS
[0.375 0 0 0.375 360.58981 262.6699] CT
0.851 0.325 0.098 RC
N
f1004432658
f
GR
GS
[0.375 0 0 0.375 360.58981 262.6699] CT
0.851 0.325 0.098 RC
10.0 ML
5.333 LW
N
-8 0 M
8 0 L
S
GR
GS
[0.375 0 0 0.375 371.51033 273.2959] CT
0.851 0.325 0.098 RC
N
f1004432658
f
GR
GS
[0.375 0 0 0.375 371.51033 273.2959] CT
0.851 0.325 0.098 RC
10.0 ML
5.333 LW
N
-8 0 M
8 0 L
S
GR
GS
[0.375 0 0 0.375 54.75 30.09704] CT
0.851 0.325 0.098 RC
N
f1004432658
f
GR
GS
[0.375 0 0 0.375 54.75 30.09704] CT
0.851 0.325 0.098 RC
10.0 ML
5.333 LW
N
-8 0 M
8 0 L
S
GR
GS
[0.375 0 0 0.375 65.67052 27.97278] CT
0.851 0.325 0.098 RC
N
f1004432658
f
GR
GS
[0.375 0 0 0.375 65.67052 27.97278] CT
0.851 0.325 0.098 RC
10.0 ML
5.333 LW
N
-8 0 M
8 0 L
S
GR
GS
[0.375 0 0 0.375 76.59105 27.43707] CT
0.851 0.325 0.098 RC
N
f1004432658
f
GR
GS
[0.375 0 0 0.375 76.59105 27.43707] CT
0.851 0.325 0.098 RC
10.0 ML
5.333 LW
N
-8 0 M
8 0 L
S
GR
GS
[0.375 0 0 0.375 87.51157 49.64473] CT
0.851 0.325 0.098 RC
N
f1004432658
f
GR
GS
[0.375 0 0 0.375 87.51157 49.64473] CT
0.851 0.325 0.098 RC
10.0 ML
5.333 LW
N
-8 0 M
8 0 L
S
GR
GS
[0.375 0 0 0.375 98.44837 54.41713] CT
0.851 0.325 0.098 RC
N
f1004432658
f
GR
GS
[0.375 0 0 0.375 98.44837 54.41713] CT
0.851 0.325 0.098 RC
10.0 ML
5.333 LW
N
-8 0 M
8 0 L
S
GR
GS
[0.375 0 0 0.375 109.3689 60.95524] CT
0.851 0.325 0.098 RC
N
f1004432658
f
GR
GS
[0.375 0 0 0.375 109.3689 60.95524] CT
0.851 0.325 0.098 RC
10.0 ML
5.333 LW
N
-8 0 M
8 0 L
S
GR
GS
[0.375 0 0 0.375 120.28942 65.53913] CT
0.851 0.325 0.098 RC
N
f1004432658
f
GR
GS
[0.375 0 0 0.375 120.28942 65.53913] CT
0.851 0.325 0.098 RC
10.0 ML
5.333 LW
N
-8 0 M
8 0 L
S
GR
GS
[0.375 0 0 0.375 131.20995 80.98481] CT
0.851 0.325 0.098 RC
N
f1004432658
f
GR
GS
[0.375 0 0 0.375 131.20995 80.98481] CT
0.851 0.325 0.098 RC
10.0 ML
5.333 LW
N
-8 0 M
8 0 L
S
GR
GS
[0.375 0 0 0.375 142.13047 87.3591] CT
0.851 0.325 0.098 RC
N
f1004432658
f
GR
GS
[0.375 0 0 0.375 142.13047 87.3591] CT
0.851 0.325 0.098 RC
10.0 ML
5.333 LW
N
-8 0 M
8 0 L
S
GR
GS
[0.375 0 0 0.375 153.05099 86.85745] CT
0.851 0.325 0.098 RC
N
f1004432658
f
GR
GS
[0.375 0 0 0.375 153.05099 86.85745] CT
0.851 0.325 0.098 RC
10.0 ML
5.333 LW
N
-8 0 M
8 0 L
S
GR
GS
[0.375 0 0 0.375 163.97153 79.06289] CT
0.851 0.325 0.098 RC
N
f1004432658
f
GR
GS
[0.375 0 0 0.375 163.97153 79.06289] CT
0.851 0.325 0.098 RC
10.0 ML
5.333 LW
N
-8 0 M
8 0 L
S
GR
GS
[0.375 0 0 0.375 174.90833 88.08265] CT
0.851 0.325 0.098 RC
N
f1004432658
f
GR
GS
[0.375 0 0 0.375 174.90833 88.08265] CT
0.851 0.325 0.098 RC
10.0 ML
5.333 LW
N
-8 0 M
8 0 L
S
GR
GS
[0.375 0 0 0.375 185.82885 72.15242] CT
0.851 0.325 0.098 RC
N
f1004432658
f
GR
GS
[0.375 0 0 0.375 185.82885 72.15242] CT
0.851 0.325 0.098 RC
10.0 ML
5.333 LW
N
-8 0 M
8 0 L
S
GR
GS
[0.375 0 0 0.375 196.74937 72.15242] CT
0.851 0.325 0.098 RC
N
f1004432658
f
GR
GS
[0.375 0 0 0.375 196.74937 72.15242] CT
0.851 0.325 0.098 RC
10.0 ML
5.333 LW
N
-8 0 M
8 0 L
S
GR
GS
[0.375 0 0 0.375 207.66989 80.61629] CT
0.851 0.325 0.098 RC
N
f1004432658
f
GR
GS
[0.375 0 0 0.375 207.66989 80.61629] CT
0.851 0.325 0.098 RC
10.0 ML
5.333 LW
N
-8 0 M
8 0 L
S
GR
GS
[0.375 0 0 0.375 218.59044 86.1348] CT
0.851 0.325 0.098 RC
N
f1004432658
f
GR
GS
[0.375 0 0 0.375 218.59044 86.1348] CT
0.851 0.325 0.098 RC
10.0 ML
5.333 LW
N
-8 0 M
8 0 L
S
GR
GS
[0.375 0 0 0.375 229.51094 94.93685] CT
0.851 0.325 0.098 RC
N
f1004432658
f
GR
GS
[0.375 0 0 0.375 229.51094 94.93685] CT
0.851 0.325 0.098 RC
10.0 ML
5.333 LW
N
-8 0 M
8 0 L
S
GR
GS
[0.375 0 0 0.375 240.43149 94.80729] CT
0.851 0.325 0.098 RC
N
f1004432658
f
GR
GS
[0.375 0 0 0.375 240.43149 94.80729] CT
0.851 0.325 0.098 RC
10.0 ML
5.333 LW
N
-8 0 M
8 0 L
S
GR
GS
[0.375 0 0 0.375 251.36826 152.69202] CT
0.851 0.325 0.098 RC
N
f1004432658
f
GR
GS
[0.375 0 0 0.375 251.36826 152.69202] CT
0.851 0.325 0.098 RC
10.0 ML
5.333 LW
N
-8 0 M
8 0 L
S
GR
GS
[0.375 0 0 0.375 262.28881 153.18921] CT
0.851 0.325 0.098 RC
N
f1004432658
f
GR
GS
[0.375 0 0 0.375 262.28881 153.18921] CT
0.851 0.325 0.098 RC
10.0 ML
5.333 LW
N
-8 0 M
8 0 L
S
GR
GS
[0.375 0 0 0.375 273.20934 117.73295] CT
0.851 0.325 0.098 RC
N
f1004432658
f
GR
GS
[0.375 0 0 0.375 273.20934 117.73295] CT
0.851 0.325 0.098 RC
10.0 ML
5.333 LW
N
-8 0 M
8 0 L
S
GR
GS
[0.375 0 0 0.375 284.12984 117.73295] CT
0.851 0.325 0.098 RC
N
f1004432658
f
GR
GS
[0.375 0 0 0.375 284.12984 117.73295] CT
0.851 0.325 0.098 RC
10.0 ML
5.333 LW
N
-8 0 M
8 0 L
S
GR
GS
[0.375 0 0 0.375 295.05038 149.95393] CT
0.851 0.325 0.098 RC
N
f1004432658
f
GR
GS
[0.375 0 0 0.375 295.05038 149.95393] CT
0.851 0.325 0.098 RC
10.0 ML
5.333 LW
N
-8 0 M
8 0 L
S
GR
GS
[0.375 0 0 0.375 305.97089 154.59502] CT
0.851 0.325 0.098 RC
N
f1004432658
f
GR
GS
[0.375 0 0 0.375 305.97089 154.59502] CT
0.851 0.325 0.098 RC
10.0 ML
5.333 LW
N
-8 0 M
8 0 L
S
GR
GS
[0.375 0 0 0.375 316.89143 154.35293] CT
0.851 0.325 0.098 RC
N
f1004432658
f
GR
GS
[0.375 0 0 0.375 316.89143 154.35293] CT
0.851 0.325 0.098 RC
10.0 ML
5.333 LW
N
-8 0 M
8 0 L
S
GR
GS
[0.375 0 0 0.375 327.82821 162.05183] CT
0.851 0.325 0.098 RC
N
f1004432658
f
GR
GS
[0.375 0 0 0.375 327.82821 162.05183] CT
0.851 0.325 0.098 RC
10.0 ML
5.333 LW
N
-8 0 M
8 0 L
S
GR
GS
[0.375 0 0 0.375 338.74876 199.60783] CT
0.851 0.325 0.098 RC
N
f1004432658
f
GR
GS
[0.375 0 0 0.375 338.74876 199.60783] CT
0.851 0.325 0.098 RC
10.0 ML
5.333 LW
N
-8 0 M
8 0 L
S
GR
GS
[0.375 0 0 0.375 349.66928 199.6783] CT
0.851 0.325 0.098 RC
N
f1004432658
f
GR
GS
[0.375 0 0 0.375 349.66928 199.6783] CT
0.851 0.325 0.098 RC
10.0 ML
5.333 LW
N
-8 0 M
8 0 L
S
GR
GS
[0.375 0 0 0.375 360.58981 191.44661] CT
0.851 0.325 0.098 RC
N
f1004432658
f
GR
GS
[0.375 0 0 0.375 360.58981 191.44661] CT
0.851 0.325 0.098 RC
10.0 ML
5.333 LW
N
-8 0 M
8 0 L
S
GR
GS
[0.375 0 0 0.375 371.51033 202.97552] CT
0.851 0.325 0.098 RC
N
f1004432658
f
GR
GS
[0.375 0 0 0.375 371.51033 202.97552] CT
0.851 0.325 0.098 RC
10.0 ML
5.333 LW
N
-8 0 M
8 0 L
S
GR
GS
[0.375 0 0 0.375 0 0] CT
1 GC
N
/f-1719642076{345 636 M
345 565 L
164 565 L
164 636 L
cp}def
f-1719642076
f
GR
GS
[0.375 0 0 0.375 96.75 219.1875] CT
/Helvetica 24 F
GS
[1 0 0 1 0 0] CT
0 9.5 moveto 
1 -1 scale
(BFGS) t 
GR
GR
GS
[0.375 0 0 0.375 0 0] CT
0 0.447 0.741 RC
1 LJ
5.333 LW
N
172 584.5 M
252 584.5 L
S
GR
GS
[0.375 0 0 0.375 79.5 223.54688] CT
0 0.447 0.741 RC
N
f1004432658
f
GR
GS
[0.375 0 0 0.375 79.5 223.54688] CT
0 0.447 0.741 RC
10.0 ML
5.333 LW
N
-8 0 M
8 0 L
S
GR
GS
[0.375 0 0 0.375 79.5 214.82813] CT
0 0.447 0.741 RC
N
f1004432658
f
GR
GS
[0.375 0 0 0.375 79.5 214.82813] CT
0 0.447 0.741 RC
10.0 ML
5.333 LW
N
-8 0 M
8 0 L
S
GR
GS
[0.375 0 0 0.375 0 0] CT
0 0.447 0.741 RC
1 LJ
5.333 LW
N
212 596.125 M
212 572.875 L
S
GR
GS
[0.375 0 0 0.375 96.75 231.1875] CT
/Helvetica 24 F
GS
[1 0 0 1 0 0] CT
0 9.5 moveto 
1 -1 scale
(Greedy) t 
GR
GR
GS
[0.375 0 0 0.375 0 0] CT
0.851 0.325 0.098 RC
1 LJ
5.333 LW
N
172 616.5 M
252 616.5 L
S
GR
GS
[0.375 0 0 0.375 79.5 235.54688] CT
0.851 0.325 0.098 RC
N
f1004432658
f
GR
GS
[0.375 0 0 0.375 79.5 235.54688] CT
0.851 0.325 0.098 RC
10.0 ML
5.333 LW
N
-8 0 M
8 0 L
S
GR
GS
[0.375 0 0 0.375 79.5 226.82813] CT
0.851 0.325 0.098 RC
N
f1004432658
f
GR
GS
[0.375 0 0 0.375 79.5 226.82813] CT
0.851 0.325 0.098 RC
10.0 ML
5.333 LW
N
-8 0 M
8 0 L
S
GR
GS
[0.375 0 0 0.375 0 0] CT
0.851 0.325 0.098 RC
1 LJ
5.333 LW
N
212 628.125 M
212 604.875 L
S
GR
GS
[0.375 0 0 0.375 0 0] CT
0.149 GC
10.0 ML
1.333 LW
N
164 636 M
164 565 L
345 565 L
345 636 L
cp
S
GR
%%Trailer
%%Pages: 1
%%EOF
