%!PS-Adobe-3.0 EPSF-3.0
%%Creator: (MATLAB, The Mathworks, Inc. Version 9.7.0.1190202 \(R2019b\). Operating System: Windows 10)
%%Title: ./img/area_vs_dist_fmincon_greedy.eps
%%CreationDate: 2021-12-16T22:14:14
%%Pages: (atend)
%%BoundingBox:    20     5   386   303
%%LanguageLevel: 3
%%EndComments
%%BeginProlog
%%BeginResource: procset (Apache XML Graphics Std ProcSet) 1.2 0
%%Version: 1.2 0
%%Copyright: (Copyright 2001-2003,2010 The Apache Software Foundation. License terms: http://www.apache.org/licenses/LICENSE-2.0)
/bd{bind def}bind def
/ld{load def}bd
/GR/grestore ld
/GS/gsave ld
/RM/rmoveto ld
/C/curveto ld
/t/show ld
/L/lineto ld
/ML/setmiterlimit ld
/CT/concat ld
/f/fill ld
/N/newpath ld
/S/stroke ld
/CC/setcmykcolor ld
/A/ashow ld
/cp/closepath ld
/RC/setrgbcolor ld
/LJ/setlinejoin ld
/GC/setgray ld
/LW/setlinewidth ld
/M/moveto ld
/re {4 2 roll M
1 index 0 rlineto
0 exch rlineto
neg 0 rlineto
cp } bd
/_ctm matrix def
/_tm matrix def
/BT { _ctm currentmatrix pop matrix _tm copy pop 0 0 moveto } bd
/ET { _ctm setmatrix } bd
/iTm { _ctm setmatrix _tm concat } bd
/Tm { _tm astore pop iTm 0 0 moveto } bd
/ux 0.0 def
/uy 0.0 def
/F {
  /Tp exch def
  /Tf exch def
  Tf findfont Tp scalefont setfont
  /cf Tf def  /cs Tp def
} bd
/ULS {currentpoint /uy exch def /ux exch def} bd
/ULE {
  /Tcx currentpoint pop def
  gsave
  newpath
  cf findfont cs scalefont dup
  /FontMatrix get 0 get /Ts exch def /FontInfo get dup
  /UnderlinePosition get Ts mul /To exch def
  /UnderlineThickness get Ts mul /Tt exch def
  ux uy To add moveto  Tcx uy To add lineto
  Tt setlinewidth stroke
  grestore
} bd
/OLE {
  /Tcx currentpoint pop def
  gsave
  newpath
  cf findfont cs scalefont dup
  /FontMatrix get 0 get /Ts exch def /FontInfo get dup
  /UnderlinePosition get Ts mul /To exch def
  /UnderlineThickness get Ts mul /Tt exch def
  ux uy To add cs add moveto Tcx uy To add cs add lineto
  Tt setlinewidth stroke
  grestore
} bd
/SOE {
  /Tcx currentpoint pop def
  gsave
  newpath
  cf findfont cs scalefont dup
  /FontMatrix get 0 get /Ts exch def /FontInfo get dup
  /UnderlinePosition get Ts mul /To exch def
  /UnderlineThickness get Ts mul /Tt exch def
  ux uy To add cs 10 mul 26 idiv add moveto Tcx uy To add cs 10 mul 26 idiv add lineto
  Tt setlinewidth stroke
  grestore
} bd
/QT {
/Y22 exch store
/X22 exch store
/Y21 exch store
/X21 exch store
currentpoint
/Y21 load 2 mul add 3 div exch
/X21 load 2 mul add 3 div exch
/X21 load 2 mul /X22 load add 3 div
/Y21 load 2 mul /Y22 load add 3 div
/X22 load /Y22 load curveto
} bd
/SSPD {
dup length /d exch dict def
{
/v exch def
/k exch def
currentpagedevice k known {
/cpdv currentpagedevice k get def
v cpdv ne {
/upd false def
/nullv v type /nulltype eq def
/nullcpdv cpdv type /nulltype eq def
nullv nullcpdv or
{
/upd true def
} {
/sametype v type cpdv type eq def
sametype {
v type /arraytype eq {
/vlen v length def
/cpdvlen cpdv length def
vlen cpdvlen eq {
0 1 vlen 1 sub {
/i exch def
/obj v i get def
/cpdobj cpdv i get def
obj cpdobj ne {
/upd true def
exit
} if
} for
} {
/upd true def
} ifelse
} {
v type /dicttype eq {
v {
/dv exch def
/dk exch def
/cpddv cpdv dk get def
dv cpddv ne {
/upd true def
exit
} if
} forall
} {
/upd true def
} ifelse
} ifelse
} if
} ifelse
upd true eq {
d k v put
} if
} if
} if
} forall
d length 0 gt {
d setpagedevice
} if
} bd
/RE { % /NewFontName [NewEncodingArray] /FontName RE -
  findfont dup length dict begin
  {
    1 index /FID ne
    {def} {pop pop} ifelse
  } forall
  /Encoding exch def
  /FontName 1 index def
  currentdict definefont pop
  end
} bind def
%%EndResource
%%BeginResource: procset (Apache XML Graphics EPS ProcSet) 1.0 0
%%Version: 1.0 0
%%Copyright: (Copyright 2002-2003 The Apache Software Foundation. License terms: http://www.apache.org/licenses/LICENSE-2.0)
/BeginEPSF { %def
/b4_Inc_state save def         % Save state for cleanup
/dict_count countdictstack def % Count objects on dict stack
/op_count count 1 sub def      % Count objects on operand stack
userdict begin                 % Push userdict on dict stack
/showpage { } def              % Redefine showpage, { } = null proc
0 setgray 0 setlinecap         % Prepare graphics state
1 setlinewidth 0 setlinejoin
10 setmiterlimit [ ] 0 setdash newpath
/languagelevel where           % If level not equal to 1 then
{pop languagelevel             % set strokeadjust and
1 ne                           % overprint to their defaults.
{false setstrokeadjust false setoverprint
} if
} if
} bd
/EndEPSF { %def
count op_count sub {pop} repeat            % Clean up stacks
countdictstack dict_count sub {end} repeat
b4_Inc_state restore
} bd
%%EndResource
%FOPBeginFontDict
%%IncludeResource: font Courier-Oblique
%%IncludeResource: font Courier-BoldOblique
%%IncludeResource: font Courier-Bold
%%IncludeResource: font ZapfDingbats
%%IncludeResource: font Symbol
%%IncludeResource: font Helvetica
%%IncludeResource: font Helvetica-Oblique
%%IncludeResource: font Helvetica-Bold
%%IncludeResource: font Helvetica-BoldOblique
%%IncludeResource: font Times-Roman
%%IncludeResource: font Times-Italic
%%IncludeResource: font Times-Bold
%%IncludeResource: font Times-BoldItalic
%%IncludeResource: font Courier
%FOPEndFontDict
%%BeginResource: encoding WinAnsiEncoding
/WinAnsiEncoding [
/.notdef /.notdef /.notdef /.notdef /.notdef
/.notdef /.notdef /.notdef /.notdef /.notdef
/.notdef /.notdef /.notdef /.notdef /.notdef
/.notdef /.notdef /.notdef /.notdef /.notdef
/.notdef /.notdef /.notdef /.notdef /.notdef
/.notdef /.notdef /.notdef /.notdef /.notdef
/.notdef /.notdef /space /exclam /quotedbl
/numbersign /dollar /percent /ampersand /quotesingle
/parenleft /parenright /asterisk /plus /comma
/hyphen /period /slash /zero /one
/two /three /four /five /six
/seven /eight /nine /colon /semicolon
/less /equal /greater /question /at
/A /B /C /D /E
/F /G /H /I /J
/K /L /M /N /O
/P /Q /R /S /T
/U /V /W /X /Y
/Z /bracketleft /backslash /bracketright /asciicircum
/underscore /quoteleft /a /b /c
/d /e /f /g /h
/i /j /k /l /m
/n /o /p /q /r
/s /t /u /v /w
/x /y /z /braceleft /bar
/braceright /asciitilde /bullet /Euro /bullet
/quotesinglbase /florin /quotedblbase /ellipsis /dagger
/daggerdbl /circumflex /perthousand /Scaron /guilsinglleft
/OE /bullet /Zcaron /bullet /bullet
/quoteleft /quoteright /quotedblleft /quotedblright /bullet
/endash /emdash /asciitilde /trademark /scaron
/guilsinglright /oe /bullet /zcaron /Ydieresis
/space /exclamdown /cent /sterling /currency
/yen /brokenbar /section /dieresis /copyright
/ordfeminine /guillemotleft /logicalnot /sfthyphen /registered
/macron /degree /plusminus /twosuperior /threesuperior
/acute /mu /paragraph /middot /cedilla
/onesuperior /ordmasculine /guillemotright /onequarter /onehalf
/threequarters /questiondown /Agrave /Aacute /Acircumflex
/Atilde /Adieresis /Aring /AE /Ccedilla
/Egrave /Eacute /Ecircumflex /Edieresis /Igrave
/Iacute /Icircumflex /Idieresis /Eth /Ntilde
/Ograve /Oacute /Ocircumflex /Otilde /Odieresis
/multiply /Oslash /Ugrave /Uacute /Ucircumflex
/Udieresis /Yacute /Thorn /germandbls /agrave
/aacute /acircumflex /atilde /adieresis /aring
/ae /ccedilla /egrave /eacute /ecircumflex
/edieresis /igrave /iacute /icircumflex /idieresis
/eth /ntilde /ograve /oacute /ocircumflex
/otilde /odieresis /divide /oslash /ugrave
/uacute /ucircumflex /udieresis /yacute /thorn
/ydieresis
] def
%%EndResource
%FOPBeginFontReencode
/Courier-Oblique findfont
dup length dict begin
  {1 index /FID ne {def} {pop pop} ifelse} forall
  /Encoding WinAnsiEncoding def
  currentdict
end
/Courier-Oblique exch definefont pop
/Courier-BoldOblique findfont
dup length dict begin
  {1 index /FID ne {def} {pop pop} ifelse} forall
  /Encoding WinAnsiEncoding def
  currentdict
end
/Courier-BoldOblique exch definefont pop
/Courier-Bold findfont
dup length dict begin
  {1 index /FID ne {def} {pop pop} ifelse} forall
  /Encoding WinAnsiEncoding def
  currentdict
end
/Courier-Bold exch definefont pop
/Helvetica findfont
dup length dict begin
  {1 index /FID ne {def} {pop pop} ifelse} forall
  /Encoding WinAnsiEncoding def
  currentdict
end
/Helvetica exch definefont pop
/Helvetica-Oblique findfont
dup length dict begin
  {1 index /FID ne {def} {pop pop} ifelse} forall
  /Encoding WinAnsiEncoding def
  currentdict
end
/Helvetica-Oblique exch definefont pop
/Helvetica-Bold findfont
dup length dict begin
  {1 index /FID ne {def} {pop pop} ifelse} forall
  /Encoding WinAnsiEncoding def
  currentdict
end
/Helvetica-Bold exch definefont pop
/Helvetica-BoldOblique findfont
dup length dict begin
  {1 index /FID ne {def} {pop pop} ifelse} forall
  /Encoding WinAnsiEncoding def
  currentdict
end
/Helvetica-BoldOblique exch definefont pop
/Times-Roman findfont
dup length dict begin
  {1 index /FID ne {def} {pop pop} ifelse} forall
  /Encoding WinAnsiEncoding def
  currentdict
end
/Times-Roman exch definefont pop
/Times-Italic findfont
dup length dict begin
  {1 index /FID ne {def} {pop pop} ifelse} forall
  /Encoding WinAnsiEncoding def
  currentdict
end
/Times-Italic exch definefont pop
/Times-Bold findfont
dup length dict begin
  {1 index /FID ne {def} {pop pop} ifelse} forall
  /Encoding WinAnsiEncoding def
  currentdict
end
/Times-Bold exch definefont pop
/Times-BoldItalic findfont
dup length dict begin
  {1 index /FID ne {def} {pop pop} ifelse} forall
  /Encoding WinAnsiEncoding def
  currentdict
end
/Times-BoldItalic exch definefont pop
/Courier findfont
dup length dict begin
  {1 index /FID ne {def} {pop pop} ifelse} forall
  /Encoding WinAnsiEncoding def
  currentdict
end
/Courier exch definefont pop
%FOPEndFontReencode
%%EndProlog
%%Page: 1 1
%%PageBoundingBox: 0 0 420 315
%%BeginPageSetup
[1 0 0 -1 0 315] CT
%%EndPageSetup
GS
[0.375 0 0 0.375 0 0] CT
1 GC
N
0 0 1120 840 re
f
GR
GS
[0.375 0 0 0.375 0 0] CT
1 GC
N
0 0 1120 840 re
f
GR
GS
[0.375 0 0 0.375 0 0] CT
1 GC
N
146 748 M
1014 748 L
1014 63 L
146 63 L
cp
f
GR
GS
[0.375 0 0 0.375 0 0] CT
0.873 GC
1 LJ
1.333 LW
N
146 748 M
146 63 L
S
GR
GS
[0.375 0 0 0.375 0 0] CT
0.873 GC
1 LJ
1.333 LW
N
254.5 748 M
254.5 63 L
S
GR
GS
[0.375 0 0 0.375 0 0] CT
0.873 GC
1 LJ
1.333 LW
N
363 748 M
363 63 L
S
GR
GS
[0.375 0 0 0.375 0 0] CT
0.873 GC
1 LJ
1.333 LW
N
471.5 748 M
471.5 63 L
S
GR
GS
[0.375 0 0 0.375 0 0] CT
0.873 GC
1 LJ
1.333 LW
N
580 748 M
580 63 L
S
GR
GS
[0.375 0 0 0.375 0 0] CT
0.873 GC
1 LJ
1.333 LW
N
688.5 748 M
688.5 63 L
S
GR
GS
[0.375 0 0 0.375 0 0] CT
0.873 GC
1 LJ
1.333 LW
N
797 748 M
797 63 L
S
GR
GS
[0.375 0 0 0.375 0 0] CT
0.873 GC
1 LJ
1.333 LW
N
905.5 748 M
905.5 63 L
S
GR
GS
[0.375 0 0 0.375 0 0] CT
0.873 GC
1 LJ
1.333 LW
N
1014 748 M
1014 63 L
S
GR
GS
[0.375 0 0 0.375 0 0] CT
0.873 GC
1 LJ
1.333 LW
N
1014 748 M
146 748 L
S
GR
GS
[0.375 0 0 0.375 0 0] CT
0.873 GC
1 LJ
1.333 LW
N
1014 679.5 M
146 679.5 L
S
GR
GS
[0.375 0 0 0.375 0 0] CT
0.873 GC
1 LJ
1.333 LW
N
1014 611 M
146 611 L
S
GR
GS
[0.375 0 0 0.375 0 0] CT
0.873 GC
1 LJ
1.333 LW
N
1014 542.5 M
146 542.5 L
S
GR
GS
[0.375 0 0 0.375 0 0] CT
0.873 GC
1 LJ
1.333 LW
N
1014 474 M
146 474 L
S
GR
GS
[0.375 0 0 0.375 0 0] CT
0.873 GC
1 LJ
1.333 LW
N
1014 405.5 M
146 405.5 L
S
GR
GS
[0.375 0 0 0.375 0 0] CT
0.873 GC
1 LJ
1.333 LW
N
1014 337 M
146 337 L
S
GR
GS
[0.375 0 0 0.375 0 0] CT
0.873 GC
1 LJ
1.333 LW
N
1014 268.5 M
146 268.5 L
S
GR
GS
[0.375 0 0 0.375 0 0] CT
0.873 GC
1 LJ
1.333 LW
N
1014 200 M
146 200 L
S
GR
GS
[0.375 0 0 0.375 0 0] CT
0.873 GC
1 LJ
1.333 LW
N
1014 131.5 M
146 131.5 L
S
GR
GS
[0.375 0 0 0.375 0 0] CT
0.873 GC
1 LJ
1.333 LW
N
1014 63 M
146 63 L
S
GR
GS
[0.375 0 0 0.375 0 0] CT
0.149 GC
2 setlinecap
1 LJ
1.333 LW
N
146 748 M
1014 748 L
S
GR
GS
[0.375 0 0 0.375 0 0] CT
0.149 GC
2 setlinecap
1 LJ
1.333 LW
N
146 63 M
1014 63 L
S
GR
GS
[0.375 0 0 0.375 0 0] CT
0.149 GC
2 setlinecap
1 LJ
1.333 LW
N
146 748 M
146 739.32 L
S
GR
GS
[0.375 0 0 0.375 0 0] CT
0.149 GC
2 setlinecap
1 LJ
1.333 LW
N
254.5 748 M
254.5 739.32 L
S
GR
GS
[0.375 0 0 0.375 0 0] CT
0.149 GC
2 setlinecap
1 LJ
1.333 LW
N
363 748 M
363 739.32 L
S
GR
GS
[0.375 0 0 0.375 0 0] CT
0.149 GC
2 setlinecap
1 LJ
1.333 LW
N
471.5 748 M
471.5 739.32 L
S
GR
GS
[0.375 0 0 0.375 0 0] CT
0.149 GC
2 setlinecap
1 LJ
1.333 LW
N
580 748 M
580 739.32 L
S
GR
GS
[0.375 0 0 0.375 0 0] CT
0.149 GC
2 setlinecap
1 LJ
1.333 LW
N
688.5 748 M
688.5 739.32 L
S
GR
GS
[0.375 0 0 0.375 0 0] CT
0.149 GC
2 setlinecap
1 LJ
1.333 LW
N
797 748 M
797 739.32 L
S
GR
GS
[0.375 0 0 0.375 0 0] CT
0.149 GC
2 setlinecap
1 LJ
1.333 LW
N
905.5 748 M
905.5 739.32 L
S
GR
GS
[0.375 0 0 0.375 0 0] CT
0.149 GC
2 setlinecap
1 LJ
1.333 LW
N
1014 748 M
1014 739.32 L
S
GR
GS
[0.375 0 0 0.375 0 0] CT
0.149 GC
2 setlinecap
1 LJ
1.333 LW
N
146 63 M
146 71.68 L
S
GR
GS
[0.375 0 0 0.375 0 0] CT
0.149 GC
2 setlinecap
1 LJ
1.333 LW
N
254.5 63 M
254.5 71.68 L
S
GR
GS
[0.375 0 0 0.375 0 0] CT
0.149 GC
2 setlinecap
1 LJ
1.333 LW
N
363 63 M
363 71.68 L
S
GR
GS
[0.375 0 0 0.375 0 0] CT
0.149 GC
2 setlinecap
1 LJ
1.333 LW
N
471.5 63 M
471.5 71.68 L
S
GR
GS
[0.375 0 0 0.375 0 0] CT
0.149 GC
2 setlinecap
1 LJ
1.333 LW
N
580 63 M
580 71.68 L
S
GR
GS
[0.375 0 0 0.375 0 0] CT
0.149 GC
2 setlinecap
1 LJ
1.333 LW
N
688.5 63 M
688.5 71.68 L
S
GR
GS
[0.375 0 0 0.375 0 0] CT
0.149 GC
2 setlinecap
1 LJ
1.333 LW
N
797 63 M
797 71.68 L
S
GR
GS
[0.375 0 0 0.375 0 0] CT
0.149 GC
2 setlinecap
1 LJ
1.333 LW
N
905.5 63 M
905.5 71.68 L
S
GR
GS
[0.375 0 0 0.375 0 0] CT
0.149 GC
2 setlinecap
1 LJ
1.333 LW
N
1014 63 M
1014 71.68 L
S
GR
GS
[0.375 0 0 0.375 54.75 284.50001] CT
0.149 GC
/Helvetica 26.667 F
GS
[1 0 0 1 0 0] CT
-7.5 27 moveto 
1 -1 scale
(0) t 
GR
GR
GS
[0.375 0 0 0.375 95.4375 284.50001] CT
0.149 GC
/Helvetica 26.667 F
GS
[1 0 0 1 0 0] CT
-15 27 moveto 
1 -1 scale
(10) t 
GR
GR
GS
[0.375 0 0 0.375 136.125 284.50001] CT
0.149 GC
/Helvetica 26.667 F
GS
[1 0 0 1 0 0] CT
-15 27 moveto 
1 -1 scale
(20) t 
GR
GR
GS
[0.375 0 0 0.375 176.8125 284.50001] CT
0.149 GC
/Helvetica 26.667 F
GS
[1 0 0 1 0 0] CT
-15 27 moveto 
1 -1 scale
(30) t 
GR
GR
GS
[0.375 0 0 0.375 217.5 284.50001] CT
0.149 GC
/Helvetica 26.667 F
GS
[1 0 0 1 0 0] CT
-15 27 moveto 
1 -1 scale
(40) t 
GR
GR
GS
[0.375 0 0 0.375 258.1875 284.50001] CT
0.149 GC
/Helvetica 26.667 F
GS
[1 0 0 1 0 0] CT
-15 27 moveto 
1 -1 scale
(50) t 
GR
GR
GS
[0.375 0 0 0.375 298.875 284.50001] CT
0.149 GC
/Helvetica 26.667 F
GS
[1 0 0 1 0 0] CT
-15 27 moveto 
1 -1 scale
(60) t 
GR
GR
GS
[0.375 0 0 0.375 339.5625 284.50001] CT
0.149 GC
/Helvetica 26.667 F
GS
[1 0 0 1 0 0] CT
-15 27 moveto 
1 -1 scale
(70) t 
GR
GR
GS
[0.375 0 0 0.375 380.25 284.50001] CT
0.149 GC
/Helvetica 26.667 F
GS
[1 0 0 1 0 0] CT
-15 27 moveto 
1 -1 scale
(80) t 
GR
GR
GS
[0.375 0 0 0.375 217.50016 297.87499] CT
0.149 GC
/Helvetica 29.333 F
GS
[1 0 0 1 0 0] CT
-131.5 30 moveto 
1 -1 scale
(% distance travelled) t 
GR
GR
GS
[0.375 0 0 0.375 0 0] CT
0.149 GC
2 setlinecap
1 LJ
1.333 LW
N
146 748 M
146 63 L
S
GR
GS
[0.375 0 0 0.375 0 0] CT
0.149 GC
2 setlinecap
1 LJ
1.333 LW
N
1014 748 M
1014 63 L
S
GR
GS
[0.375 0 0 0.375 0 0] CT
0.149 GC
2 setlinecap
1 LJ
1.333 LW
N
146 748 M
154.68 748 L
S
GR
GS
[0.375 0 0 0.375 0 0] CT
0.149 GC
2 setlinecap
1 LJ
1.333 LW
N
146 679.5 M
154.68 679.5 L
S
GR
GS
[0.375 0 0 0.375 0 0] CT
0.149 GC
2 setlinecap
1 LJ
1.333 LW
N
146 611 M
154.68 611 L
S
GR
GS
[0.375 0 0 0.375 0 0] CT
0.149 GC
2 setlinecap
1 LJ
1.333 LW
N
146 542.5 M
154.68 542.5 L
S
GR
GS
[0.375 0 0 0.375 0 0] CT
0.149 GC
2 setlinecap
1 LJ
1.333 LW
N
146 474 M
154.68 474 L
S
GR
GS
[0.375 0 0 0.375 0 0] CT
0.149 GC
2 setlinecap
1 LJ
1.333 LW
N
146 405.5 M
154.68 405.5 L
S
GR
GS
[0.375 0 0 0.375 0 0] CT
0.149 GC
2 setlinecap
1 LJ
1.333 LW
N
146 337 M
154.68 337 L
S
GR
GS
[0.375 0 0 0.375 0 0] CT
0.149 GC
2 setlinecap
1 LJ
1.333 LW
N
146 268.5 M
154.68 268.5 L
S
GR
GS
[0.375 0 0 0.375 0 0] CT
0.149 GC
2 setlinecap
1 LJ
1.333 LW
N
146 200 M
154.68 200 L
S
GR
GS
[0.375 0 0 0.375 0 0] CT
0.149 GC
2 setlinecap
1 LJ
1.333 LW
N
146 131.5 M
154.68 131.5 L
S
GR
GS
[0.375 0 0 0.375 0 0] CT
0.149 GC
2 setlinecap
1 LJ
1.333 LW
N
146 63 M
154.68 63 L
S
GR
GS
[0.375 0 0 0.375 0 0] CT
0.149 GC
2 setlinecap
1 LJ
1.333 LW
N
1014 748 M
1005.32 748 L
S
GR
GS
[0.375 0 0 0.375 0 0] CT
0.149 GC
2 setlinecap
1 LJ
1.333 LW
N
1014 679.5 M
1005.32 679.5 L
S
GR
GS
[0.375 0 0 0.375 0 0] CT
0.149 GC
2 setlinecap
1 LJ
1.333 LW
N
1014 611 M
1005.32 611 L
S
GR
GS
[0.375 0 0 0.375 0 0] CT
0.149 GC
2 setlinecap
1 LJ
1.333 LW
N
1014 542.5 M
1005.32 542.5 L
S
GR
GS
[0.375 0 0 0.375 0 0] CT
0.149 GC
2 setlinecap
1 LJ
1.333 LW
N
1014 474 M
1005.32 474 L
S
GR
GS
[0.375 0 0 0.375 0 0] CT
0.149 GC
2 setlinecap
1 LJ
1.333 LW
N
1014 405.5 M
1005.32 405.5 L
S
GR
GS
[0.375 0 0 0.375 0 0] CT
0.149 GC
2 setlinecap
1 LJ
1.333 LW
N
1014 337 M
1005.32 337 L
S
GR
GS
[0.375 0 0 0.375 0 0] CT
0.149 GC
2 setlinecap
1 LJ
1.333 LW
N
1014 268.5 M
1005.32 268.5 L
S
GR
GS
[0.375 0 0 0.375 0 0] CT
0.149 GC
2 setlinecap
1 LJ
1.333 LW
N
1014 200 M
1005.32 200 L
S
GR
GS
[0.375 0 0 0.375 0 0] CT
0.149 GC
2 setlinecap
1 LJ
1.333 LW
N
1014 131.5 M
1005.32 131.5 L
S
GR
GS
[0.375 0 0 0.375 0 0] CT
0.149 GC
2 setlinecap
1 LJ
1.333 LW
N
1014 63 M
1005.32 63 L
S
GR
GS
[0.375 0 0 0.375 50.75 280.5] CT
0.149 GC
/Helvetica 26.667 F
GS
[1 0 0 1 0 0] CT
-15 10.5 moveto 
1 -1 scale
(0) t 
GR
GR
GS
[0.375 0 0 0.375 50.75 254.8125] CT
0.149 GC
/Helvetica 26.667 F
GS
[1 0 0 1 0 0] CT
-30 10.5 moveto 
1 -1 scale
(10) t 
GR
GR
GS
[0.375 0 0 0.375 50.75 229.125] CT
0.149 GC
/Helvetica 26.667 F
GS
[1 0 0 1 0 0] CT
-30 10.5 moveto 
1 -1 scale
(20) t 
GR
GR
GS
[0.375 0 0 0.375 50.75 203.4375] CT
0.149 GC
/Helvetica 26.667 F
GS
[1 0 0 1 0 0] CT
-30 10.5 moveto 
1 -1 scale
(30) t 
GR
GR
GS
[0.375 0 0 0.375 50.75 177.75] CT
0.149 GC
/Helvetica 26.667 F
GS
[1 0 0 1 0 0] CT
-30 10.5 moveto 
1 -1 scale
(40) t 
GR
GR
GS
[0.375 0 0 0.375 50.75 152.0625] CT
0.149 GC
/Helvetica 26.667 F
GS
[1 0 0 1 0 0] CT
-30 10.5 moveto 
1 -1 scale
(50) t 
GR
GR
GS
[0.375 0 0 0.375 50.75 126.375] CT
0.149 GC
/Helvetica 26.667 F
GS
[1 0 0 1 0 0] CT
-30 10.5 moveto 
1 -1 scale
(60) t 
GR
GR
GS
[0.375 0 0 0.375 50.75 100.6875] CT
0.149 GC
/Helvetica 26.667 F
GS
[1 0 0 1 0 0] CT
-30 10.5 moveto 
1 -1 scale
(70) t 
GR
GR
GS
[0.375 0 0 0.375 50.75 75] CT
0.149 GC
/Helvetica 26.667 F
GS
[1 0 0 1 0 0] CT
-30 10.5 moveto 
1 -1 scale
(80) t 
GR
GR
GS
[0.375 0 0 0.375 50.75 49.3125] CT
0.149 GC
/Helvetica 26.667 F
GS
[1 0 0 1 0 0] CT
-30 10.5 moveto 
1 -1 scale
(90) t 
GR
GR
GS
[0.375 0 0 0.375 50.75 23.625] CT
0.149 GC
/Helvetica 26.667 F
GS
[1 0 0 1 0 0] CT
-45 10.5 moveto 
1 -1 scale
(100) t 
GR
GR
GS
[0 -0.375 0.375 0 30.875 152.06239] CT
0.149 GC
/Helvetica 29.333 F
GS
[1 0 0 1 0 0] CT
-119 -7 moveto 
1 -1 scale
(% of area covered) t 
GR
GR
GS
[0.375 0 0 0.375 217.50021 22.59375] CT
/Helvetica-Bold 29.333 F
GS
[1 0 0 1 0 0] CT
-273 -7 moveto 
1 -1 scale
(% area covered vs % distance travelled) t 
GR
GR
GS
[0.375 0 0 0.375 0 0] CT
0 0.447 0.741 RC
1 LJ
5.333 LW
N
427.341 519.667 M
856.903 405.5 L
881.951 177.167 L
960.395 63 L
964.665 291.333 L
S
GR
GS
[0.375 0 0 0.375 160.25304 194.87501] CT
0 0.447 0.741 RC
N
5.867 0 M
5.867 -3.24 3.24 -5.867 0 -5.867 C
-3.24 -5.867 -5.867 -3.24 -5.867 0 C
-5.867 3.24 -3.24 5.867 0 5.867 C
3.24 5.867 5.867 3.24 5.867 0 C
cp
f
GR
GS
[0.375 0 0 0.375 160.25304 194.87501] CT
0 0.447 0.741 RC
N
0 -3.2 M
1.767 -3.2 3.2 -1.767 3.2 0 C
3.2 0 L
3.2 1.767 1.767 3.2 0 3.2 C
-1.767 3.2 -3.2 1.767 -3.2 0 C
-3.2 -1.767 -1.767 -3.2 0 -3.2 C
cp
0 -8.533 M
-4.713 -8.533 -8.533 -4.713 -8.533 0 C
-8.533 4.713 -4.713 8.533 0 8.533 C
4.713 8.533 8.533 4.713 8.533 0 C
8.533 0 L
8.533 -4.713 4.713 -8.533 0 -8.533 C
cp
f
GR
GS
[0.375 0 0 0.375 321.33847 152.0625] CT
0 0.447 0.741 RC
N
/f-819729944{5.867 0 M
5.867 -3.24 3.24 -5.867 0 -5.867 C
-3.24 -5.867 -5.867 -3.24 -5.867 0 C
-5.867 3.24 -3.24 5.867 0 5.867 C
3.24 5.867 5.867 3.24 5.867 0 C
cp}def
f-819729944
f
GR
GS
[0.375 0 0 0.375 321.33847 152.0625] CT
0 0.447 0.741 RC
N
/f-1393287722{0 -3.2 M
1.767 -3.2 3.2 -1.767 3.2 0 C
3.2 0 L
3.2 1.767 1.767 3.2 0 3.2 C
-1.767 3.2 -3.2 1.767 -3.2 0 C
-3.2 -1.767 -1.767 -3.2 0 -3.2 C
cp
0 -8.533 M
-4.713 -8.533 -8.533 -4.713 -8.533 0 C
-8.533 4.713 -4.713 8.533 0 8.533 C
4.713 8.533 8.533 4.713 8.533 0 C
8.533 0 L
8.533 -4.713 4.713 -8.533 0 -8.533 C
cp}def
f-1393287722
f
GR
GS
[0.375 0 0 0.375 330.73176 66.4375] CT
0 0.447 0.741 RC
N
f-819729944
f
GR
GS
[0.375 0 0 0.375 330.73176 66.4375] CT
0 0.447 0.741 RC
N
f-1393287722
f
GR
GS
[0.375 0 0 0.375 360.14797 23.625] CT
0 0.447 0.741 RC
N
f-819729944
f
GR
GS
[0.375 0 0 0.375 360.14797 23.625] CT
0 0.447 0.741 RC
N
f-1393287722
f
GR
GS
[0.375 0 0 0.375 361.7495 109.25] CT
0 0.447 0.741 RC
N
f-819729944
f
GR
GS
[0.375 0 0 0.375 361.7495 109.25] CT
0 0.447 0.741 RC
N
f-1393287722
f
GR
GS
[0.375 0 0 0.375 0 0] CT
0.851 0.325 0.098 RC
1 LJ
5.333 LW
N
151.601 748 M
209.981 633.833 L
219.868 519.667 L
295.239 405.5 L
346.531 291.333 L
504.907 177.167 L
801.133 63 L
S
GR
GS
[0.375 0 0 0.375 56.85032 280.5] CT
0.851 0.325 0.098 RC
N
f-819729944
f
GR
GS
[0.375 0 0 0.375 56.85032 280.5] CT
0.851 0.325 0.098 RC
N
f-1393287722
f
GR
GS
[0.375 0 0 0.375 78.74294 237.68749] CT
0.851 0.325 0.098 RC
N
f-819729944
f
GR
GS
[0.375 0 0 0.375 78.74294 237.68749] CT
0.851 0.325 0.098 RC
N
f-1393287722
f
GR
GS
[0.375 0 0 0.375 82.45052 194.87501] CT
0.851 0.325 0.098 RC
N
f-819729944
f
GR
GS
[0.375 0 0 0.375 82.45052 194.87501] CT
0.851 0.325 0.098 RC
N
f-1393287722
f
GR
GS
[0.375 0 0 0.375 110.71449 152.0625] CT
0.851 0.325 0.098 RC
N
f-819729944
f
GR
GS
[0.375 0 0 0.375 110.71449 152.0625] CT
0.851 0.325 0.098 RC
N
f-1393287722
f
GR
GS
[0.375 0 0 0.375 129.94904 109.25] CT
0.851 0.325 0.098 RC
N
f-819729944
f
GR
GS
[0.375 0 0 0.375 129.94904 109.25] CT
0.851 0.325 0.098 RC
N
f-1393287722
f
GR
GS
[0.375 0 0 0.375 189.34018 66.4375] CT
0.851 0.325 0.098 RC
N
f-819729944
f
GR
GS
[0.375 0 0 0.375 189.34018 66.4375] CT
0.851 0.325 0.098 RC
N
f-1393287722
f
GR
GS
[0.375 0 0 0.375 300.42471 23.625] CT
0.851 0.325 0.098 RC
N
f-819729944
f
GR
GS
[0.375 0 0 0.375 300.42471 23.625] CT
0.851 0.325 0.098 RC
N
f-1393287722
f
GR
GS
[0.375 0 0 0.375 0 0] CT
1 GC
N
/f242422022{996 636 M
996 565 L
815 565 L
815 636 L
cp}def
f242422022
f
GR
GS
[0.375 0 0 0.375 340.875 219.1875] CT
/Helvetica 24 F
GS
[1 0 0 1 0 0] CT
0 9.5 moveto 
1 -1 scale
(BFGS) t 
GR
GR
GS
[0.375 0 0 0.375 0 0] CT
0 0.447 0.741 RC
1 LJ
5.333 LW
N
823 584.5 M
903 584.5 L
S
GR
GS
[0.375 0 0 0.375 323.625 219.1875] CT
0 0.447 0.741 RC
N
f-819729944
f
GR
GS
[0.375 0 0 0.375 323.625 219.1875] CT
0 0.447 0.741 RC
N
f-1393287722
f
GR
GS
[0.375 0 0 0.375 340.875 231.1875] CT
/Helvetica 24 F
GS
[1 0 0 1 0 0] CT
0 9.5 moveto 
1 -1 scale
(Greedy) t 
GR
GR
GS
[0.375 0 0 0.375 0 0] CT
0.851 0.325 0.098 RC
1 LJ
5.333 LW
N
823 616.5 M
903 616.5 L
S
GR
GS
[0.375 0 0 0.375 323.625 231.1875] CT
0.851 0.325 0.098 RC
N
f-819729944
f
GR
GS
[0.375 0 0 0.375 323.625 231.1875] CT
0.851 0.325 0.098 RC
N
f-1393287722
f
GR
GS
[0.375 0 0 0.375 0 0] CT
0.149 GC
10.0 ML
1.333 LW
N
815 636 M
815 565 L
996 565 L
996 636 L
cp
S
GR
%%Trailer
%%Pages: 1
%%EOF
