%!PS-Adobe-3.0 EPSF-3.0
%%Creator: (MATLAB, The Mathworks, Inc. Version 9.7.0.1190202 \(R2019b\). Operating System: Windows 10)
%%Title: ./img/fval_vs_gamma_fmincon_greedy.eps
%%CreationDate: 2021-12-16T22:14:04
%%Pages: (atend)
%%BoundingBox:    17     3   383   303
%%LanguageLevel: 3
%%EndComments
%%BeginProlog
%%BeginResource: procset (Apache XML Graphics Std ProcSet) 1.2 0
%%Version: 1.2 0
%%Copyright: (Copyright 2001-2003,2010 The Apache Software Foundation. License terms: http://www.apache.org/licenses/LICENSE-2.0)
/bd{bind def}bind def
/ld{load def}bd
/GR/grestore ld
/GS/gsave ld
/RM/rmoveto ld
/C/curveto ld
/t/show ld
/L/lineto ld
/ML/setmiterlimit ld
/CT/concat ld
/f/fill ld
/N/newpath ld
/S/stroke ld
/CC/setcmykcolor ld
/A/ashow ld
/cp/closepath ld
/RC/setrgbcolor ld
/LJ/setlinejoin ld
/GC/setgray ld
/LW/setlinewidth ld
/M/moveto ld
/re {4 2 roll M
1 index 0 rlineto
0 exch rlineto
neg 0 rlineto
cp } bd
/_ctm matrix def
/_tm matrix def
/BT { _ctm currentmatrix pop matrix _tm copy pop 0 0 moveto } bd
/ET { _ctm setmatrix } bd
/iTm { _ctm setmatrix _tm concat } bd
/Tm { _tm astore pop iTm 0 0 moveto } bd
/ux 0.0 def
/uy 0.0 def
/F {
  /Tp exch def
  /Tf exch def
  Tf findfont Tp scalefont setfont
  /cf Tf def  /cs Tp def
} bd
/ULS {currentpoint /uy exch def /ux exch def} bd
/ULE {
  /Tcx currentpoint pop def
  gsave
  newpath
  cf findfont cs scalefont dup
  /FontMatrix get 0 get /Ts exch def /FontInfo get dup
  /UnderlinePosition get Ts mul /To exch def
  /UnderlineThickness get Ts mul /Tt exch def
  ux uy To add moveto  Tcx uy To add lineto
  Tt setlinewidth stroke
  grestore
} bd
/OLE {
  /Tcx currentpoint pop def
  gsave
  newpath
  cf findfont cs scalefont dup
  /FontMatrix get 0 get /Ts exch def /FontInfo get dup
  /UnderlinePosition get Ts mul /To exch def
  /UnderlineThickness get Ts mul /Tt exch def
  ux uy To add cs add moveto Tcx uy To add cs add lineto
  Tt setlinewidth stroke
  grestore
} bd
/SOE {
  /Tcx currentpoint pop def
  gsave
  newpath
  cf findfont cs scalefont dup
  /FontMatrix get 0 get /Ts exch def /FontInfo get dup
  /UnderlinePosition get Ts mul /To exch def
  /UnderlineThickness get Ts mul /Tt exch def
  ux uy To add cs 10 mul 26 idiv add moveto Tcx uy To add cs 10 mul 26 idiv add lineto
  Tt setlinewidth stroke
  grestore
} bd
/QT {
/Y22 exch store
/X22 exch store
/Y21 exch store
/X21 exch store
currentpoint
/Y21 load 2 mul add 3 div exch
/X21 load 2 mul add 3 div exch
/X21 load 2 mul /X22 load add 3 div
/Y21 load 2 mul /Y22 load add 3 div
/X22 load /Y22 load curveto
} bd
/SSPD {
dup length /d exch dict def
{
/v exch def
/k exch def
currentpagedevice k known {
/cpdv currentpagedevice k get def
v cpdv ne {
/upd false def
/nullv v type /nulltype eq def
/nullcpdv cpdv type /nulltype eq def
nullv nullcpdv or
{
/upd true def
} {
/sametype v type cpdv type eq def
sametype {
v type /arraytype eq {
/vlen v length def
/cpdvlen cpdv length def
vlen cpdvlen eq {
0 1 vlen 1 sub {
/i exch def
/obj v i get def
/cpdobj cpdv i get def
obj cpdobj ne {
/upd true def
exit
} if
} for
} {
/upd true def
} ifelse
} {
v type /dicttype eq {
v {
/dv exch def
/dk exch def
/cpddv cpdv dk get def
dv cpddv ne {
/upd true def
exit
} if
} forall
} {
/upd true def
} ifelse
} ifelse
} if
} ifelse
upd true eq {
d k v put
} if
} if
} if
} forall
d length 0 gt {
d setpagedevice
} if
} bd
/RE { % /NewFontName [NewEncodingArray] /FontName RE -
  findfont dup length dict begin
  {
    1 index /FID ne
    {def} {pop pop} ifelse
  } forall
  /Encoding exch def
  /FontName 1 index def
  currentdict definefont pop
  end
} bind def
%%EndResource
%%BeginResource: procset (Apache XML Graphics EPS ProcSet) 1.0 0
%%Version: 1.0 0
%%Copyright: (Copyright 2002-2003 The Apache Software Foundation. License terms: http://www.apache.org/licenses/LICENSE-2.0)
/BeginEPSF { %def
/b4_Inc_state save def         % Save state for cleanup
/dict_count countdictstack def % Count objects on dict stack
/op_count count 1 sub def      % Count objects on operand stack
userdict begin                 % Push userdict on dict stack
/showpage { } def              % Redefine showpage, { } = null proc
0 setgray 0 setlinecap         % Prepare graphics state
1 setlinewidth 0 setlinejoin
10 setmiterlimit [ ] 0 setdash newpath
/languagelevel where           % If level not equal to 1 then
{pop languagelevel             % set strokeadjust and
1 ne                           % overprint to their defaults.
{false setstrokeadjust false setoverprint
} if
} if
} bd
/EndEPSF { %def
count op_count sub {pop} repeat            % Clean up stacks
countdictstack dict_count sub {end} repeat
b4_Inc_state restore
} bd
%%EndResource
%FOPBeginFontDict
%%IncludeResource: font Courier-Oblique
%%IncludeResource: font Courier-BoldOblique
%%IncludeResource: font Courier-Bold
%%IncludeResource: font ZapfDingbats
%%IncludeResource: font Symbol
%%IncludeResource: font Helvetica
%%IncludeResource: font Helvetica-Oblique
%%IncludeResource: font Helvetica-Bold
%%IncludeResource: font Helvetica-BoldOblique
%%IncludeResource: font Times-Roman
%%IncludeResource: font Times-Italic
%%IncludeResource: font Times-Bold
%%IncludeResource: font Times-BoldItalic
%%IncludeResource: font Courier
%FOPEndFontDict
%%BeginResource: encoding WinAnsiEncoding
/WinAnsiEncoding [
/.notdef /.notdef /.notdef /.notdef /.notdef
/.notdef /.notdef /.notdef /.notdef /.notdef
/.notdef /.notdef /.notdef /.notdef /.notdef
/.notdef /.notdef /.notdef /.notdef /.notdef
/.notdef /.notdef /.notdef /.notdef /.notdef
/.notdef /.notdef /.notdef /.notdef /.notdef
/.notdef /.notdef /space /exclam /quotedbl
/numbersign /dollar /percent /ampersand /quotesingle
/parenleft /parenright /asterisk /plus /comma
/hyphen /period /slash /zero /one
/two /three /four /five /six
/seven /eight /nine /colon /semicolon
/less /equal /greater /question /at
/A /B /C /D /E
/F /G /H /I /J
/K /L /M /N /O
/P /Q /R /S /T
/U /V /W /X /Y
/Z /bracketleft /backslash /bracketright /asciicircum
/underscore /quoteleft /a /b /c
/d /e /f /g /h
/i /j /k /l /m
/n /o /p /q /r
/s /t /u /v /w
/x /y /z /braceleft /bar
/braceright /asciitilde /bullet /Euro /bullet
/quotesinglbase /florin /quotedblbase /ellipsis /dagger
/daggerdbl /circumflex /perthousand /Scaron /guilsinglleft
/OE /bullet /Zcaron /bullet /bullet
/quoteleft /quoteright /quotedblleft /quotedblright /bullet
/endash /emdash /asciitilde /trademark /scaron
/guilsinglright /oe /bullet /zcaron /Ydieresis
/space /exclamdown /cent /sterling /currency
/yen /brokenbar /section /dieresis /copyright
/ordfeminine /guillemotleft /logicalnot /sfthyphen /registered
/macron /degree /plusminus /twosuperior /threesuperior
/acute /mu /paragraph /middot /cedilla
/onesuperior /ordmasculine /guillemotright /onequarter /onehalf
/threequarters /questiondown /Agrave /Aacute /Acircumflex
/Atilde /Adieresis /Aring /AE /Ccedilla
/Egrave /Eacute /Ecircumflex /Edieresis /Igrave
/Iacute /Icircumflex /Idieresis /Eth /Ntilde
/Ograve /Oacute /Ocircumflex /Otilde /Odieresis
/multiply /Oslash /Ugrave /Uacute /Ucircumflex
/Udieresis /Yacute /Thorn /germandbls /agrave
/aacute /acircumflex /atilde /adieresis /aring
/ae /ccedilla /egrave /eacute /ecircumflex
/edieresis /igrave /iacute /icircumflex /idieresis
/eth /ntilde /ograve /oacute /ocircumflex
/otilde /odieresis /divide /oslash /ugrave
/uacute /ucircumflex /udieresis /yacute /thorn
/ydieresis
] def
%%EndResource
%FOPBeginFontReencode
/Courier-Oblique findfont
dup length dict begin
  {1 index /FID ne {def} {pop pop} ifelse} forall
  /Encoding WinAnsiEncoding def
  currentdict
end
/Courier-Oblique exch definefont pop
/Courier-BoldOblique findfont
dup length dict begin
  {1 index /FID ne {def} {pop pop} ifelse} forall
  /Encoding WinAnsiEncoding def
  currentdict
end
/Courier-BoldOblique exch definefont pop
/Courier-Bold findfont
dup length dict begin
  {1 index /FID ne {def} {pop pop} ifelse} forall
  /Encoding WinAnsiEncoding def
  currentdict
end
/Courier-Bold exch definefont pop
/Helvetica findfont
dup length dict begin
  {1 index /FID ne {def} {pop pop} ifelse} forall
  /Encoding WinAnsiEncoding def
  currentdict
end
/Helvetica exch definefont pop
/Helvetica-Oblique findfont
dup length dict begin
  {1 index /FID ne {def} {pop pop} ifelse} forall
  /Encoding WinAnsiEncoding def
  currentdict
end
/Helvetica-Oblique exch definefont pop
/Helvetica-Bold findfont
dup length dict begin
  {1 index /FID ne {def} {pop pop} ifelse} forall
  /Encoding WinAnsiEncoding def
  currentdict
end
/Helvetica-Bold exch definefont pop
/Helvetica-BoldOblique findfont
dup length dict begin
  {1 index /FID ne {def} {pop pop} ifelse} forall
  /Encoding WinAnsiEncoding def
  currentdict
end
/Helvetica-BoldOblique exch definefont pop
/Times-Roman findfont
dup length dict begin
  {1 index /FID ne {def} {pop pop} ifelse} forall
  /Encoding WinAnsiEncoding def
  currentdict
end
/Times-Roman exch definefont pop
/Times-Italic findfont
dup length dict begin
  {1 index /FID ne {def} {pop pop} ifelse} forall
  /Encoding WinAnsiEncoding def
  currentdict
end
/Times-Italic exch definefont pop
/Times-Bold findfont
dup length dict begin
  {1 index /FID ne {def} {pop pop} ifelse} forall
  /Encoding WinAnsiEncoding def
  currentdict
end
/Times-Bold exch definefont pop
/Times-BoldItalic findfont
dup length dict begin
  {1 index /FID ne {def} {pop pop} ifelse} forall
  /Encoding WinAnsiEncoding def
  currentdict
end
/Times-BoldItalic exch definefont pop
/Courier findfont
dup length dict begin
  {1 index /FID ne {def} {pop pop} ifelse} forall
  /Encoding WinAnsiEncoding def
  currentdict
end
/Courier exch definefont pop
%FOPEndFontReencode
%%EndProlog
%%Page: 1 1
%%PageBoundingBox: 0 0 420 315
%%BeginPageSetup
[1 0 0 -1 0 315] CT
%%EndPageSetup
GS
[0.375 0 0 0.375 0 0] CT
1 GC
N
0 0 1120 840 re
f
GR
GS
[0.375 0 0 0.375 0 0] CT
1 GC
N
0 0 1120 840 re
f
GR
GS
[0.375 0 0 0.375 0 0] CT
1 GC
N
146 748 M
1014 748 L
1014 63 L
146 63 L
cp
f
GR
GS
[0.375 0 0 0.375 0 0] CT
0.873 GC
1 LJ
1.333 LW
N
146 748 M
146 63 L
S
GR
GS
[0.375 0 0 0.375 0 0] CT
0.873 GC
1 LJ
1.333 LW
N
363 748 M
363 63 L
S
GR
GS
[0.375 0 0 0.375 0 0] CT
0.873 GC
1 LJ
1.333 LW
N
580 748 M
580 63 L
S
GR
GS
[0.375 0 0 0.375 0 0] CT
0.873 GC
1 LJ
1.333 LW
N
797 748 M
797 63 L
S
GR
GS
[0.375 0 0 0.375 0 0] CT
0.873 GC
1 LJ
1.333 LW
N
1014 748 M
1014 63 L
S
GR
GS
[0.375 0 0 0.375 0 0] CT
0.873 GC
1 LJ
1.333 LW
N
1014 748 M
146 748 L
S
GR
GS
[0.375 0 0 0.375 0 0] CT
0.873 GC
1 LJ
1.333 LW
N
1014 662.375 M
146 662.375 L
S
GR
GS
[0.375 0 0 0.375 0 0] CT
0.873 GC
1 LJ
1.333 LW
N
1014 576.75 M
146 576.75 L
S
GR
GS
[0.375 0 0 0.375 0 0] CT
0.873 GC
1 LJ
1.333 LW
N
1014 491.125 M
146 491.125 L
S
GR
GS
[0.375 0 0 0.375 0 0] CT
0.873 GC
1 LJ
1.333 LW
N
1014 405.5 M
146 405.5 L
S
GR
GS
[0.375 0 0 0.375 0 0] CT
0.873 GC
1 LJ
1.333 LW
N
1014 319.875 M
146 319.875 L
S
GR
GS
[0.375 0 0 0.375 0 0] CT
0.873 GC
1 LJ
1.333 LW
N
1014 234.25 M
146 234.25 L
S
GR
GS
[0.375 0 0 0.375 0 0] CT
0.873 GC
1 LJ
1.333 LW
N
1014 148.625 M
146 148.625 L
S
GR
GS
[0.375 0 0 0.375 0 0] CT
0.873 GC
1 LJ
1.333 LW
N
1014 63 M
146 63 L
S
GR
GS
[0.375 0 0 0.375 0 0] CT
0.149 GC
2 setlinecap
1 LJ
1.333 LW
N
146 748 M
1014 748 L
S
GR
GS
[0.375 0 0 0.375 0 0] CT
0.149 GC
2 setlinecap
1 LJ
1.333 LW
N
146 63 M
1014 63 L
S
GR
GS
[0.375 0 0 0.375 0 0] CT
0.149 GC
2 setlinecap
1 LJ
1.333 LW
N
146 748 M
146 739.32 L
S
GR
GS
[0.375 0 0 0.375 0 0] CT
0.149 GC
2 setlinecap
1 LJ
1.333 LW
N
363 748 M
363 739.32 L
S
GR
GS
[0.375 0 0 0.375 0 0] CT
0.149 GC
2 setlinecap
1 LJ
1.333 LW
N
580 748 M
580 739.32 L
S
GR
GS
[0.375 0 0 0.375 0 0] CT
0.149 GC
2 setlinecap
1 LJ
1.333 LW
N
797 748 M
797 739.32 L
S
GR
GS
[0.375 0 0 0.375 0 0] CT
0.149 GC
2 setlinecap
1 LJ
1.333 LW
N
1014 748 M
1014 739.32 L
S
GR
GS
[0.375 0 0 0.375 0 0] CT
0.149 GC
2 setlinecap
1 LJ
1.333 LW
N
146 63 M
146 71.68 L
S
GR
GS
[0.375 0 0 0.375 0 0] CT
0.149 GC
2 setlinecap
1 LJ
1.333 LW
N
363 63 M
363 71.68 L
S
GR
GS
[0.375 0 0 0.375 0 0] CT
0.149 GC
2 setlinecap
1 LJ
1.333 LW
N
580 63 M
580 71.68 L
S
GR
GS
[0.375 0 0 0.375 0 0] CT
0.149 GC
2 setlinecap
1 LJ
1.333 LW
N
797 63 M
797 71.68 L
S
GR
GS
[0.375 0 0 0.375 0 0] CT
0.149 GC
2 setlinecap
1 LJ
1.333 LW
N
1014 63 M
1014 71.68 L
S
GR
GS
[0.375 0 0 0.375 54.75 284.50001] CT
0.149 GC
/Helvetica 26.667 F
GS
[1 0 0 1 0 0] CT
-7.5 27 moveto 
1 -1 scale
(0) t 
GR
GR
GS
[0.375 0 0 0.375 136.125 284.50001] CT
0.149 GC
/Helvetica 26.667 F
GS
[1 0 0 1 0 0] CT
-19 27 moveto 
1 -1 scale
(0.5) t 
GR
GR
GS
[0.375 0 0 0.375 217.5 284.50001] CT
0.149 GC
/Helvetica 26.667 F
GS
[1 0 0 1 0 0] CT
-7.5 27 moveto 
1 -1 scale
(1) t 
GR
GR
GS
[0.375 0 0 0.375 298.875 284.50001] CT
0.149 GC
/Helvetica 26.667 F
GS
[1 0 0 1 0 0] CT
-19 27 moveto 
1 -1 scale
(1.5) t 
GR
GR
GS
[0.375 0 0 0.375 380.25 284.50001] CT
0.149 GC
/Helvetica 26.667 F
GS
[1 0 0 1 0 0] CT
-7.5 27 moveto 
1 -1 scale
(2) t 
GR
GR
GS
[0.375 0 0 0.375 214.5 309] CT
0.149 GC
N
8.547 5.672 M
8.547 5.031 8.844 3.781 QT
9.141 2.531 9.555 1.125 QT
9.969 -0.281 10.266 -1.188 QT
10.375 -2.641 10.375 -3.375 QT
10.375 -5.234 10.008 -6.844 QT
9.641 -8.453 8.625 -9.539 QT
7.609 -10.625 5.781 -10.625 QT
4.813 -10.625 3.859 -10.211 QT
2.906 -9.797 2.219 -9.063 QT
1.531 -8.328 1.281 -7.391 QT
1.219 -7.219 1.047 -7.219 QT
0.688 -7.219 L
0.469 -7.219 0.469 -7.484 QT
0.469 -7.578 L
0.797 -8.875 1.625 -10.086 QT
2.453 -11.297 3.648 -12.055 QT
4.844 -12.813 6.172 -12.813 QT
7.531 -12.813 8.523 -11.891 QT
9.516 -10.969 10.109 -9.555 QT
10.703 -8.141 10.969 -6.695 QT
11.234 -5.25 11.234 -3.984 QT
12.688 -7.938 14.5 -11.484 QT
14.938 -12.422 L
15.031 -12.5 15.141 -12.5 QT
15.484 -12.5 L
15.719 -12.5 15.719 -12.234 QT
15.719 -12.172 15.656 -12.063 QT
15.219 -11.156 L
13.969 -8.656 12.914 -6.078 QT
11.859 -3.5 11.109 -1.109 QT
10.984 -0.125 10.664 1.57 QT
10.344 3.266 9.891 4.734 QT
9.438 6.203 8.984 6.266 QT
8.547 6.266 8.547 5.672 QT
cp
f
GR
GS
[0.375 0 0 0.375 0 0] CT
0.149 GC
2 setlinecap
1 LJ
1.333 LW
N
146 748 M
146 63 L
S
GR
GS
[0.375 0 0 0.375 0 0] CT
0.149 GC
2 setlinecap
1 LJ
1.333 LW
N
1014 748 M
1014 63 L
S
GR
GS
[0.375 0 0 0.375 0 0] CT
0.149 GC
2 setlinecap
1 LJ
1.333 LW
N
146 748 M
154.68 748 L
S
GR
GS
[0.375 0 0 0.375 0 0] CT
0.149 GC
2 setlinecap
1 LJ
1.333 LW
N
146 662.375 M
154.68 662.375 L
S
GR
GS
[0.375 0 0 0.375 0 0] CT
0.149 GC
2 setlinecap
1 LJ
1.333 LW
N
146 576.75 M
154.68 576.75 L
S
GR
GS
[0.375 0 0 0.375 0 0] CT
0.149 GC
2 setlinecap
1 LJ
1.333 LW
N
146 491.125 M
154.68 491.125 L
S
GR
GS
[0.375 0 0 0.375 0 0] CT
0.149 GC
2 setlinecap
1 LJ
1.333 LW
N
146 405.5 M
154.68 405.5 L
S
GR
GS
[0.375 0 0 0.375 0 0] CT
0.149 GC
2 setlinecap
1 LJ
1.333 LW
N
146 319.875 M
154.68 319.875 L
S
GR
GS
[0.375 0 0 0.375 0 0] CT
0.149 GC
2 setlinecap
1 LJ
1.333 LW
N
146 234.25 M
154.68 234.25 L
S
GR
GS
[0.375 0 0 0.375 0 0] CT
0.149 GC
2 setlinecap
1 LJ
1.333 LW
N
146 148.625 M
154.68 148.625 L
S
GR
GS
[0.375 0 0 0.375 0 0] CT
0.149 GC
2 setlinecap
1 LJ
1.333 LW
N
146 63 M
154.68 63 L
S
GR
GS
[0.375 0 0 0.375 0 0] CT
0.149 GC
2 setlinecap
1 LJ
1.333 LW
N
1014 748 M
1005.32 748 L
S
GR
GS
[0.375 0 0 0.375 0 0] CT
0.149 GC
2 setlinecap
1 LJ
1.333 LW
N
1014 662.375 M
1005.32 662.375 L
S
GR
GS
[0.375 0 0 0.375 0 0] CT
0.149 GC
2 setlinecap
1 LJ
1.333 LW
N
1014 576.75 M
1005.32 576.75 L
S
GR
GS
[0.375 0 0 0.375 0 0] CT
0.149 GC
2 setlinecap
1 LJ
1.333 LW
N
1014 491.125 M
1005.32 491.125 L
S
GR
GS
[0.375 0 0 0.375 0 0] CT
0.149 GC
2 setlinecap
1 LJ
1.333 LW
N
1014 405.5 M
1005.32 405.5 L
S
GR
GS
[0.375 0 0 0.375 0 0] CT
0.149 GC
2 setlinecap
1 LJ
1.333 LW
N
1014 319.875 M
1005.32 319.875 L
S
GR
GS
[0.375 0 0 0.375 0 0] CT
0.149 GC
2 setlinecap
1 LJ
1.333 LW
N
1014 234.25 M
1005.32 234.25 L
S
GR
GS
[0.375 0 0 0.375 0 0] CT
0.149 GC
2 setlinecap
1 LJ
1.333 LW
N
1014 148.625 M
1005.32 148.625 L
S
GR
GS
[0.375 0 0 0.375 0 0] CT
0.149 GC
2 setlinecap
1 LJ
1.333 LW
N
1014 63 M
1005.32 63 L
S
GR
GS
[0.375 0 0 0.375 50.75 280.5] CT
0.149 GC
/Helvetica 26.667 F
GS
[1 0 0 1 0 0] CT
-54 10.5 moveto 
1 -1 scale
(-100) t 
GR
GR
GS
[0.375 0 0 0.375 50.75 248.39063] CT
0.149 GC
/Helvetica 26.667 F
GS
[1 0 0 1 0 0] CT
-39 10.5 moveto 
1 -1 scale
(-50) t 
GR
GR
GS
[0.375 0 0 0.375 50.75 216.28125] CT
0.149 GC
/Helvetica 26.667 F
GS
[1 0 0 1 0 0] CT
-15 10.5 moveto 
1 -1 scale
(0) t 
GR
GR
GS
[0.375 0 0 0.375 50.75 184.17188] CT
0.149 GC
/Helvetica 26.667 F
GS
[1 0 0 1 0 0] CT
-30 10.5 moveto 
1 -1 scale
(50) t 
GR
GR
GS
[0.375 0 0 0.375 50.75 152.0625] CT
0.149 GC
/Helvetica 26.667 F
GS
[1 0 0 1 0 0] CT
-45 10.5 moveto 
1 -1 scale
(100) t 
GR
GR
GS
[0.375 0 0 0.375 50.75 119.95313] CT
0.149 GC
/Helvetica 26.667 F
GS
[1 0 0 1 0 0] CT
-45 10.5 moveto 
1 -1 scale
(150) t 
GR
GR
GS
[0.375 0 0 0.375 50.75 87.84375] CT
0.149 GC
/Helvetica 26.667 F
GS
[1 0 0 1 0 0] CT
-45 10.5 moveto 
1 -1 scale
(200) t 
GR
GR
GS
[0.375 0 0 0.375 50.75 55.73438] CT
0.149 GC
/Helvetica 26.667 F
GS
[1 0 0 1 0 0] CT
-45 10.5 moveto 
1 -1 scale
(250) t 
GR
GR
GS
[0.375 0 0 0.375 50.75 23.625] CT
0.149 GC
/Helvetica 26.667 F
GS
[1 0 0 1 0 0] CT
-45 10.5 moveto 
1 -1 scale
(300) t 
GR
GR
GS
[0 -0.375 0.375 0 27.5 152.06237] CT
0.149 GC
/Helvetica 29.333 F
GS
[1 0 0 1 0 0] CT
-97 -7 moveto 
1 -1 scale
(objective value) t 
GR
GR
GS
[0.375 0 0 0.375 81.75 19.875] CT
/Helvetica-Bold 29.333 F
GS
[1 0 0 1 0 0] CT
0 0 moveto 
1 -1 scale
(objective value vs ) t 
GR
GR
GS
[0.375 0 0 0.375 179.25 19.875] CT
N
9.547 5.672 M
9.547 5.031 9.844 3.781 QT
10.141 2.531 10.555 1.125 QT
10.969 -0.281 11.266 -1.188 QT
11.375 -2.641 11.375 -3.375 QT
11.375 -5.234 11.008 -6.844 QT
10.641 -8.453 9.625 -9.539 QT
8.609 -10.625 6.781 -10.625 QT
6.781 -10.625 5.844 -10.211 QT
4.906 -9.797 4.219 -9.063 QT
3.531 -8.328 3.281 -7.391 QT
3.219 -7.219 2.047 -7.219 QT
1.688 -7.219 L
1.469 -7.219 1.469 -7.484 QT
1.469 -7.578 L
1.797 -8.875 2.625 -10.086 QT
3.453 -11.297 4.648 -12.055 QT
5.844 -12.813 7.172 -12.813 QT
9.531 -12.813 10.523 -11.891 QT
11.516 -10.969 12.109 -9.555 QT
12.703 -8.141 12.875 -6.695 QT
13.047 -5.25 13.047 -5.25 QT
13.688 -7.938 15.5 -11.484 QT
15.938 -12.422 L
16.031 -12.5 16.141 -12.5 QT
16.484 -12.5 L
17.719 -12.5 17.719 -12.234 QT
17.719 -12.172 17.656 -12.063 QT
17.219 -11.156 L
15.969 -8.656 14.914 -6.078 QT
13.859 -3.5 13.109 -1.109 QT
12.984 -0.125 12.664 1.57 QT
12.344 3.266 11.891 4.734 QT
11.438 6.203 10.984 6.266 QT
9.547 6.266 9.547 5.672 QT
cp
f
GR
GS
[0.375 0 0 0.375 185.625 19.875] CT
/Helvetica-Bold 29.333 F
GS
[1 0 0 1 0 0] CT
0 0 moveto 
1 -1 scale
( - ) t 
GR
GR
GS
[0.375 0 0 0.375 195.75 19.875] CT
N
3.188 0 M
2.938 0 2.781 -0.172 QT
2.625 -0.344 2.625 -0.578 QT
2.625 -0.797 2.781 -0.977 QT
2.938 -1.156 3.188 -1.156 QT
11.703 -1.156 L
11.703 -9.078 L
3.188 -9.078 L
2.938 -9.078 2.781 -9.258 QT
2.625 -9.438 2.625 -9.656 QT
2.625 -9.875 2.781 -10.055 QT
2.938 -10.234 3.188 -10.234 QT
11.703 -10.234 L
11.703 -18.797 L
11.703 -19.016 11.875 -19.164 QT
12.047 -19.313 12.281 -19.313 QT
13.484 -19.313 13.672 -19.164 QT
13.859 -19.016 13.859 -18.797 QT
13.859 -10.234 L
21.391 -10.234 L
22.609 -10.234 22.766 -10.055 QT
22.922 -9.875 22.922 -9.656 QT
22.922 -9.438 22.766 -9.258 QT
22.609 -9.078 21.391 -9.078 QT
13.859 -9.078 L
13.859 -1.156 L
21.391 -1.156 L
22.609 -1.156 22.766 -0.977 QT
22.922 -0.797 22.922 -0.578 QT
22.922 -0.344 22.766 -0.172 QT
22.609 0 21.391 0 QT
3.188 0 L
cp
f
GR
GS
[0.375 0 0 0.375 205.125 19.875] CT
/Helvetica-Bold 29.333 F
GS
[1 0 0 1 0 0] CT
0 0 moveto 
1 -1 scale
( 0.5 standard dev. error bars) t 
GR
GR
GS
[0.375 0 0 0.375 0 0] CT
0 0.447 0.741 RC
1 LJ
5.333 LW
N
146 745.874 M
146 747.31 L
S
GR
GS
[0.375 0 0 0.375 0 0] CT
0 0.447 0.741 RC
1 LJ
5.333 LW
N
175.121 720.484 M
175.121 726.782 L
S
GR
GS
[0.375 0 0 0.375 0 0] CT
0 0.447 0.741 RC
1 LJ
5.333 LW
N
204.243 700.595 M
204.243 710.596 L
S
GR
GS
[0.375 0 0 0.375 0 0] CT
0 0.447 0.741 RC
1 LJ
5.333 LW
N
233.364 679.499 M
233.364 694.158 L
S
GR
GS
[0.375 0 0 0.375 0 0] CT
0 0.447 0.741 RC
1 LJ
5.333 LW
N
262.529 659.721 M
262.529 681.058 L
S
GR
GS
[0.375 0 0 0.375 0 0] CT
0 0.447 0.741 RC
1 LJ
5.333 LW
N
291.65 637.209 M
291.65 662.169 L
S
GR
GS
[0.375 0 0 0.375 0 0] CT
0 0.447 0.741 RC
1 LJ
5.333 LW
N
320.772 617.731 M
320.772 648.24 L
S
GR
GS
[0.375 0 0 0.375 0 0] CT
0 0.447 0.741 RC
1 LJ
5.333 LW
N
349.893 599.14 M
349.893 634.411 L
S
GR
GS
[0.375 0 0 0.375 0 0] CT
0 0.447 0.741 RC
1 LJ
5.333 LW
N
379.015 587.047 M
379.015 626.036 L
S
GR
GS
[0.375 0 0 0.375 0 0] CT
0 0.447 0.741 RC
1 LJ
5.333 LW
N
408.136 567.073 M
408.136 611.49 L
S
GR
GS
[0.375 0 0 0.375 0 0] CT
0 0.447 0.741 RC
1 LJ
5.333 LW
N
437.257 544.191 M
437.257 592.296 L
S
GR
GS
[0.375 0 0 0.375 0 0] CT
0 0.447 0.741 RC
1 LJ
5.333 LW
N
466.422 529.882 M
466.422 583.821 L
S
GR
GS
[0.375 0 0 0.375 0 0] CT
0 0.447 0.741 RC
1 LJ
5.333 LW
N
495.544 503.823 M
495.544 561.13 L
S
GR
GS
[0.375 0 0 0.375 0 0] CT
0 0.447 0.741 RC
1 LJ
5.333 LW
N
524.665 494.537 M
524.665 556.082 L
S
GR
GS
[0.375 0 0 0.375 0 0] CT
0 0.447 0.741 RC
1 LJ
5.333 LW
N
553.786 473.556 M
553.786 539.801 L
S
GR
GS
[0.375 0 0 0.375 0 0] CT
0 0.447 0.741 RC
1 LJ
5.333 LW
N
582.908 463.516 M
582.908 534.833 L
S
GR
GS
[0.375 0 0 0.375 0 0] CT
0 0.447 0.741 RC
1 LJ
5.333 LW
N
612.029 451.298 M
612.029 520.959 L
S
GR
GS
[0.375 0 0 0.375 0 0] CT
0 0.447 0.741 RC
1 LJ
5.333 LW
N
641.151 429.543 M
641.151 509.769 L
S
GR
GS
[0.375 0 0 0.375 0 0] CT
0 0.447 0.741 RC
1 LJ
5.333 LW
N
670.315 417.271 M
670.315 501.813 L
S
GR
GS
[0.375 0 0 0.375 0 0] CT
0 0.447 0.741 RC
1 LJ
5.333 LW
N
699.437 396.225 M
699.437 484.904 L
S
GR
GS
[0.375 0 0 0.375 0 0] CT
0 0.447 0.741 RC
1 LJ
5.333 LW
N
728.558 381.691 M
728.558 475.638 L
S
GR
GS
[0.375 0 0 0.375 0 0] CT
0 0.447 0.741 RC
1 LJ
5.333 LW
N
757.68 364.642 M
757.68 464.059 L
S
GR
GS
[0.375 0 0 0.375 0 0] CT
0 0.447 0.741 RC
1 LJ
5.333 LW
N
786.801 347.132 M
786.801 455.516 L
S
GR
GS
[0.375 0 0 0.375 0 0] CT
0 0.447 0.741 RC
1 LJ
5.333 LW
N
815.922 328.171 M
815.922 434.439 L
S
GR
GS
[0.375 0 0 0.375 0 0] CT
0 0.447 0.741 RC
1 LJ
5.333 LW
N
845.044 310.844 M
845.044 423.074 L
S
GR
GS
[0.375 0 0 0.375 0 0] CT
0 0.447 0.741 RC
1 LJ
5.333 LW
N
874.209 296.039 M
874.209 412.923 L
S
GR
GS
[0.375 0 0 0.375 0 0] CT
0 0.447 0.741 RC
1 LJ
5.333 LW
N
903.33 273.194 M
903.33 408.618 L
S
GR
GS
[0.375 0 0 0.375 0 0] CT
0 0.447 0.741 RC
1 LJ
5.333 LW
N
932.451 261.897 M
932.451 387.482 L
S
GR
GS
[0.375 0 0 0.375 0 0] CT
0 0.447 0.741 RC
1 LJ
5.333 LW
N
961.573 289.566 M
961.573 447.355 L
S
GR
GS
[0.375 0 0 0.375 0 0] CT
0 0.447 0.741 RC
1 LJ
5.333 LW
N
990.694 251.872 M
990.694 398.857 L
S
GR
GS
[0.375 0 0 0.375 0 0] CT
0 0.447 0.741 RC
1 LJ
5.333 LW
N
146 745.874 M
146 744.439 L
S
GR
GS
[0.375 0 0 0.375 0 0] CT
0 0.447 0.741 RC
1 LJ
5.333 LW
N
175.121 720.484 M
175.121 714.186 L
S
GR
GS
[0.375 0 0 0.375 0 0] CT
0 0.447 0.741 RC
1 LJ
5.333 LW
N
204.243 700.595 M
204.243 690.595 L
S
GR
GS
[0.375 0 0 0.375 0 0] CT
0 0.447 0.741 RC
1 LJ
5.333 LW
N
233.364 679.499 M
233.364 664.839 L
S
GR
GS
[0.375 0 0 0.375 0 0] CT
0 0.447 0.741 RC
1 LJ
5.333 LW
N
262.529 659.721 M
262.529 638.384 L
S
GR
GS
[0.375 0 0 0.375 0 0] CT
0 0.447 0.741 RC
1 LJ
5.333 LW
N
291.65 637.209 M
291.65 612.25 L
S
GR
GS
[0.375 0 0 0.375 0 0] CT
0 0.447 0.741 RC
1 LJ
5.333 LW
N
320.772 617.731 M
320.772 587.221 L
S
GR
GS
[0.375 0 0 0.375 0 0] CT
0 0.447 0.741 RC
1 LJ
5.333 LW
N
349.893 599.14 M
349.893 563.869 L
S
GR
GS
[0.375 0 0 0.375 0 0] CT
0 0.447 0.741 RC
1 LJ
5.333 LW
N
379.015 587.047 M
379.015 548.058 L
S
GR
GS
[0.375 0 0 0.375 0 0] CT
0 0.447 0.741 RC
1 LJ
5.333 LW
N
408.136 567.073 M
408.136 522.656 L
S
GR
GS
[0.375 0 0 0.375 0 0] CT
0 0.447 0.741 RC
1 LJ
5.333 LW
N
437.257 544.191 M
437.257 496.087 L
S
GR
GS
[0.375 0 0 0.375 0 0] CT
0 0.447 0.741 RC
1 LJ
5.333 LW
N
466.422 529.882 M
466.422 475.942 L
S
GR
GS
[0.375 0 0 0.375 0 0] CT
0 0.447 0.741 RC
1 LJ
5.333 LW
N
495.544 503.823 M
495.544 446.517 L
S
GR
GS
[0.375 0 0 0.375 0 0] CT
0 0.447 0.741 RC
1 LJ
5.333 LW
N
524.665 494.537 M
524.665 432.992 L
S
GR
GS
[0.375 0 0 0.375 0 0] CT
0 0.447 0.741 RC
1 LJ
5.333 LW
N
553.786 473.556 M
553.786 407.311 L
S
GR
GS
[0.375 0 0 0.375 0 0] CT
0 0.447 0.741 RC
1 LJ
5.333 LW
N
582.908 463.516 M
582.908 392.199 L
S
GR
GS
[0.375 0 0 0.375 0 0] CT
0 0.447 0.741 RC
1 LJ
5.333 LW
N
612.029 451.298 M
612.029 381.637 L
S
GR
GS
[0.375 0 0 0.375 0 0] CT
0 0.447 0.741 RC
1 LJ
5.333 LW
N
641.151 429.543 M
641.151 349.317 L
S
GR
GS
[0.375 0 0 0.375 0 0] CT
0 0.447 0.741 RC
1 LJ
5.333 LW
N
670.315 417.271 M
670.315 332.728 L
S
GR
GS
[0.375 0 0 0.375 0 0] CT
0 0.447 0.741 RC
1 LJ
5.333 LW
N
699.437 396.225 M
699.437 307.545 L
S
GR
GS
[0.375 0 0 0.375 0 0] CT
0 0.447 0.741 RC
1 LJ
5.333 LW
N
728.558 381.691 M
728.558 287.745 L
S
GR
GS
[0.375 0 0 0.375 0 0] CT
0 0.447 0.741 RC
1 LJ
5.333 LW
N
757.68 364.642 M
757.68 265.226 L
S
GR
GS
[0.375 0 0 0.375 0 0] CT
0 0.447 0.741 RC
1 LJ
5.333 LW
N
786.801 347.132 M
786.801 238.748 L
S
GR
GS
[0.375 0 0 0.375 0 0] CT
0 0.447 0.741 RC
1 LJ
5.333 LW
N
815.922 328.171 M
815.922 221.902 L
S
GR
GS
[0.375 0 0 0.375 0 0] CT
0 0.447 0.741 RC
1 LJ
5.333 LW
N
845.044 310.844 M
845.044 198.614 L
S
GR
GS
[0.375 0 0 0.375 0 0] CT
0 0.447 0.741 RC
1 LJ
5.333 LW
N
874.209 296.039 M
874.209 179.155 L
S
GR
GS
[0.375 0 0 0.375 0 0] CT
0 0.447 0.741 RC
1 LJ
5.333 LW
N
903.33 273.194 M
903.33 137.77 L
S
GR
GS
[0.375 0 0 0.375 0 0] CT
0 0.447 0.741 RC
1 LJ
5.333 LW
N
932.451 261.897 M
932.451 136.311 L
S
GR
GS
[0.375 0 0 0.375 0 0] CT
0 0.447 0.741 RC
1 LJ
5.333 LW
N
961.573 289.566 M
961.573 131.777 L
S
GR
GS
[0.375 0 0 0.375 0 0] CT
0 0.447 0.741 RC
1 LJ
5.333 LW
N
990.694 251.872 M
990.694 104.888 L
S
GR
GS
[0.375 0 0 0.375 0 0] CT
0 0.447 0.741 RC
1 LJ
5.333 LW
N
146 745.874 M
175.121 720.484 L
204.243 700.595 L
233.364 679.499 L
262.529 659.721 L
291.65 637.209 L
320.772 617.731 L
349.893 599.14 L
379.015 587.047 L
408.136 567.073 L
437.257 544.191 L
466.422 529.882 L
495.544 503.823 L
524.665 494.537 L
553.786 473.556 L
582.908 463.516 L
612.029 451.298 L
641.151 429.543 L
670.315 417.271 L
699.437 396.225 L
728.558 381.691 L
757.68 364.642 L
786.801 347.132 L
815.922 328.171 L
845.044 310.844 L
874.209 296.039 L
903.33 273.194 L
932.451 261.897 L
961.573 289.566 L
990.694 251.872 L
S
GR
GS
[0.375 0 0 0.375 54.75 280.24109] CT
0 0.447 0.741 RC
N
-8 0 M
8 0 L
f
GR
GS
[0.375 0 0 0.375 54.75 280.24109] CT
0 0.447 0.741 RC
10.0 ML
5.333 LW
N
-8 0 M
8 0 L
S
GR
GS
[0.375 0 0 0.375 65.67052 272.54343] CT
0 0.447 0.741 RC
N
/f1004432658{-8 0 M
8 0 L}def
f1004432658
f
GR
GS
[0.375 0 0 0.375 65.67052 272.54343] CT
0 0.447 0.741 RC
10.0 ML
5.333 LW
N
-8 0 M
8 0 L
S
GR
GS
[0.375 0 0 0.375 76.59105 266.47332] CT
0 0.447 0.741 RC
N
f1004432658
f
GR
GS
[0.375 0 0 0.375 76.59105 266.47332] CT
0 0.447 0.741 RC
10.0 ML
5.333 LW
N
-8 0 M
8 0 L
S
GR
GS
[0.375 0 0 0.375 87.51157 260.3093] CT
0 0.447 0.741 RC
N
f1004432658
f
GR
GS
[0.375 0 0 0.375 87.51157 260.3093] CT
0 0.447 0.741 RC
10.0 ML
5.333 LW
N
-8 0 M
8 0 L
S
GR
GS
[0.375 0 0 0.375 98.44837 255.39686] CT
0 0.447 0.741 RC
N
f1004432658
f
GR
GS
[0.375 0 0 0.375 98.44837 255.39686] CT
0 0.447 0.741 RC
10.0 ML
5.333 LW
N
-8 0 M
8 0 L
S
GR
GS
[0.375 0 0 0.375 109.3689 248.31326] CT
0 0.447 0.741 RC
N
f1004432658
f
GR
GS
[0.375 0 0 0.375 109.3689 248.31326] CT
0 0.447 0.741 RC
10.0 ML
5.333 LW
N
-8 0 M
8 0 L
S
GR
GS
[0.375 0 0 0.375 120.28942 243.09016] CT
0 0.447 0.741 RC
N
f1004432658
f
GR
GS
[0.375 0 0 0.375 120.28942 243.09016] CT
0 0.447 0.741 RC
10.0 ML
5.333 LW
N
-8 0 M
8 0 L
S
GR
GS
[0.375 0 0 0.375 131.20995 237.90415] CT
0 0.447 0.741 RC
N
f1004432658
f
GR
GS
[0.375 0 0 0.375 131.20995 237.90415] CT
0 0.447 0.741 RC
10.0 ML
5.333 LW
N
-8 0 M
8 0 L
S
GR
GS
[0.375 0 0 0.375 142.13047 234.76341] CT
0 0.447 0.741 RC
N
f1004432658
f
GR
GS
[0.375 0 0 0.375 142.13047 234.76341] CT
0 0.447 0.741 RC
10.0 ML
5.333 LW
N
-8 0 M
8 0 L
S
GR
GS
[0.375 0 0 0.375 153.05099 229.3087] CT
0 0.447 0.741 RC
N
f1004432658
f
GR
GS
[0.375 0 0 0.375 153.05099 229.3087] CT
0 0.447 0.741 RC
10.0 ML
5.333 LW
N
-8 0 M
8 0 L
S
GR
GS
[0.375 0 0 0.375 163.97153 222.11085] CT
0 0.447 0.741 RC
N
f1004432658
f
GR
GS
[0.375 0 0 0.375 163.97153 222.11085] CT
0 0.447 0.741 RC
10.0 ML
5.333 LW
N
-8 0 M
8 0 L
S
GR
GS
[0.375 0 0 0.375 174.90833 218.93301] CT
0 0.447 0.741 RC
N
f1004432658
f
GR
GS
[0.375 0 0 0.375 174.90833 218.93301] CT
0 0.447 0.741 RC
10.0 ML
5.333 LW
N
-8 0 M
8 0 L
S
GR
GS
[0.375 0 0 0.375 185.82885 210.4238] CT
0 0.447 0.741 RC
N
f1004432658
f
GR
GS
[0.375 0 0 0.375 185.82885 210.4238] CT
0 0.447 0.741 RC
10.0 ML
5.333 LW
N
-8 0 M
8 0 L
S
GR
GS
[0.375 0 0 0.375 196.74937 208.53058] CT
0 0.447 0.741 RC
N
f1004432658
f
GR
GS
[0.375 0 0 0.375 196.74937 208.53058] CT
0 0.447 0.741 RC
10.0 ML
5.333 LW
N
-8 0 M
8 0 L
S
GR
GS
[0.375 0 0 0.375 207.66989 202.42541] CT
0 0.447 0.741 RC
N
f1004432658
f
GR
GS
[0.375 0 0 0.375 207.66989 202.42541] CT
0 0.447 0.741 RC
10.0 ML
5.333 LW
N
-8 0 M
8 0 L
S
GR
GS
[0.375 0 0 0.375 218.59044 200.56252] CT
0 0.447 0.741 RC
N
f1004432658
f
GR
GS
[0.375 0 0 0.375 218.59044 200.56252] CT
0 0.447 0.741 RC
10.0 ML
5.333 LW
N
-8 0 M
8 0 L
S
GR
GS
[0.375 0 0 0.375 229.51094 195.35964] CT
0 0.447 0.741 RC
N
f1004432658
f
GR
GS
[0.375 0 0 0.375 229.51094 195.35964] CT
0 0.447 0.741 RC
10.0 ML
5.333 LW
N
-8 0 M
8 0 L
S
GR
GS
[0.375 0 0 0.375 240.43149 191.16352] CT
0 0.447 0.741 RC
N
f1004432658
f
GR
GS
[0.375 0 0 0.375 240.43149 191.16352] CT
0 0.447 0.741 RC
10.0 ML
5.333 LW
N
-8 0 M
8 0 L
S
GR
GS
[0.375 0 0 0.375 251.36826 188.18004] CT
0 0.447 0.741 RC
N
f1004432658
f
GR
GS
[0.375 0 0 0.375 251.36826 188.18004] CT
0 0.447 0.741 RC
10.0 ML
5.333 LW
N
-8 0 M
8 0 L
S
GR
GS
[0.375 0 0 0.375 262.28881 181.83907] CT
0 0.447 0.741 RC
N
f1004432658
f
GR
GS
[0.375 0 0 0.375 262.28881 181.83907] CT
0 0.447 0.741 RC
10.0 ML
5.333 LW
N
-8 0 M
8 0 L
S
GR
GS
[0.375 0 0 0.375 273.20934 178.36408] CT
0 0.447 0.741 RC
N
f1004432658
f
GR
GS
[0.375 0 0 0.375 273.20934 178.36408] CT
0 0.447 0.741 RC
10.0 ML
5.333 LW
N
-8 0 M
8 0 L
S
GR
GS
[0.375 0 0 0.375 284.12984 174.02201] CT
0 0.447 0.741 RC
N
f1004432658
f
GR
GS
[0.375 0 0 0.375 284.12984 174.02201] CT
0 0.447 0.741 RC
10.0 ML
5.333 LW
N
-8 0 M
8 0 L
S
GR
GS
[0.375 0 0 0.375 295.05038 170.81836] CT
0 0.447 0.741 RC
N
f1004432658
f
GR
GS
[0.375 0 0 0.375 295.05038 170.81836] CT
0 0.447 0.741 RC
10.0 ML
5.333 LW
N
-8 0 M
8 0 L
S
GR
GS
[0.375 0 0 0.375 305.97089 162.91467] CT
0 0.447 0.741 RC
N
f1004432658
f
GR
GS
[0.375 0 0 0.375 305.97089 162.91467] CT
0 0.447 0.741 RC
10.0 ML
5.333 LW
N
-8 0 M
8 0 L
S
GR
GS
[0.375 0 0 0.375 316.89143 158.65274] CT
0 0.447 0.741 RC
N
f1004432658
f
GR
GS
[0.375 0 0 0.375 316.89143 158.65274] CT
0 0.447 0.741 RC
10.0 ML
5.333 LW
N
-8 0 M
8 0 L
S
GR
GS
[0.375 0 0 0.375 327.82821 154.8462] CT
0 0.447 0.741 RC
N
f1004432658
f
GR
GS
[0.375 0 0 0.375 327.82821 154.8462] CT
0 0.447 0.741 RC
10.0 ML
5.333 LW
N
-8 0 M
8 0 L
S
GR
GS
[0.375 0 0 0.375 338.74876 153.23159] CT
0 0.447 0.741 RC
N
f1004432658
f
GR
GS
[0.375 0 0 0.375 338.74876 153.23159] CT
0 0.447 0.741 RC
10.0 ML
5.333 LW
N
-8 0 M
8 0 L
S
GR
GS
[0.375 0 0 0.375 349.66928 145.30573] CT
0 0.447 0.741 RC
N
f1004432658
f
GR
GS
[0.375 0 0 0.375 349.66928 145.30573] CT
0 0.447 0.741 RC
10.0 ML
5.333 LW
N
-8 0 M
8 0 L
S
GR
GS
[0.375 0 0 0.375 360.58981 167.75805] CT
0 0.447 0.741 RC
N
f1004432658
f
GR
GS
[0.375 0 0 0.375 360.58981 167.75805] CT
0 0.447 0.741 RC
10.0 ML
5.333 LW
N
-8 0 M
8 0 L
S
GR
GS
[0.375 0 0 0.375 371.51033 149.57151] CT
0 0.447 0.741 RC
N
f1004432658
f
GR
GS
[0.375 0 0 0.375 371.51033 149.57151] CT
0 0.447 0.741 RC
10.0 ML
5.333 LW
N
-8 0 M
8 0 L
S
GR
GS
[0.375 0 0 0.375 54.75 279.16477] CT
0 0.447 0.741 RC
N
f1004432658
f
GR
GS
[0.375 0 0 0.375 54.75 279.16477] CT
0 0.447 0.741 RC
10.0 ML
5.333 LW
N
-8 0 M
8 0 L
S
GR
GS
[0.375 0 0 0.375 65.67052 267.81983] CT
0 0.447 0.741 RC
N
f1004432658
f
GR
GS
[0.375 0 0 0.375 65.67052 267.81983] CT
0 0.447 0.741 RC
10.0 ML
5.333 LW
N
-8 0 M
8 0 L
S
GR
GS
[0.375 0 0 0.375 76.59105 258.97311] CT
0 0.447 0.741 RC
N
f1004432658
f
GR
GS
[0.375 0 0 0.375 76.59105 258.97311] CT
0 0.447 0.741 RC
10.0 ML
5.333 LW
N
-8 0 M
8 0 L
S
GR
GS
[0.375 0 0 0.375 87.51157 249.31474] CT
0 0.447 0.741 RC
N
f1004432658
f
GR
GS
[0.375 0 0 0.375 87.51157 249.31474] CT
0 0.447 0.741 RC
10.0 ML
5.333 LW
N
-8 0 M
8 0 L
S
GR
GS
[0.375 0 0 0.375 98.44837 239.39385] CT
0 0.447 0.741 RC
N
f1004432658
f
GR
GS
[0.375 0 0 0.375 98.44837 239.39385] CT
0 0.447 0.741 RC
10.0 ML
5.333 LW
N
-8 0 M
8 0 L
S
GR
GS
[0.375 0 0 0.375 109.3689 229.5938] CT
0 0.447 0.741 RC
N
f1004432658
f
GR
GS
[0.375 0 0 0.375 109.3689 229.5938] CT
0 0.447 0.741 RC
10.0 ML
5.333 LW
N
-8 0 M
8 0 L
S
GR
GS
[0.375 0 0 0.375 120.28942 220.20788] CT
0 0.447 0.741 RC
N
f1004432658
f
GR
GS
[0.375 0 0 0.375 120.28942 220.20788] CT
0 0.447 0.741 RC
10.0 ML
5.333 LW
N
-8 0 M
8 0 L
S
GR
GS
[0.375 0 0 0.375 131.20995 211.45104] CT
0 0.447 0.741 RC
N
f1004432658
f
GR
GS
[0.375 0 0 0.375 131.20995 211.45104] CT
0 0.447 0.741 RC
10.0 ML
5.333 LW
N
-8 0 M
8 0 L
S
GR
GS
[0.375 0 0 0.375 142.13047 205.5219] CT
0 0.447 0.741 RC
N
f1004432658
f
GR
GS
[0.375 0 0 0.375 142.13047 205.5219] CT
0 0.447 0.741 RC
10.0 ML
5.333 LW
N
-8 0 M
8 0 L
S
GR
GS
[0.375 0 0 0.375 153.05099 195.99607] CT
0 0.447 0.741 RC
N
f1004432658
f
GR
GS
[0.375 0 0 0.375 153.05099 195.99607] CT
0 0.447 0.741 RC
10.0 ML
5.333 LW
N
-8 0 M
8 0 L
S
GR
GS
[0.375 0 0 0.375 163.97153 186.0327] CT
0 0.447 0.741 RC
N
f1004432658
f
GR
GS
[0.375 0 0 0.375 163.97153 186.0327] CT
0 0.447 0.741 RC
10.0 ML
5.333 LW
N
-8 0 M
8 0 L
S
GR
GS
[0.375 0 0 0.375 174.90833 178.47819] CT
0 0.447 0.741 RC
N
f1004432658
f
GR
GS
[0.375 0 0 0.375 174.90833 178.47819] CT
0 0.447 0.741 RC
10.0 ML
5.333 LW
N
-8 0 M
8 0 L
S
GR
GS
[0.375 0 0 0.375 185.82885 167.44378] CT
0 0.447 0.741 RC
N
f1004432658
f
GR
GS
[0.375 0 0 0.375 185.82885 167.44378] CT
0 0.447 0.741 RC
10.0 ML
5.333 LW
N
-8 0 M
8 0 L
S
GR
GS
[0.375 0 0 0.375 196.74937 162.37193] CT
0 0.447 0.741 RC
N
f1004432658
f
GR
GS
[0.375 0 0 0.375 196.74937 162.37193] CT
0 0.447 0.741 RC
10.0 ML
5.333 LW
N
-8 0 M
8 0 L
S
GR
GS
[0.375 0 0 0.375 207.66989 152.74176] CT
0 0.447 0.741 RC
N
f1004432658
f
GR
GS
[0.375 0 0 0.375 207.66989 152.74176] CT
0 0.447 0.741 RC
10.0 ML
5.333 LW
N
-8 0 M
8 0 L
S
GR
GS
[0.375 0 0 0.375 218.59044 147.07455] CT
0 0.447 0.741 RC
N
f1004432658
f
GR
GS
[0.375 0 0 0.375 218.59044 147.07455] CT
0 0.447 0.741 RC
10.0 ML
5.333 LW
N
-8 0 M
8 0 L
S
GR
GS
[0.375 0 0 0.375 229.51094 143.11378] CT
0 0.447 0.741 RC
N
f1004432658
f
GR
GS
[0.375 0 0 0.375 229.51094 143.11378] CT
0 0.447 0.741 RC
10.0 ML
5.333 LW
N
-8 0 M
8 0 L
S
GR
GS
[0.375 0 0 0.375 240.43149 130.99405] CT
0 0.447 0.741 RC
N
f1004432658
f
GR
GS
[0.375 0 0 0.375 240.43149 130.99405] CT
0 0.447 0.741 RC
10.0 ML
5.333 LW
N
-8 0 M
8 0 L
S
GR
GS
[0.375 0 0 0.375 251.36826 124.77307] CT
0 0.447 0.741 RC
N
f1004432658
f
GR
GS
[0.375 0 0 0.375 251.36826 124.77307] CT
0 0.447 0.741 RC
10.0 ML
5.333 LW
N
-8 0 M
8 0 L
S
GR
GS
[0.375 0 0 0.375 262.28881 115.32939] CT
0 0.447 0.741 RC
N
f1004432658
f
GR
GS
[0.375 0 0 0.375 262.28881 115.32939] CT
0 0.447 0.741 RC
10.0 ML
5.333 LW
N
-8 0 M
8 0 L
S
GR
GS
[0.375 0 0 0.375 273.20934 107.90444] CT
0 0.447 0.741 RC
N
f1004432658
f
GR
GS
[0.375 0 0 0.375 273.20934 107.90444] CT
0 0.447 0.741 RC
10.0 ML
5.333 LW
N
-8 0 M
8 0 L
S
GR
GS
[0.375 0 0 0.375 284.12984 99.45973] CT
0 0.447 0.741 RC
N
f1004432658
f
GR
GS
[0.375 0 0 0.375 284.12984 99.45973] CT
0 0.447 0.741 RC
10.0 ML
5.333 LW
N
-8 0 M
8 0 L
S
GR
GS
[0.375 0 0 0.375 295.05038 89.53037] CT
0 0.447 0.741 RC
N
f1004432658
f
GR
GS
[0.375 0 0 0.375 295.05038 89.53037] CT
0 0.447 0.741 RC
10.0 ML
5.333 LW
N
-8 0 M
8 0 L
S
GR
GS
[0.375 0 0 0.375 305.97089 83.21338] CT
0 0.447 0.741 RC
N
f1004432658
f
GR
GS
[0.375 0 0 0.375 305.97089 83.21338] CT
0 0.447 0.741 RC
10.0 ML
5.333 LW
N
-8 0 M
8 0 L
S
GR
GS
[0.375 0 0 0.375 316.89143 74.4803] CT
0 0.447 0.741 RC
N
f1004432658
f
GR
GS
[0.375 0 0 0.375 316.89143 74.4803] CT
0 0.447 0.741 RC
10.0 ML
5.333 LW
N
-8 0 M
8 0 L
S
GR
GS
[0.375 0 0 0.375 327.82821 67.18318] CT
0 0.447 0.741 RC
N
f1004432658
f
GR
GS
[0.375 0 0 0.375 327.82821 67.18318] CT
0 0.447 0.741 RC
10.0 ML
5.333 LW
N
-8 0 M
8 0 L
S
GR
GS
[0.375 0 0 0.375 338.74876 51.66363] CT
0 0.447 0.741 RC
N
f1004432658
f
GR
GS
[0.375 0 0 0.375 338.74876 51.66363] CT
0 0.447 0.741 RC
10.0 ML
5.333 LW
N
-8 0 M
8 0 L
S
GR
GS
[0.375 0 0 0.375 349.66928 51.11667] CT
0 0.447 0.741 RC
N
f1004432658
f
GR
GS
[0.375 0 0 0.375 349.66928 51.11667] CT
0 0.447 0.741 RC
10.0 ML
5.333 LW
N
-8 0 M
8 0 L
S
GR
GS
[0.375 0 0 0.375 360.58981 49.41637] CT
0 0.447 0.741 RC
N
f1004432658
f
GR
GS
[0.375 0 0 0.375 360.58981 49.41637] CT
0 0.447 0.741 RC
10.0 ML
5.333 LW
N
-8 0 M
8 0 L
S
GR
GS
[0.375 0 0 0.375 371.51033 39.33288] CT
0 0.447 0.741 RC
N
f1004432658
f
GR
GS
[0.375 0 0 0.375 371.51033 39.33288] CT
0 0.447 0.741 RC
10.0 ML
5.333 LW
N
-8 0 M
8 0 L
S
GR
GS
[0.375 0 0 0.375 0 0] CT
0.851 0.325 0.098 RC
1 LJ
5.333 LW
N
146 745.165 M
146 745.786 L
S
GR
GS
[0.375 0 0 0.375 0 0] CT
0.851 0.325 0.098 RC
1 LJ
5.333 LW
N
175.121 727.003 M
175.121 731.022 L
S
GR
GS
[0.375 0 0 0.375 0 0] CT
0.851 0.325 0.098 RC
1 LJ
5.333 LW
N
204.243 713.091 M
204.243 721.295 L
S
GR
GS
[0.375 0 0 0.375 0 0] CT
0.851 0.325 0.098 RC
1 LJ
5.333 LW
N
233.364 699.058 M
233.364 708.88 L
S
GR
GS
[0.375 0 0 0.375 0 0] CT
0.851 0.325 0.098 RC
1 LJ
5.333 LW
N
262.529 684.228 M
262.529 696.144 L
S
GR
GS
[0.375 0 0 0.375 0 0] CT
0.851 0.325 0.098 RC
1 LJ
5.333 LW
N
291.65 674.308 M
291.65 686.899 L
S
GR
GS
[0.375 0 0 0.375 0 0] CT
0.851 0.325 0.098 RC
1 LJ
5.333 LW
N
320.772 676.257 M
320.772 685.265 L
S
GR
GS
[0.375 0 0 0.375 0 0] CT
0.851 0.325 0.098 RC
1 LJ
5.333 LW
N
349.893 669.325 M
349.893 678.819 L
S
GR
GS
[0.375 0 0 0.375 0 0] CT
0.851 0.325 0.098 RC
1 LJ
5.333 LW
N
379.015 676.508 M
379.015 689.062 L
S
GR
GS
[0.375 0 0 0.375 0 0] CT
0.851 0.325 0.098 RC
1 LJ
5.333 LW
N
408.136 673.284 M
408.136 686.752 L
S
GR
GS
[0.375 0 0 0.375 0 0] CT
0.851 0.325 0.098 RC
1 LJ
5.333 LW
N
437.257 657.044 M
437.257 669.566 L
S
GR
GS
[0.375 0 0 0.375 0 0] CT
0.851 0.325 0.098 RC
1 LJ
5.333 LW
N
466.422 653.175 M
466.422 665.719 L
S
GR
GS
[0.375 0 0 0.375 0 0] CT
0.851 0.325 0.098 RC
1 LJ
5.333 LW
N
495.544 641.495 M
495.544 660.424 L
S
GR
GS
[0.375 0 0 0.375 0 0] CT
0.851 0.325 0.098 RC
1 LJ
5.333 LW
N
524.665 636.461 M
524.665 655.212 L
S
GR
GS
[0.375 0 0 0.375 0 0] CT
0.851 0.325 0.098 RC
1 LJ
5.333 LW
N
553.786 643.337 M
553.786 659.299 L
S
GR
GS
[0.375 0 0 0.375 0 0] CT
0.851 0.325 0.098 RC
1 LJ
5.333 LW
N
582.908 643.017 M
582.908 659.162 L
S
GR
GS
[0.375 0 0 0.375 0 0] CT
0.851 0.325 0.098 RC
1 LJ
5.333 LW
N
612.029 652.285 M
612.029 669.42 L
S
GR
GS
[0.375 0 0 0.375 0 0] CT
0.851 0.325 0.098 RC
1 LJ
5.333 LW
N
641.151 650.107 M
641.151 667.332 L
S
GR
GS
[0.375 0 0 0.375 0 0] CT
0.851 0.325 0.098 RC
1 LJ
5.333 LW
N
670.315 631.251 M
670.315 651.479 L
S
GR
GS
[0.375 0 0 0.375 0 0] CT
0.851 0.325 0.098 RC
1 LJ
5.333 LW
N
699.437 630.603 M
699.437 650.967 L
S
GR
GS
[0.375 0 0 0.375 0 0] CT
0.851 0.325 0.098 RC
1 LJ
5.333 LW
N
728.558 638.363 M
728.558 658.615 L
S
GR
GS
[0.375 0 0 0.375 0 0] CT
0.851 0.325 0.098 RC
1 LJ
5.333 LW
N
757.68 636.62 M
757.68 656.817 L
S
GR
GS
[0.375 0 0 0.375 0 0] CT
0.851 0.325 0.098 RC
1 LJ
5.333 LW
N
786.801 620.276 M
786.801 636.384 L
S
GR
GS
[0.375 0 0 0.375 0 0] CT
0.851 0.325 0.098 RC
1 LJ
5.333 LW
N
815.922 616.091 M
815.922 631.979 L
S
GR
GS
[0.375 0 0 0.375 0 0] CT
0.851 0.325 0.098 RC
1 LJ
5.333 LW
N
845.044 629.38 M
845.044 645.238 L
S
GR
GS
[0.375 0 0 0.375 0 0] CT
0.851 0.325 0.098 RC
1 LJ
5.333 LW
N
874.209 627.062 M
874.209 642.754 L
S
GR
GS
[0.375 0 0 0.375 0 0] CT
0.851 0.325 0.098 RC
1 LJ
5.333 LW
N
903.33 604.299 M
903.33 617.771 L
S
GR
GS
[0.375 0 0 0.375 0 0] CT
0.851 0.325 0.098 RC
1 LJ
5.333 LW
N
932.451 603.952 M
932.451 617.486 L
S
GR
GS
[0.375 0 0 0.375 0 0] CT
0.851 0.325 0.098 RC
1 LJ
5.333 LW
N
961.573 608.218 M
961.573 621.733 L
S
GR
GS
[0.375 0 0 0.375 0 0] CT
0.851 0.325 0.098 RC
1 LJ
5.333 LW
N
990.694 605.755 M
990.694 619.073 L
S
GR
GS
[0.375 0 0 0.375 0 0] CT
0.851 0.325 0.098 RC
1 LJ
5.333 LW
N
146 745.165 M
146 744.544 L
S
GR
GS
[0.375 0 0 0.375 0 0] CT
0.851 0.325 0.098 RC
1 LJ
5.333 LW
N
175.121 727.003 M
175.121 722.985 L
S
GR
GS
[0.375 0 0 0.375 0 0] CT
0.851 0.325 0.098 RC
1 LJ
5.333 LW
N
204.243 713.091 M
204.243 704.888 L
S
GR
GS
[0.375 0 0 0.375 0 0] CT
0.851 0.325 0.098 RC
1 LJ
5.333 LW
N
233.364 699.058 M
233.364 689.236 L
S
GR
GS
[0.375 0 0 0.375 0 0] CT
0.851 0.325 0.098 RC
1 LJ
5.333 LW
N
262.529 684.228 M
262.529 672.312 L
S
GR
GS
[0.375 0 0 0.375 0 0] CT
0.851 0.325 0.098 RC
1 LJ
5.333 LW
N
291.65 674.308 M
291.65 661.717 L
S
GR
GS
[0.375 0 0 0.375 0 0] CT
0.851 0.325 0.098 RC
1 LJ
5.333 LW
N
320.772 676.257 M
320.772 667.25 L
S
GR
GS
[0.375 0 0 0.375 0 0] CT
0.851 0.325 0.098 RC
1 LJ
5.333 LW
N
349.893 669.325 M
349.893 659.831 L
S
GR
GS
[0.375 0 0 0.375 0 0] CT
0.851 0.325 0.098 RC
1 LJ
5.333 LW
N
379.015 676.508 M
379.015 663.954 L
S
GR
GS
[0.375 0 0 0.375 0 0] CT
0.851 0.325 0.098 RC
1 LJ
5.333 LW
N
408.136 673.284 M
408.136 659.817 L
S
GR
GS
[0.375 0 0 0.375 0 0] CT
0.851 0.325 0.098 RC
1 LJ
5.333 LW
N
437.257 657.044 M
437.257 644.523 L
S
GR
GS
[0.375 0 0 0.375 0 0] CT
0.851 0.325 0.098 RC
1 LJ
5.333 LW
N
466.422 653.175 M
466.422 640.631 L
S
GR
GS
[0.375 0 0 0.375 0 0] CT
0.851 0.325 0.098 RC
1 LJ
5.333 LW
N
495.544 641.495 M
495.544 622.565 L
S
GR
GS
[0.375 0 0 0.375 0 0] CT
0.851 0.325 0.098 RC
1 LJ
5.333 LW
N
524.665 636.461 M
524.665 617.711 L
S
GR
GS
[0.375 0 0 0.375 0 0] CT
0.851 0.325 0.098 RC
1 LJ
5.333 LW
N
553.786 643.337 M
553.786 627.376 L
S
GR
GS
[0.375 0 0 0.375 0 0] CT
0.851 0.325 0.098 RC
1 LJ
5.333 LW
N
582.908 643.017 M
582.908 626.873 L
S
GR
GS
[0.375 0 0 0.375 0 0] CT
0.851 0.325 0.098 RC
1 LJ
5.333 LW
N
612.029 652.285 M
612.029 635.149 L
S
GR
GS
[0.375 0 0 0.375 0 0] CT
0.851 0.325 0.098 RC
1 LJ
5.333 LW
N
641.151 650.107 M
641.151 632.882 L
S
GR
GS
[0.375 0 0 0.375 0 0] CT
0.851 0.325 0.098 RC
1 LJ
5.333 LW
N
670.315 631.251 M
670.315 611.023 L
S
GR
GS
[0.375 0 0 0.375 0 0] CT
0.851 0.325 0.098 RC
1 LJ
5.333 LW
N
699.437 630.603 M
699.437 610.24 L
S
GR
GS
[0.375 0 0 0.375 0 0] CT
0.851 0.325 0.098 RC
1 LJ
5.333 LW
N
728.558 638.363 M
728.558 618.11 L
S
GR
GS
[0.375 0 0 0.375 0 0] CT
0.851 0.325 0.098 RC
1 LJ
5.333 LW
N
757.68 636.62 M
757.68 616.424 L
S
GR
GS
[0.375 0 0 0.375 0 0] CT
0.851 0.325 0.098 RC
1 LJ
5.333 LW
N
786.801 620.276 M
786.801 604.169 L
S
GR
GS
[0.375 0 0 0.375 0 0] CT
0.851 0.325 0.098 RC
1 LJ
5.333 LW
N
815.922 616.091 M
815.922 600.203 L
S
GR
GS
[0.375 0 0 0.375 0 0] CT
0.851 0.325 0.098 RC
1 LJ
5.333 LW
N
845.044 629.38 M
845.044 613.521 L
S
GR
GS
[0.375 0 0 0.375 0 0] CT
0.851 0.325 0.098 RC
1 LJ
5.333 LW
N
874.209 627.062 M
874.209 611.37 L
S
GR
GS
[0.375 0 0 0.375 0 0] CT
0.851 0.325 0.098 RC
1 LJ
5.333 LW
N
903.33 604.299 M
903.33 590.828 L
S
GR
GS
[0.375 0 0 0.375 0 0] CT
0.851 0.325 0.098 RC
1 LJ
5.333 LW
N
932.451 603.952 M
932.451 590.418 L
S
GR
GS
[0.375 0 0 0.375 0 0] CT
0.851 0.325 0.098 RC
1 LJ
5.333 LW
N
961.573 608.218 M
961.573 594.702 L
S
GR
GS
[0.375 0 0 0.375 0 0] CT
0.851 0.325 0.098 RC
1 LJ
5.333 LW
N
990.694 605.755 M
990.694 592.437 L
S
GR
GS
[0.375 0 0 0.375 0 0] CT
0.851 0.325 0.098 RC
1 LJ
5.333 LW
N
146 745.165 M
175.121 727.003 L
204.243 713.091 L
233.364 699.058 L
262.529 684.228 L
291.65 674.308 L
320.772 676.257 L
349.893 669.325 L
379.015 676.508 L
408.136 673.284 L
437.257 657.044 L
466.422 653.175 L
495.544 641.495 L
524.665 636.461 L
553.786 643.337 L
582.908 643.017 L
612.029 652.285 L
641.151 650.107 L
670.315 631.251 L
699.437 630.603 L
728.558 638.363 L
757.68 636.62 L
786.801 620.276 L
815.922 616.091 L
845.044 629.38 L
874.209 627.062 L
903.33 604.299 L
932.451 603.952 L
961.573 608.218 L
990.694 605.755 L
S
GR
GS
[0.375 0 0 0.375 54.75 279.6698] CT
0.851 0.325 0.098 RC
N
f1004432658
f
GR
GS
[0.375 0 0 0.375 54.75 279.6698] CT
0.851 0.325 0.098 RC
10.0 ML
5.333 LW
N
-8 0 M
8 0 L
S
GR
GS
[0.375 0 0 0.375 65.67052 274.13313] CT
0.851 0.325 0.098 RC
N
f1004432658
f
GR
GS
[0.375 0 0 0.375 65.67052 274.13313] CT
0.851 0.325 0.098 RC
10.0 ML
5.333 LW
N
-8 0 M
8 0 L
S
GR
GS
[0.375 0 0 0.375 76.59105 270.48548] CT
0.851 0.325 0.098 RC
N
f1004432658
f
GR
GS
[0.375 0 0 0.375 76.59105 270.48548] CT
0.851 0.325 0.098 RC
10.0 ML
5.333 LW
N
-8 0 M
8 0 L
S
GR
GS
[0.375 0 0 0.375 87.51157 265.82993] CT
0.851 0.325 0.098 RC
N
f1004432658
f
GR
GS
[0.375 0 0 0.375 87.51157 265.82993] CT
0.851 0.325 0.098 RC
10.0 ML
5.333 LW
N
-8 0 M
8 0 L
S
GR
GS
[0.375 0 0 0.375 98.44837 261.05408] CT
0.851 0.325 0.098 RC
N
f1004432658
f
GR
GS
[0.375 0 0 0.375 98.44837 261.05408] CT
0.851 0.325 0.098 RC
10.0 ML
5.333 LW
N
-8 0 M
8 0 L
S
GR
GS
[0.375 0 0 0.375 109.3689 257.5873] CT
0.851 0.325 0.098 RC
N
f1004432658
f
GR
GS
[0.375 0 0 0.375 109.3689 257.5873] CT
0.851 0.325 0.098 RC
10.0 ML
5.333 LW
N
-8 0 M
8 0 L
S
GR
GS
[0.375 0 0 0.375 120.28942 256.97447] CT
0.851 0.325 0.098 RC
N
f1004432658
f
GR
GS
[0.375 0 0 0.375 120.28942 256.97447] CT
0.851 0.325 0.098 RC
10.0 ML
5.333 LW
N
-8 0 M
8 0 L
S
GR
GS
[0.375 0 0 0.375 131.20995 254.55709] CT
0.851 0.325 0.098 RC
N
f1004432658
f
GR
GS
[0.375 0 0 0.375 131.20995 254.55709] CT
0.851 0.325 0.098 RC
10.0 ML
5.333 LW
N
-8 0 M
8 0 L
S
GR
GS
[0.375 0 0 0.375 142.13047 258.39821] CT
0.851 0.325 0.098 RC
N
f1004432658
f
GR
GS
[0.375 0 0 0.375 142.13047 258.39821] CT
0.851 0.325 0.098 RC
10.0 ML
5.333 LW
N
-8 0 M
8 0 L
S
GR
GS
[0.375 0 0 0.375 153.05099 257.53203] CT
0.851 0.325 0.098 RC
N
f1004432658
f
GR
GS
[0.375 0 0 0.375 153.05099 257.53203] CT
0.851 0.325 0.098 RC
10.0 ML
5.333 LW
N
-8 0 M
8 0 L
S
GR
GS
[0.375 0 0 0.375 163.97153 251.08736] CT
0.851 0.325 0.098 RC
N
f1004432658
f
GR
GS
[0.375 0 0 0.375 163.97153 251.08736] CT
0.851 0.325 0.098 RC
10.0 ML
5.333 LW
N
-8 0 M
8 0 L
S
GR
GS
[0.375 0 0 0.375 174.90833 249.64481] CT
0.851 0.325 0.098 RC
N
f1004432658
f
GR
GS
[0.375 0 0 0.375 174.90833 249.64481] CT
0.851 0.325 0.098 RC
10.0 ML
5.333 LW
N
-8 0 M
8 0 L
S
GR
GS
[0.375 0 0 0.375 185.82885 247.6591] CT
0.851 0.325 0.098 RC
N
f1004432658
f
GR
GS
[0.375 0 0 0.375 185.82885 247.6591] CT
0.851 0.325 0.098 RC
10.0 ML
5.333 LW
N
-8 0 M
8 0 L
S
GR
GS
[0.375 0 0 0.375 196.74937 245.70433] CT
0.851 0.325 0.098 RC
N
f1004432658
f
GR
GS
[0.375 0 0 0.375 196.74937 245.70433] CT
0.851 0.325 0.098 RC
10.0 ML
5.333 LW
N
-8 0 M
8 0 L
S
GR
GS
[0.375 0 0 0.375 207.66989 247.23704] CT
0.851 0.325 0.098 RC
N
f1004432658
f
GR
GS
[0.375 0 0 0.375 207.66989 247.23704] CT
0.851 0.325 0.098 RC
10.0 ML
5.333 LW
N
-8 0 M
8 0 L
S
GR
GS
[0.375 0 0 0.375 218.59044 247.18568] CT
0.851 0.325 0.098 RC
N
f1004432658
f
GR
GS
[0.375 0 0 0.375 218.59044 247.18568] CT
0.851 0.325 0.098 RC
10.0 ML
5.333 LW
N
-8 0 M
8 0 L
S
GR
GS
[0.375 0 0 0.375 229.51094 251.0324] CT
0.851 0.325 0.098 RC
N
f1004432658
f
GR
GS
[0.375 0 0 0.375 229.51094 251.0324] CT
0.851 0.325 0.098 RC
10.0 ML
5.333 LW
N
-8 0 M
8 0 L
S
GR
GS
[0.375 0 0 0.375 240.43149 250.24958] CT
0.851 0.325 0.098 RC
N
f1004432658
f
GR
GS
[0.375 0 0 0.375 240.43149 250.24958] CT
0.851 0.325 0.098 RC
10.0 ML
5.333 LW
N
-8 0 M
8 0 L
S
GR
GS
[0.375 0 0 0.375 251.36826 244.30472] CT
0.851 0.325 0.098 RC
N
f1004432658
f
GR
GS
[0.375 0 0 0.375 251.36826 244.30472] CT
0.851 0.325 0.098 RC
10.0 ML
5.333 LW
N
-8 0 M
8 0 L
S
GR
GS
[0.375 0 0 0.375 262.28881 244.11248] CT
0.851 0.325 0.098 RC
N
f1004432658
f
GR
GS
[0.375 0 0 0.375 262.28881 244.11248] CT
0.851 0.325 0.098 RC
10.0 ML
5.333 LW
N
-8 0 M
8 0 L
S
GR
GS
[0.375 0 0 0.375 273.20934 246.9806] CT
0.851 0.325 0.098 RC
N
f1004432658
f
GR
GS
[0.375 0 0 0.375 273.20934 246.9806] CT
0.851 0.325 0.098 RC
10.0 ML
5.333 LW
N
-8 0 M
8 0 L
S
GR
GS
[0.375 0 0 0.375 284.12984 246.30629] CT
0.851 0.325 0.098 RC
N
f1004432658
f
GR
GS
[0.375 0 0 0.375 284.12984 246.30629] CT
0.851 0.325 0.098 RC
10.0 ML
5.333 LW
N
-8 0 M
8 0 L
S
GR
GS
[0.375 0 0 0.375 295.05038 238.64385] CT
0.851 0.325 0.098 RC
N
f1004432658
f
GR
GS
[0.375 0 0 0.375 295.05038 238.64385] CT
0.851 0.325 0.098 RC
10.0 ML
5.333 LW
N
-8 0 M
8 0 L
S
GR
GS
[0.375 0 0 0.375 305.97089 236.99206] CT
0.851 0.325 0.098 RC
N
f1004432658
f
GR
GS
[0.375 0 0 0.375 305.97089 236.99206] CT
0.851 0.325 0.098 RC
10.0 ML
5.333 LW
N
-8 0 M
8 0 L
S
GR
GS
[0.375 0 0 0.375 316.89143 241.96442] CT
0.851 0.325 0.098 RC
N
f1004432658
f
GR
GS
[0.375 0 0 0.375 316.89143 241.96442] CT
0.851 0.325 0.098 RC
10.0 ML
5.333 LW
N
-8 0 M
8 0 L
S
GR
GS
[0.375 0 0 0.375 327.82821 241.03281] CT
0.851 0.325 0.098 RC
N
f1004432658
f
GR
GS
[0.375 0 0 0.375 327.82821 241.03281] CT
0.851 0.325 0.098 RC
10.0 ML
5.333 LW
N
-8 0 M
8 0 L
S
GR
GS
[0.375 0 0 0.375 338.74876 231.66394] CT
0.851 0.325 0.098 RC
N
f1004432658
f
GR
GS
[0.375 0 0 0.375 338.74876 231.66394] CT
0.851 0.325 0.098 RC
10.0 ML
5.333 LW
N
-8 0 M
8 0 L
S
GR
GS
[0.375 0 0 0.375 349.66928 231.5573] CT
0.851 0.325 0.098 RC
N
f1004432658
f
GR
GS
[0.375 0 0 0.375 349.66928 231.5573] CT
0.851 0.325 0.098 RC
10.0 ML
5.333 LW
N
-8 0 M
8 0 L
S
GR
GS
[0.375 0 0 0.375 360.58981 233.14991] CT
0.851 0.325 0.098 RC
N
f1004432658
f
GR
GS
[0.375 0 0 0.375 360.58981 233.14991] CT
0.851 0.325 0.098 RC
10.0 ML
5.333 LW
N
-8 0 M
8 0 L
S
GR
GS
[0.375 0 0 0.375 371.51033 232.15253] CT
0.851 0.325 0.098 RC
N
f1004432658
f
GR
GS
[0.375 0 0 0.375 371.51033 232.15253] CT
0.851 0.325 0.098 RC
10.0 ML
5.333 LW
N
-8 0 M
8 0 L
S
GR
GS
[0.375 0 0 0.375 54.75 279.20403] CT
0.851 0.325 0.098 RC
N
f1004432658
f
GR
GS
[0.375 0 0 0.375 54.75 279.20403] CT
0.851 0.325 0.098 RC
10.0 ML
5.333 LW
N
-8 0 M
8 0 L
S
GR
GS
[0.375 0 0 0.375 65.67052 271.11932] CT
0.851 0.325 0.098 RC
N
f1004432658
f
GR
GS
[0.375 0 0 0.375 65.67052 271.11932] CT
0.851 0.325 0.098 RC
10.0 ML
5.333 LW
N
-8 0 M
8 0 L
S
GR
GS
[0.375 0 0 0.375 76.59105 264.33309] CT
0.851 0.325 0.098 RC
N
f1004432658
f
GR
GS
[0.375 0 0 0.375 76.59105 264.33309] CT
0.851 0.325 0.098 RC
10.0 ML
5.333 LW
N
-8 0 M
8 0 L
S
GR
GS
[0.375 0 0 0.375 87.51157 258.46337] CT
0.851 0.325 0.098 RC
N
f1004432658
f
GR
GS
[0.375 0 0 0.375 87.51157 258.46337] CT
0.851 0.325 0.098 RC
10.0 ML
5.333 LW
N
-8 0 M
8 0 L
S
GR
GS
[0.375 0 0 0.375 98.44837 252.11705] CT
0.851 0.325 0.098 RC
N
f1004432658
f
GR
GS
[0.375 0 0 0.375 98.44837 252.11705] CT
0.851 0.325 0.098 RC
10.0 ML
5.333 LW
N
-8 0 M
8 0 L
S
GR
GS
[0.375 0 0 0.375 109.3689 248.1438] CT
0.851 0.325 0.098 RC
N
f1004432658
f
GR
GS
[0.375 0 0 0.375 109.3689 248.1438] CT
0.851 0.325 0.098 RC
10.0 ML
5.333 LW
N
-8 0 M
8 0 L
S
GR
GS
[0.375 0 0 0.375 120.28942 250.21859] CT
0.851 0.325 0.098 RC
N
f1004432658
f
GR
GS
[0.375 0 0 0.375 120.28942 250.21859] CT
0.851 0.325 0.098 RC
10.0 ML
5.333 LW
N
-8 0 M
8 0 L
S
GR
GS
[0.375 0 0 0.375 131.20995 247.43658] CT
0.851 0.325 0.098 RC
N
f1004432658
f
GR
GS
[0.375 0 0 0.375 131.20995 247.43658] CT
0.851 0.325 0.098 RC
10.0 ML
5.333 LW
N
-8 0 M
8 0 L
S
GR
GS
[0.375 0 0 0.375 142.13047 248.98258] CT
0.851 0.325 0.098 RC
N
f1004432658
f
GR
GS
[0.375 0 0 0.375 142.13047 248.98258] CT
0.851 0.325 0.098 RC
10.0 ML
5.333 LW
N
-8 0 M
8 0 L
S
GR
GS
[0.375 0 0 0.375 153.05099 247.43127] CT
0.851 0.325 0.098 RC
N
f1004432658
f
GR
GS
[0.375 0 0 0.375 153.05099 247.43127] CT
0.851 0.325 0.098 RC
10.0 ML
5.333 LW
N
-8 0 M
8 0 L
S
GR
GS
[0.375 0 0 0.375 163.97153 241.69599] CT
0.851 0.325 0.098 RC
N
f1004432658
f
GR
GS
[0.375 0 0 0.375 163.97153 241.69599] CT
0.851 0.325 0.098 RC
10.0 ML
5.333 LW
N
-8 0 M
8 0 L
S
GR
GS
[0.375 0 0 0.375 174.90833 240.23662] CT
0.851 0.325 0.098 RC
N
f1004432658
f
GR
GS
[0.375 0 0 0.375 174.90833 240.23662] CT
0.851 0.325 0.098 RC
10.0 ML
5.333 LW
N
-8 0 M
8 0 L
S
GR
GS
[0.375 0 0 0.375 185.82885 233.46201] CT
0.851 0.325 0.098 RC
N
f1004432658
f
GR
GS
[0.375 0 0 0.375 185.82885 233.46201] CT
0.851 0.325 0.098 RC
10.0 ML
5.333 LW
N
-8 0 M
8 0 L
S
GR
GS
[0.375 0 0 0.375 196.74937 231.64176] CT
0.851 0.325 0.098 RC
N
f1004432658
f
GR
GS
[0.375 0 0 0.375 196.74937 231.64176] CT
0.851 0.325 0.098 RC
10.0 ML
5.333 LW
N
-8 0 M
8 0 L
S
GR
GS
[0.375 0 0 0.375 207.66989 235.26601] CT
0.851 0.325 0.098 RC
N
f1004432658
f
GR
GS
[0.375 0 0 0.375 207.66989 235.26601] CT
0.851 0.325 0.098 RC
10.0 ML
5.333 LW
N
-8 0 M
8 0 L
S
GR
GS
[0.375 0 0 0.375 218.59044 235.07728] CT
0.851 0.325 0.098 RC
N
f1004432658
f
GR
GS
[0.375 0 0 0.375 218.59044 235.07728] CT
0.851 0.325 0.098 RC
10.0 ML
5.333 LW
N
-8 0 M
8 0 L
S
GR
GS
[0.375 0 0 0.375 229.51094 238.18105] CT
0.851 0.325 0.098 RC
N
f1004432658
f
GR
GS
[0.375 0 0 0.375 229.51094 238.18105] CT
0.851 0.325 0.098 RC
10.0 ML
5.333 LW
N
-8 0 M
8 0 L
S
GR
GS
[0.375 0 0 0.375 240.43149 237.33069] CT
0.851 0.325 0.098 RC
N
f1004432658
f
GR
GS
[0.375 0 0 0.375 240.43149 237.33069] CT
0.851 0.325 0.098 RC
10.0 ML
5.333 LW
N
-8 0 M
8 0 L
S
GR
GS
[0.375 0 0 0.375 251.36826 229.13361] CT
0.851 0.325 0.098 RC
N
f1004432658
f
GR
GS
[0.375 0 0 0.375 251.36826 229.13361] CT
0.851 0.325 0.098 RC
10.0 ML
5.333 LW
N
-8 0 M
8 0 L
S
GR
GS
[0.375 0 0 0.375 262.28881 228.83984] CT
0.851 0.325 0.098 RC
N
f1004432658
f
GR
GS
[0.375 0 0 0.375 262.28881 228.83984] CT
0.851 0.325 0.098 RC
10.0 ML
5.333 LW
N
-8 0 M
8 0 L
S
GR
GS
[0.375 0 0 0.375 273.20934 231.79143] CT
0.851 0.325 0.098 RC
N
f1004432658
f
GR
GS
[0.375 0 0 0.375 273.20934 231.79143] CT
0.851 0.325 0.098 RC
10.0 ML
5.333 LW
N
-8 0 M
8 0 L
S
GR
GS
[0.375 0 0 0.375 284.12984 231.15898] CT
0.851 0.325 0.098 RC
N
f1004432658
f
GR
GS
[0.375 0 0 0.375 284.12984 231.15898] CT
0.851 0.325 0.098 RC
10.0 ML
5.333 LW
N
-8 0 M
8 0 L
S
GR
GS
[0.375 0 0 0.375 295.05038 226.56351] CT
0.851 0.325 0.098 RC
N
f1004432658
f
GR
GS
[0.375 0 0 0.375 295.05038 226.56351] CT
0.851 0.325 0.098 RC
10.0 ML
5.333 LW
N
-8 0 M
8 0 L
S
GR
GS
[0.375 0 0 0.375 305.97089 225.07626] CT
0.851 0.325 0.098 RC
N
f1004432658
f
GR
GS
[0.375 0 0 0.375 305.97089 225.07626] CT
0.851 0.325 0.098 RC
10.0 ML
5.333 LW
N
-8 0 M
8 0 L
S
GR
GS
[0.375 0 0 0.375 316.89143 230.07053] CT
0.851 0.325 0.098 RC
N
f1004432658
f
GR
GS
[0.375 0 0 0.375 316.89143 230.07053] CT
0.851 0.325 0.098 RC
10.0 ML
5.333 LW
N
-8 0 M
8 0 L
S
GR
GS
[0.375 0 0 0.375 327.82821 229.2637] CT
0.851 0.325 0.098 RC
N
f1004432658
f
GR
GS
[0.375 0 0 0.375 327.82821 229.2637] CT
0.851 0.325 0.098 RC
10.0 ML
5.333 LW
N
-8 0 M
8 0 L
S
GR
GS
[0.375 0 0 0.375 338.74876 221.56036] CT
0.851 0.325 0.098 RC
N
f1004432658
f
GR
GS
[0.375 0 0 0.375 338.74876 221.56036] CT
0.851 0.325 0.098 RC
10.0 ML
5.333 LW
N
-8 0 M
8 0 L
S
GR
GS
[0.375 0 0 0.375 349.66928 221.40669] CT
0.851 0.325 0.098 RC
N
f1004432658
f
GR
GS
[0.375 0 0 0.375 349.66928 221.40669] CT
0.851 0.325 0.098 RC
10.0 ML
5.333 LW
N
-8 0 M
8 0 L
S
GR
GS
[0.375 0 0 0.375 360.58981 223.01342] CT
0.851 0.325 0.098 RC
N
f1004432658
f
GR
GS
[0.375 0 0 0.375 360.58981 223.01342] CT
0.851 0.325 0.098 RC
10.0 ML
5.333 LW
N
-8 0 M
8 0 L
S
GR
GS
[0.375 0 0 0.375 371.51033 222.16397] CT
0.851 0.325 0.098 RC
N
f1004432658
f
GR
GS
[0.375 0 0 0.375 371.51033 222.16397] CT
0.851 0.325 0.098 RC
10.0 ML
5.333 LW
N
-8 0 M
8 0 L
S
GR
GS
[0.375 0 0 0.375 0 0] CT
1 GC
N
/f1511111544{345 147 M
345 76 L
164 76 L
164 147 L
cp}def
f1511111544
f
GR
GS
[0.375 0 0 0.375 96.75 35.8125] CT
/Helvetica 24 F
GS
[1 0 0 1 0 0] CT
0 9.5 moveto 
1 -1 scale
(BFGS) t 
GR
GR
GS
[0.375 0 0 0.375 0 0] CT
0 0.447 0.741 RC
1 LJ
5.333 LW
N
172 95.5 M
252 95.5 L
S
GR
GS
[0.375 0 0 0.375 79.5 40.17188] CT
0 0.447 0.741 RC
N
f1004432658
f
GR
GS
[0.375 0 0 0.375 79.5 40.17188] CT
0 0.447 0.741 RC
10.0 ML
5.333 LW
N
-8 0 M
8 0 L
S
GR
GS
[0.375 0 0 0.375 79.5 31.45313] CT
0 0.447 0.741 RC
N
f1004432658
f
GR
GS
[0.375 0 0 0.375 79.5 31.45313] CT
0 0.447 0.741 RC
10.0 ML
5.333 LW
N
-8 0 M
8 0 L
S
GR
GS
[0.375 0 0 0.375 0 0] CT
0 0.447 0.741 RC
1 LJ
5.333 LW
N
212 107.125 M
212 83.875 L
S
GR
GS
[0.375 0 0 0.375 96.75 47.8125] CT
/Helvetica 24 F
GS
[1 0 0 1 0 0] CT
0 9.5 moveto 
1 -1 scale
(Greedy) t 
GR
GR
GS
[0.375 0 0 0.375 0 0] CT
0.851 0.325 0.098 RC
1 LJ
5.333 LW
N
172 127.5 M
252 127.5 L
S
GR
GS
[0.375 0 0 0.375 79.5 52.17188] CT
0.851 0.325 0.098 RC
N
f1004432658
f
GR
GS
[0.375 0 0 0.375 79.5 52.17188] CT
0.851 0.325 0.098 RC
10.0 ML
5.333 LW
N
-8 0 M
8 0 L
S
GR
GS
[0.375 0 0 0.375 79.5 43.45313] CT
0.851 0.325 0.098 RC
N
f1004432658
f
GR
GS
[0.375 0 0 0.375 79.5 43.45313] CT
0.851 0.325 0.098 RC
10.0 ML
5.333 LW
N
-8 0 M
8 0 L
S
GR
GS
[0.375 0 0 0.375 0 0] CT
0.851 0.325 0.098 RC
1 LJ
5.333 LW
N
212 139.125 M
212 115.875 L
S
GR
GS
[0.375 0 0 0.375 0 0] CT
0.149 GC
10.0 ML
1.333 LW
N
164 147 M
164 76 L
345 76 L
345 147 L
cp
S
GR
%%Trailer
%%Pages: 1
%%EOF
