%!PS-Adobe-3.0 EPSF-3.0
%%Creator: (MATLAB, The Mathworks, Inc. Version 9.7.0.1190202 \(R2019b\). Operating System: Windows 10)
%%Title: ./img/itrsConv_fmincon_greedy.eps
%%CreationDate: 2021-12-16T22:14:17
%%Pages: (atend)
%%BoundingBox:    17     5   389   303
%%LanguageLevel: 3
%%EndComments
%%BeginProlog
%%BeginResource: procset (Apache XML Graphics Std ProcSet) 1.2 0
%%Version: 1.2 0
%%Copyright: (Copyright 2001-2003,2010 The Apache Software Foundation. License terms: http://www.apache.org/licenses/LICENSE-2.0)
/bd{bind def}bind def
/ld{load def}bd
/GR/grestore ld
/GS/gsave ld
/RM/rmoveto ld
/C/curveto ld
/t/show ld
/L/lineto ld
/ML/setmiterlimit ld
/CT/concat ld
/f/fill ld
/N/newpath ld
/S/stroke ld
/CC/setcmykcolor ld
/A/ashow ld
/cp/closepath ld
/RC/setrgbcolor ld
/LJ/setlinejoin ld
/GC/setgray ld
/LW/setlinewidth ld
/M/moveto ld
/re {4 2 roll M
1 index 0 rlineto
0 exch rlineto
neg 0 rlineto
cp } bd
/_ctm matrix def
/_tm matrix def
/BT { _ctm currentmatrix pop matrix _tm copy pop 0 0 moveto } bd
/ET { _ctm setmatrix } bd
/iTm { _ctm setmatrix _tm concat } bd
/Tm { _tm astore pop iTm 0 0 moveto } bd
/ux 0.0 def
/uy 0.0 def
/F {
  /Tp exch def
  /Tf exch def
  Tf findfont Tp scalefont setfont
  /cf Tf def  /cs Tp def
} bd
/ULS {currentpoint /uy exch def /ux exch def} bd
/ULE {
  /Tcx currentpoint pop def
  gsave
  newpath
  cf findfont cs scalefont dup
  /FontMatrix get 0 get /Ts exch def /FontInfo get dup
  /UnderlinePosition get Ts mul /To exch def
  /UnderlineThickness get Ts mul /Tt exch def
  ux uy To add moveto  Tcx uy To add lineto
  Tt setlinewidth stroke
  grestore
} bd
/OLE {
  /Tcx currentpoint pop def
  gsave
  newpath
  cf findfont cs scalefont dup
  /FontMatrix get 0 get /Ts exch def /FontInfo get dup
  /UnderlinePosition get Ts mul /To exch def
  /UnderlineThickness get Ts mul /Tt exch def
  ux uy To add cs add moveto Tcx uy To add cs add lineto
  Tt setlinewidth stroke
  grestore
} bd
/SOE {
  /Tcx currentpoint pop def
  gsave
  newpath
  cf findfont cs scalefont dup
  /FontMatrix get 0 get /Ts exch def /FontInfo get dup
  /UnderlinePosition get Ts mul /To exch def
  /UnderlineThickness get Ts mul /Tt exch def
  ux uy To add cs 10 mul 26 idiv add moveto Tcx uy To add cs 10 mul 26 idiv add lineto
  Tt setlinewidth stroke
  grestore
} bd
/QT {
/Y22 exch store
/X22 exch store
/Y21 exch store
/X21 exch store
currentpoint
/Y21 load 2 mul add 3 div exch
/X21 load 2 mul add 3 div exch
/X21 load 2 mul /X22 load add 3 div
/Y21 load 2 mul /Y22 load add 3 div
/X22 load /Y22 load curveto
} bd
/SSPD {
dup length /d exch dict def
{
/v exch def
/k exch def
currentpagedevice k known {
/cpdv currentpagedevice k get def
v cpdv ne {
/upd false def
/nullv v type /nulltype eq def
/nullcpdv cpdv type /nulltype eq def
nullv nullcpdv or
{
/upd true def
} {
/sametype v type cpdv type eq def
sametype {
v type /arraytype eq {
/vlen v length def
/cpdvlen cpdv length def
vlen cpdvlen eq {
0 1 vlen 1 sub {
/i exch def
/obj v i get def
/cpdobj cpdv i get def
obj cpdobj ne {
/upd true def
exit
} if
} for
} {
/upd true def
} ifelse
} {
v type /dicttype eq {
v {
/dv exch def
/dk exch def
/cpddv cpdv dk get def
dv cpddv ne {
/upd true def
exit
} if
} forall
} {
/upd true def
} ifelse
} ifelse
} if
} ifelse
upd true eq {
d k v put
} if
} if
} if
} forall
d length 0 gt {
d setpagedevice
} if
} bd
/RE { % /NewFontName [NewEncodingArray] /FontName RE -
  findfont dup length dict begin
  {
    1 index /FID ne
    {def} {pop pop} ifelse
  } forall
  /Encoding exch def
  /FontName 1 index def
  currentdict definefont pop
  end
} bind def
%%EndResource
%%BeginResource: procset (Apache XML Graphics EPS ProcSet) 1.0 0
%%Version: 1.0 0
%%Copyright: (Copyright 2002-2003 The Apache Software Foundation. License terms: http://www.apache.org/licenses/LICENSE-2.0)
/BeginEPSF { %def
/b4_Inc_state save def         % Save state for cleanup
/dict_count countdictstack def % Count objects on dict stack
/op_count count 1 sub def      % Count objects on operand stack
userdict begin                 % Push userdict on dict stack
/showpage { } def              % Redefine showpage, { } = null proc
0 setgray 0 setlinecap         % Prepare graphics state
1 setlinewidth 0 setlinejoin
10 setmiterlimit [ ] 0 setdash newpath
/languagelevel where           % If level not equal to 1 then
{pop languagelevel             % set strokeadjust and
1 ne                           % overprint to their defaults.
{false setstrokeadjust false setoverprint
} if
} if
} bd
/EndEPSF { %def
count op_count sub {pop} repeat            % Clean up stacks
countdictstack dict_count sub {end} repeat
b4_Inc_state restore
} bd
%%EndResource
%FOPBeginFontDict
%%IncludeResource: font Courier-Oblique
%%IncludeResource: font Courier-BoldOblique
%%IncludeResource: font Courier-Bold
%%IncludeResource: font ZapfDingbats
%%IncludeResource: font Symbol
%%IncludeResource: font Helvetica
%%IncludeResource: font Helvetica-Oblique
%%IncludeResource: font Helvetica-Bold
%%IncludeResource: font Helvetica-BoldOblique
%%IncludeResource: font Times-Roman
%%IncludeResource: font Times-Italic
%%IncludeResource: font Times-Bold
%%IncludeResource: font Times-BoldItalic
%%IncludeResource: font Courier
%FOPEndFontDict
%%BeginResource: encoding WinAnsiEncoding
/WinAnsiEncoding [
/.notdef /.notdef /.notdef /.notdef /.notdef
/.notdef /.notdef /.notdef /.notdef /.notdef
/.notdef /.notdef /.notdef /.notdef /.notdef
/.notdef /.notdef /.notdef /.notdef /.notdef
/.notdef /.notdef /.notdef /.notdef /.notdef
/.notdef /.notdef /.notdef /.notdef /.notdef
/.notdef /.notdef /space /exclam /quotedbl
/numbersign /dollar /percent /ampersand /quotesingle
/parenleft /parenright /asterisk /plus /comma
/hyphen /period /slash /zero /one
/two /three /four /five /six
/seven /eight /nine /colon /semicolon
/less /equal /greater /question /at
/A /B /C /D /E
/F /G /H /I /J
/K /L /M /N /O
/P /Q /R /S /T
/U /V /W /X /Y
/Z /bracketleft /backslash /bracketright /asciicircum
/underscore /quoteleft /a /b /c
/d /e /f /g /h
/i /j /k /l /m
/n /o /p /q /r
/s /t /u /v /w
/x /y /z /braceleft /bar
/braceright /asciitilde /bullet /Euro /bullet
/quotesinglbase /florin /quotedblbase /ellipsis /dagger
/daggerdbl /circumflex /perthousand /Scaron /guilsinglleft
/OE /bullet /Zcaron /bullet /bullet
/quoteleft /quoteright /quotedblleft /quotedblright /bullet
/endash /emdash /asciitilde /trademark /scaron
/guilsinglright /oe /bullet /zcaron /Ydieresis
/space /exclamdown /cent /sterling /currency
/yen /brokenbar /section /dieresis /copyright
/ordfeminine /guillemotleft /logicalnot /sfthyphen /registered
/macron /degree /plusminus /twosuperior /threesuperior
/acute /mu /paragraph /middot /cedilla
/onesuperior /ordmasculine /guillemotright /onequarter /onehalf
/threequarters /questiondown /Agrave /Aacute /Acircumflex
/Atilde /Adieresis /Aring /AE /Ccedilla
/Egrave /Eacute /Ecircumflex /Edieresis /Igrave
/Iacute /Icircumflex /Idieresis /Eth /Ntilde
/Ograve /Oacute /Ocircumflex /Otilde /Odieresis
/multiply /Oslash /Ugrave /Uacute /Ucircumflex
/Udieresis /Yacute /Thorn /germandbls /agrave
/aacute /acircumflex /atilde /adieresis /aring
/ae /ccedilla /egrave /eacute /ecircumflex
/edieresis /igrave /iacute /icircumflex /idieresis
/eth /ntilde /ograve /oacute /ocircumflex
/otilde /odieresis /divide /oslash /ugrave
/uacute /ucircumflex /udieresis /yacute /thorn
/ydieresis
] def
%%EndResource
%FOPBeginFontReencode
/Courier-Oblique findfont
dup length dict begin
  {1 index /FID ne {def} {pop pop} ifelse} forall
  /Encoding WinAnsiEncoding def
  currentdict
end
/Courier-Oblique exch definefont pop
/Courier-BoldOblique findfont
dup length dict begin
  {1 index /FID ne {def} {pop pop} ifelse} forall
  /Encoding WinAnsiEncoding def
  currentdict
end
/Courier-BoldOblique exch definefont pop
/Courier-Bold findfont
dup length dict begin
  {1 index /FID ne {def} {pop pop} ifelse} forall
  /Encoding WinAnsiEncoding def
  currentdict
end
/Courier-Bold exch definefont pop
/Helvetica findfont
dup length dict begin
  {1 index /FID ne {def} {pop pop} ifelse} forall
  /Encoding WinAnsiEncoding def
  currentdict
end
/Helvetica exch definefont pop
/Helvetica-Oblique findfont
dup length dict begin
  {1 index /FID ne {def} {pop pop} ifelse} forall
  /Encoding WinAnsiEncoding def
  currentdict
end
/Helvetica-Oblique exch definefont pop
/Helvetica-Bold findfont
dup length dict begin
  {1 index /FID ne {def} {pop pop} ifelse} forall
  /Encoding WinAnsiEncoding def
  currentdict
end
/Helvetica-Bold exch definefont pop
/Helvetica-BoldOblique findfont
dup length dict begin
  {1 index /FID ne {def} {pop pop} ifelse} forall
  /Encoding WinAnsiEncoding def
  currentdict
end
/Helvetica-BoldOblique exch definefont pop
/Times-Roman findfont
dup length dict begin
  {1 index /FID ne {def} {pop pop} ifelse} forall
  /Encoding WinAnsiEncoding def
  currentdict
end
/Times-Roman exch definefont pop
/Times-Italic findfont
dup length dict begin
  {1 index /FID ne {def} {pop pop} ifelse} forall
  /Encoding WinAnsiEncoding def
  currentdict
end
/Times-Italic exch definefont pop
/Times-Bold findfont
dup length dict begin
  {1 index /FID ne {def} {pop pop} ifelse} forall
  /Encoding WinAnsiEncoding def
  currentdict
end
/Times-Bold exch definefont pop
/Times-BoldItalic findfont
dup length dict begin
  {1 index /FID ne {def} {pop pop} ifelse} forall
  /Encoding WinAnsiEncoding def
  currentdict
end
/Times-BoldItalic exch definefont pop
/Courier findfont
dup length dict begin
  {1 index /FID ne {def} {pop pop} ifelse} forall
  /Encoding WinAnsiEncoding def
  currentdict
end
/Courier exch definefont pop
%FOPEndFontReencode
%%EndProlog
%%Page: 1 1
%%PageBoundingBox: 0 0 420 315
%%BeginPageSetup
[1 0 0 -1 0 315] CT
%%EndPageSetup
GS
[0.375 0 0 0.375 0 0] CT
1 GC
N
0 0 1120 840 re
f
GR
GS
[0.375 0 0 0.375 0 0] CT
1 GC
N
0 0 1120 840 re
f
GR
GS
[0.375 0 0 0.375 0 0] CT
1 GC
N
146 748 M
1014 748 L
1014 63 L
146 63 L
cp
f
GR
GS
[0.375 0 0 0.375 0 0] CT
0.873 GC
1 LJ
1.333 LW
N
146 748 M
146 63 L
S
GR
GS
[0.375 0 0 0.375 0 0] CT
0.873 GC
1 LJ
1.333 LW
N
319.6 748 M
319.6 63 L
S
GR
GS
[0.375 0 0 0.375 0 0] CT
0.873 GC
1 LJ
1.333 LW
N
493.2 748 M
493.2 63 L
S
GR
GS
[0.375 0 0 0.375 0 0] CT
0.873 GC
1 LJ
1.333 LW
N
666.8 748 M
666.8 63 L
S
GR
GS
[0.375 0 0 0.375 0 0] CT
0.873 GC
1 LJ
1.333 LW
N
840.4 748 M
840.4 63 L
S
GR
GS
[0.375 0 0 0.375 0 0] CT
0.873 GC
1 LJ
1.333 LW
N
1014 748 M
1014 63 L
S
GR
GS
[0.375 0 0 0.375 0 0] CT
0.873 GC
1 LJ
1.333 LW
N
1014 748 M
146 748 L
S
GR
GS
[0.375 0 0 0.375 0 0] CT
0.873 GC
1 LJ
1.333 LW
N
1014 650.143 M
146 650.143 L
S
GR
GS
[0.375 0 0 0.375 0 0] CT
0.873 GC
1 LJ
1.333 LW
N
1014 552.286 M
146 552.286 L
S
GR
GS
[0.375 0 0 0.375 0 0] CT
0.873 GC
1 LJ
1.333 LW
N
1014 454.429 M
146 454.429 L
S
GR
GS
[0.375 0 0 0.375 0 0] CT
0.873 GC
1 LJ
1.333 LW
N
1014 356.571 M
146 356.571 L
S
GR
GS
[0.375 0 0 0.375 0 0] CT
0.873 GC
1 LJ
1.333 LW
N
1014 258.714 M
146 258.714 L
S
GR
GS
[0.375 0 0 0.375 0 0] CT
0.873 GC
1 LJ
1.333 LW
N
1014 160.857 M
146 160.857 L
S
GR
GS
[0.375 0 0 0.375 0 0] CT
0.873 GC
1 LJ
1.333 LW
N
1014 63 M
146 63 L
S
GR
GS
[0.375 0 0 0.375 0 0] CT
0.149 GC
2 setlinecap
1 LJ
1.333 LW
N
146 748 M
1014 748 L
S
GR
GS
[0.375 0 0 0.375 0 0] CT
0.149 GC
2 setlinecap
1 LJ
1.333 LW
N
146 63 M
1014 63 L
S
GR
GS
[0.375 0 0 0.375 0 0] CT
0.149 GC
2 setlinecap
1 LJ
1.333 LW
N
146 748 M
146 739.32 L
S
GR
GS
[0.375 0 0 0.375 0 0] CT
0.149 GC
2 setlinecap
1 LJ
1.333 LW
N
319.6 748 M
319.6 739.32 L
S
GR
GS
[0.375 0 0 0.375 0 0] CT
0.149 GC
2 setlinecap
1 LJ
1.333 LW
N
493.2 748 M
493.2 739.32 L
S
GR
GS
[0.375 0 0 0.375 0 0] CT
0.149 GC
2 setlinecap
1 LJ
1.333 LW
N
666.8 748 M
666.8 739.32 L
S
GR
GS
[0.375 0 0 0.375 0 0] CT
0.149 GC
2 setlinecap
1 LJ
1.333 LW
N
840.4 748 M
840.4 739.32 L
S
GR
GS
[0.375 0 0 0.375 0 0] CT
0.149 GC
2 setlinecap
1 LJ
1.333 LW
N
1014 748 M
1014 739.32 L
S
GR
GS
[0.375 0 0 0.375 0 0] CT
0.149 GC
2 setlinecap
1 LJ
1.333 LW
N
146 63 M
146 71.68 L
S
GR
GS
[0.375 0 0 0.375 0 0] CT
0.149 GC
2 setlinecap
1 LJ
1.333 LW
N
319.6 63 M
319.6 71.68 L
S
GR
GS
[0.375 0 0 0.375 0 0] CT
0.149 GC
2 setlinecap
1 LJ
1.333 LW
N
493.2 63 M
493.2 71.68 L
S
GR
GS
[0.375 0 0 0.375 0 0] CT
0.149 GC
2 setlinecap
1 LJ
1.333 LW
N
666.8 63 M
666.8 71.68 L
S
GR
GS
[0.375 0 0 0.375 0 0] CT
0.149 GC
2 setlinecap
1 LJ
1.333 LW
N
840.4 63 M
840.4 71.68 L
S
GR
GS
[0.375 0 0 0.375 0 0] CT
0.149 GC
2 setlinecap
1 LJ
1.333 LW
N
1014 63 M
1014 71.68 L
S
GR
GS
[0.375 0 0 0.375 54.75 284.50001] CT
0.149 GC
/Helvetica 26.667 F
GS
[1 0 0 1 0 0] CT
-7.5 27 moveto 
1 -1 scale
(0) t 
GR
GR
GS
[0.375 0 0 0.375 119.85 284.50001] CT
0.149 GC
/Helvetica 26.667 F
GS
[1 0 0 1 0 0] CT
-15 27 moveto 
1 -1 scale
(50) t 
GR
GR
GS
[0.375 0 0 0.375 184.95 284.50001] CT
0.149 GC
/Helvetica 26.667 F
GS
[1 0 0 1 0 0] CT
-22.5 27 moveto 
1 -1 scale
(100) t 
GR
GR
GS
[0.375 0 0 0.375 250.05 284.50001] CT
0.149 GC
/Helvetica 26.667 F
GS
[1 0 0 1 0 0] CT
-22.5 27 moveto 
1 -1 scale
(150) t 
GR
GR
GS
[0.375 0 0 0.375 315.15001 284.50001] CT
0.149 GC
/Helvetica 26.667 F
GS
[1 0 0 1 0 0] CT
-22.5 27 moveto 
1 -1 scale
(200) t 
GR
GR
GS
[0.375 0 0 0.375 380.25 284.50001] CT
0.149 GC
/Helvetica 26.667 F
GS
[1 0 0 1 0 0] CT
-22.5 27 moveto 
1 -1 scale
(250) t 
GR
GR
GS
[0.375 0 0 0.375 217.50016 297.87499] CT
0.149 GC
/Helvetica 29.333 F
GS
[1 0 0 1 0 0] CT
-88 30 moveto 
1 -1 scale
(# of iterations) t 
GR
GR
GS
[0.375 0 0 0.375 0 0] CT
0.149 GC
2 setlinecap
1 LJ
1.333 LW
N
146 748 M
146 63 L
S
GR
GS
[0.375 0 0 0.375 0 0] CT
0.149 GC
2 setlinecap
1 LJ
1.333 LW
N
1014 748 M
1014 63 L
S
GR
GS
[0.375 0 0 0.375 0 0] CT
0.149 GC
2 setlinecap
1 LJ
1.333 LW
N
146 748 M
154.68 748 L
S
GR
GS
[0.375 0 0 0.375 0 0] CT
0.149 GC
2 setlinecap
1 LJ
1.333 LW
N
146 650.143 M
154.68 650.143 L
S
GR
GS
[0.375 0 0 0.375 0 0] CT
0.149 GC
2 setlinecap
1 LJ
1.333 LW
N
146 552.286 M
154.68 552.286 L
S
GR
GS
[0.375 0 0 0.375 0 0] CT
0.149 GC
2 setlinecap
1 LJ
1.333 LW
N
146 454.429 M
154.68 454.429 L
S
GR
GS
[0.375 0 0 0.375 0 0] CT
0.149 GC
2 setlinecap
1 LJ
1.333 LW
N
146 356.571 M
154.68 356.571 L
S
GR
GS
[0.375 0 0 0.375 0 0] CT
0.149 GC
2 setlinecap
1 LJ
1.333 LW
N
146 258.714 M
154.68 258.714 L
S
GR
GS
[0.375 0 0 0.375 0 0] CT
0.149 GC
2 setlinecap
1 LJ
1.333 LW
N
146 160.857 M
154.68 160.857 L
S
GR
GS
[0.375 0 0 0.375 0 0] CT
0.149 GC
2 setlinecap
1 LJ
1.333 LW
N
146 63 M
154.68 63 L
S
GR
GS
[0.375 0 0 0.375 0 0] CT
0.149 GC
2 setlinecap
1 LJ
1.333 LW
N
1014 748 M
1005.32 748 L
S
GR
GS
[0.375 0 0 0.375 0 0] CT
0.149 GC
2 setlinecap
1 LJ
1.333 LW
N
1014 650.143 M
1005.32 650.143 L
S
GR
GS
[0.375 0 0 0.375 0 0] CT
0.149 GC
2 setlinecap
1 LJ
1.333 LW
N
1014 552.286 M
1005.32 552.286 L
S
GR
GS
[0.375 0 0 0.375 0 0] CT
0.149 GC
2 setlinecap
1 LJ
1.333 LW
N
1014 454.429 M
1005.32 454.429 L
S
GR
GS
[0.375 0 0 0.375 0 0] CT
0.149 GC
2 setlinecap
1 LJ
1.333 LW
N
1014 356.571 M
1005.32 356.571 L
S
GR
GS
[0.375 0 0 0.375 0 0] CT
0.149 GC
2 setlinecap
1 LJ
1.333 LW
N
1014 258.714 M
1005.32 258.714 L
S
GR
GS
[0.375 0 0 0.375 0 0] CT
0.149 GC
2 setlinecap
1 LJ
1.333 LW
N
1014 160.857 M
1005.32 160.857 L
S
GR
GS
[0.375 0 0 0.375 0 0] CT
0.149 GC
2 setlinecap
1 LJ
1.333 LW
N
1014 63 M
1005.32 63 L
S
GR
GS
[0.375 0 0 0.375 50.75 280.5] CT
0.149 GC
/Helvetica 26.667 F
GS
[1 0 0 1 0 0] CT
-15 10.5 moveto 
1 -1 scale
(0) t 
GR
GR
GS
[0.375 0 0 0.375 50.75 243.80358] CT
0.149 GC
/Helvetica 26.667 F
GS
[1 0 0 1 0 0] CT
-52 10.5 moveto 
1 -1 scale
(0.05) t 
GR
GR
GS
[0.375 0 0 0.375 50.75 207.10714] CT
0.149 GC
/Helvetica 26.667 F
GS
[1 0 0 1 0 0] CT
-38 10.5 moveto 
1 -1 scale
(0.1) t 
GR
GR
GS
[0.375 0 0 0.375 50.75 170.41071] CT
0.149 GC
/Helvetica 26.667 F
GS
[1 0 0 1 0 0] CT
-52 10.5 moveto 
1 -1 scale
(0.15) t 
GR
GR
GS
[0.375 0 0 0.375 50.75 133.71428] CT
0.149 GC
/Helvetica 26.667 F
GS
[1 0 0 1 0 0] CT
-38 10.5 moveto 
1 -1 scale
(0.2) t 
GR
GR
GS
[0.375 0 0 0.375 50.75 97.01786] CT
0.149 GC
/Helvetica 26.667 F
GS
[1 0 0 1 0 0] CT
-52 10.5 moveto 
1 -1 scale
(0.25) t 
GR
GR
GS
[0.375 0 0 0.375 50.75 60.32142] CT
0.149 GC
/Helvetica 26.667 F
GS
[1 0 0 1 0 0] CT
-38 10.5 moveto 
1 -1 scale
(0.3) t 
GR
GR
GS
[0.375 0 0 0.375 50.75 23.625] CT
0.149 GC
/Helvetica 26.667 F
GS
[1 0 0 1 0 0] CT
-52 10.5 moveto 
1 -1 scale
(0.35) t 
GR
GR
GS
[0 -0.375 0.375 0 28.25 152.06239] CT
0.149 GC
/Helvetica 29.333 F
GS
[1 0 0 1 0 0] CT
-64.5 -7 moveto 
1 -1 scale
(% of trials) t 
GR
GR
GS
[0.375 0 0 0.375 217.50021 22.59375] CT
/Helvetica-Bold 29.333 F
GS
[1 0 0 1 0 0] CT
-226 -7 moveto 
1 -1 scale
(# of iterations until convergence) t 
GR
GR
GS
[0.375 0 0 0.375 0 0] CT
0 0.447 0.741 RC
1 LJ
5.333 LW
N
163.36 697.338 M
198.08 626.234 L
232.8 589.793 L
267.52 554.241 L
302.24 553.352 L
336.96 537.354 L
371.68 557.796 L
406.4 594.237 L
441.12 617.346 L
475.84 629.789 L
510.56 654.676 L
545.28 692.005 L
580 691.117 L
614.72 709.781 L
649.44 704.449 L
684.16 720.447 L
718.88 734.668 L
753.6 726.669 L
788.32 732.89 L
823.04 735.557 L
857.76 740.89 L
892.48 740.001 L
927.2 739.112 L
961.92 746.222 L
996.64 741.778 L
1014.103 743.567 L
S
GR
GS
[0.375 0 0 0.375 61.26 261.50185] CT
0 0.447 0.741 RC
N
5.867 0 M
5.867 -3.24 3.24 -5.867 0 -5.867 C
-3.24 -5.867 -5.867 -3.24 -5.867 0 C
-5.867 3.24 -3.24 5.867 0 5.867 C
3.24 5.867 5.867 3.24 5.867 0 C
cp
f
GR
GS
[0.375 0 0 0.375 61.26 261.50185] CT
0 0.447 0.741 RC
N
0 -3.2 M
1.767 -3.2 3.2 -1.767 3.2 0 C
3.2 0 L
3.2 1.767 1.767 3.2 0 3.2 C
-1.767 3.2 -3.2 1.767 -3.2 0 C
-3.2 -1.767 -1.767 -3.2 0 -3.2 C
cp
0 -8.533 M
-4.713 -8.533 -8.533 -4.713 -8.533 0 C
-8.533 4.713 -4.713 8.533 0 8.533 C
4.713 8.533 8.533 4.713 8.533 0 C
8.533 0 L
8.533 -4.713 4.713 -8.533 0 -8.533 C
cp
f
GR
GS
[0.375 0 0 0.375 74.28 234.83778] CT
0 0.447 0.741 RC
N
/f-819729944{5.867 0 M
5.867 -3.24 3.24 -5.867 0 -5.867 C
-3.24 -5.867 -5.867 -3.24 -5.867 0 C
-5.867 3.24 -3.24 5.867 0 5.867 C
3.24 5.867 5.867 3.24 5.867 0 C
cp}def
f-819729944
f
GR
GS
[0.375 0 0 0.375 74.28 234.83778] CT
0 0.447 0.741 RC
N
/f-1393287722{0 -3.2 M
1.767 -3.2 3.2 -1.767 3.2 0 C
3.2 0 L
3.2 1.767 1.767 3.2 0 3.2 C
-1.767 3.2 -3.2 1.767 -3.2 0 C
-3.2 -1.767 -1.767 -3.2 0 -3.2 C
cp
0 -8.533 M
-4.713 -8.533 -8.533 -4.713 -8.533 0 C
-8.533 4.713 -4.713 8.533 0 8.533 C
4.713 8.533 8.533 4.713 8.533 0 C
8.533 0 L
8.533 -4.713 4.713 -8.533 0 -8.533 C
cp}def
f-1393287722
f
GR
GS
[0.375 0 0 0.375 87.3 221.17243] CT
0 0.447 0.741 RC
N
f-819729944
f
GR
GS
[0.375 0 0 0.375 87.3 221.17243] CT
0 0.447 0.741 RC
N
f-1393287722
f
GR
GS
[0.375 0 0 0.375 100.32 207.84041] CT
0 0.447 0.741 RC
N
f-819729944
f
GR
GS
[0.375 0 0 0.375 100.32 207.84041] CT
0 0.447 0.741 RC
N
f-1393287722
f
GR
GS
[0.375 0 0 0.375 113.34 207.50711] CT
0 0.447 0.741 RC
N
f-819729944
f
GR
GS
[0.375 0 0 0.375 113.34 207.50711] CT
0 0.447 0.741 RC
N
f-1393287722
f
GR
GS
[0.375 0 0 0.375 126.36 201.50768] CT
0 0.447 0.741 RC
N
f-819729944
f
GR
GS
[0.375 0 0 0.375 126.36 201.50768] CT
0 0.447 0.741 RC
N
f-1393287722
f
GR
GS
[0.375 0 0 0.375 139.38 209.1736] CT
0 0.447 0.741 RC
N
f-819729944
f
GR
GS
[0.375 0 0 0.375 139.38 209.1736] CT
0 0.447 0.741 RC
N
f-1393287722
f
GR
GS
[0.375 0 0 0.375 152.4 222.83894] CT
0 0.447 0.741 RC
N
f-819729944
f
GR
GS
[0.375 0 0 0.375 152.4 222.83894] CT
0 0.447 0.741 RC
N
f-1393287722
f
GR
GS
[0.375 0 0 0.375 165.42 231.50478] CT
0 0.447 0.741 RC
N
f-819729944
f
GR
GS
[0.375 0 0 0.375 165.42 231.50478] CT
0 0.447 0.741 RC
N
f-1393287722
f
GR
GS
[0.375 0 0 0.375 178.44 236.17099] CT
0 0.447 0.741 RC
N
f-819729944
f
GR
GS
[0.375 0 0 0.375 178.44 236.17099] CT
0 0.447 0.741 RC
N
f-1393287722
f
GR
GS
[0.375 0 0 0.375 191.46 245.5034] CT
0 0.447 0.741 RC
N
f-819729944
f
GR
GS
[0.375 0 0 0.375 191.46 245.5034] CT
0 0.447 0.741 RC
N
f-1393287722
f
GR
GS
[0.375 0 0 0.375 204.48001 259.50204] CT
0 0.447 0.741 RC
N
f-819729944
f
GR
GS
[0.375 0 0 0.375 204.48001 259.50204] CT
0 0.447 0.741 RC
N
f-1393287722
f
GR
GS
[0.375 0 0 0.375 217.5 259.16874] CT
0 0.447 0.741 RC
N
f-819729944
f
GR
GS
[0.375 0 0 0.375 217.5 259.16874] CT
0 0.447 0.741 RC
N
f-1393287722
f
GR
GS
[0.375 0 0 0.375 230.51999 266.16806] CT
0 0.447 0.741 RC
N
f-819729944
f
GR
GS
[0.375 0 0 0.375 230.51999 266.16806] CT
0 0.447 0.741 RC
N
f-1393287722
f
GR
GS
[0.375 0 0 0.375 243.54 264.16825] CT
0 0.447 0.741 RC
N
f-819729944
f
GR
GS
[0.375 0 0 0.375 243.54 264.16825] CT
0 0.447 0.741 RC
N
f-1393287722
f
GR
GS
[0.375 0 0 0.375 256.55999 270.16768] CT
0 0.447 0.741 RC
N
f-819729944
f
GR
GS
[0.375 0 0 0.375 256.55999 270.16768] CT
0 0.447 0.741 RC
N
f-1393287722
f
GR
GS
[0.375 0 0 0.375 269.58 275.50049] CT
0 0.447 0.741 RC
N
f-819729944
f
GR
GS
[0.375 0 0 0.375 269.58 275.50049] CT
0 0.447 0.741 RC
N
f-1393287722
f
GR
GS
[0.375 0 0 0.375 282.59999 272.50079] CT
0 0.447 0.741 RC
N
f-819729944
f
GR
GS
[0.375 0 0 0.375 282.59999 272.50079] CT
0 0.447 0.741 RC
N
f-1393287722
f
GR
GS
[0.375 0 0 0.375 295.62 274.83389] CT
0 0.447 0.741 RC
N
f-819729944
f
GR
GS
[0.375 0 0 0.375 295.62 274.83389] CT
0 0.447 0.741 RC
N
f-1393287722
f
GR
GS
[0.375 0 0 0.375 308.63999 275.83379] CT
0 0.447 0.741 RC
N
f-819729944
f
GR
GS
[0.375 0 0 0.375 308.63999 275.83379] CT
0 0.447 0.741 RC
N
f-1393287722
f
GR
GS
[0.375 0 0 0.375 321.66 277.8336] CT
0 0.447 0.741 RC
N
f-819729944
f
GR
GS
[0.375 0 0 0.375 321.66 277.8336] CT
0 0.447 0.741 RC
N
f-1393287722
f
GR
GS
[0.375 0 0 0.375 334.67999 277.5003] CT
0 0.447 0.741 RC
N
f-819729944
f
GR
GS
[0.375 0 0 0.375 334.67999 277.5003] CT
0 0.447 0.741 RC
N
f-1393287722
f
GR
GS
[0.375 0 0 0.375 347.7 277.167] CT
0 0.447 0.741 RC
N
f-819729944
f
GR
GS
[0.375 0 0 0.375 347.7 277.167] CT
0 0.447 0.741 RC
N
f-1393287722
f
GR
GS
[0.375 0 0 0.375 360.71999 279.8334] CT
0 0.447 0.741 RC
N
f-819729944
f
GR
GS
[0.375 0 0 0.375 360.71999 279.8334] CT
0 0.447 0.741 RC
N
f-1393287722
f
GR
GS
[0.375 0 0 0.375 373.74001 278.16689] CT
0 0.447 0.741 RC
N
f-819729944
f
GR
GS
[0.375 0 0 0.375 373.74001 278.16689] CT
0 0.447 0.741 RC
N
f-1393287722
f
GR
GS
[0.375 0 0 0.375 0 0] CT
0.851 0.325 0.098 RC
1 LJ
5.333 LW
N
166.832 150.226 M
170.304 425.586 L
173.776 443.885 L
177.248 531.895 L
180.72 551.937 L
184.192 596.378 L
187.664 665.218 L
191.136 703.559 L
194.608 728.829 L
198.08 729.701 L
201.552 745.386 L
205.024 748 L
208.496 746.257 L
S
GR
GS
[0.375 0 0 0.375 62.562 56.33482] CT
0.851 0.325 0.098 RC
N
f-819729944
f
GR
GS
[0.375 0 0 0.375 62.562 56.33482] CT
0.851 0.325 0.098 RC
N
f-1393287722
f
GR
GS
[0.375 0 0 0.375 63.864 159.59458] CT
0.851 0.325 0.098 RC
N
f-819729944
f
GR
GS
[0.375 0 0 0.375 63.864 159.59458] CT
0.851 0.325 0.098 RC
N
f-1393287722
f
GR
GS
[0.375 0 0 0.375 65.166 166.45678] CT
0.851 0.325 0.098 RC
N
f-819729944
f
GR
GS
[0.375 0 0 0.375 65.166 166.45678] CT
0.851 0.325 0.098 RC
N
f-1393287722
f
GR
GS
[0.375 0 0 0.375 66.468 199.4607] CT
0.851 0.325 0.098 RC
N
f-819729944
f
GR
GS
[0.375 0 0 0.375 66.468 199.4607] CT
0.851 0.325 0.098 RC
N
f-1393287722
f
GR
GS
[0.375 0 0 0.375 67.77 206.97643] CT
0.851 0.325 0.098 RC
N
f-819729944
f
GR
GS
[0.375 0 0 0.375 67.77 206.97643] CT
0.851 0.325 0.098 RC
N
f-1393287722
f
GR
GS
[0.375 0 0 0.375 69.072 223.64177] CT
0.851 0.325 0.098 RC
N
f-819729944
f
GR
GS
[0.375 0 0 0.375 69.072 223.64177] CT
0.851 0.325 0.098 RC
N
f-1393287722
f
GR
GS
[0.375 0 0 0.375 70.374 249.45671] CT
0.851 0.325 0.098 RC
N
f-819729944
f
GR
GS
[0.375 0 0 0.375 70.374 249.45671] CT
0.851 0.325 0.098 RC
N
f-1393287722
f
GR
GS
[0.375 0 0 0.375 71.676 263.83466] CT
0.851 0.325 0.098 RC
N
f-819729944
f
GR
GS
[0.375 0 0 0.375 71.676 263.83466] CT
0.851 0.325 0.098 RC
N
f-1393287722
f
GR
GS
[0.375 0 0 0.375 72.978 273.31103] CT
0.851 0.325 0.098 RC
N
f-819729944
f
GR
GS
[0.375 0 0 0.375 72.978 273.31103] CT
0.851 0.325 0.098 RC
N
f-1393287722
f
GR
GS
[0.375 0 0 0.375 74.28 273.6378] CT
0.851 0.325 0.098 RC
N
f-819729944
f
GR
GS
[0.375 0 0 0.375 74.28 273.6378] CT
0.851 0.325 0.098 RC
N
f-1393287722
f
GR
GS
[0.375 0 0 0.375 75.582 279.51968] CT
0.851 0.325 0.098 RC
N
f-819729944
f
GR
GS
[0.375 0 0 0.375 75.582 279.51968] CT
0.851 0.325 0.098 RC
N
f-1393287722
f
GR
GS
[0.375 0 0 0.375 76.884 280.5] CT
0.851 0.325 0.098 RC
N
f-819729944
f
GR
GS
[0.375 0 0 0.375 76.884 280.5] CT
0.851 0.325 0.098 RC
N
f-1393287722
f
GR
GS
[0.375 0 0 0.375 78.186 279.84645] CT
0.851 0.325 0.098 RC
N
f-819729944
f
GR
GS
[0.375 0 0 0.375 78.186 279.84645] CT
0.851 0.325 0.098 RC
N
f-1393287722
f
GR
GS
[0.375 0 0 0.375 0 0] CT
1 GC
N
/f1474737812{996 147 M
996 76 L
815 76 L
815 147 L
cp}def
f1474737812
f
GR
GS
[0.375 0 0 0.375 340.875 35.8125] CT
/Helvetica 24 F
GS
[1 0 0 1 0 0] CT
0 9.5 moveto 
1 -1 scale
(BFGS) t 
GR
GR
GS
[0.375 0 0 0.375 0 0] CT
0 0.447 0.741 RC
1 LJ
5.333 LW
N
823 95.5 M
903 95.5 L
S
GR
GS
[0.375 0 0 0.375 323.625 35.8125] CT
0 0.447 0.741 RC
N
f-819729944
f
GR
GS
[0.375 0 0 0.375 323.625 35.8125] CT
0 0.447 0.741 RC
N
f-1393287722
f
GR
GS
[0.375 0 0 0.375 340.875 47.8125] CT
/Helvetica 24 F
GS
[1 0 0 1 0 0] CT
0 9.5 moveto 
1 -1 scale
(Greedy) t 
GR
GR
GS
[0.375 0 0 0.375 0 0] CT
0.851 0.325 0.098 RC
1 LJ
5.333 LW
N
823 127.5 M
903 127.5 L
S
GR
GS
[0.375 0 0 0.375 323.625 47.8125] CT
0.851 0.325 0.098 RC
N
f-819729944
f
GR
GS
[0.375 0 0 0.375 323.625 47.8125] CT
0.851 0.325 0.098 RC
N
f-1393287722
f
GR
GS
[0.375 0 0 0.375 0 0] CT
0.149 GC
10.0 ML
1.333 LW
N
815 147 M
815 76 L
996 76 L
996 147 L
cp
S
GR
%%Trailer
%%Pages: 1
%%EOF
