%!PS-Adobe-3.0 EPSF-3.0
%%Creator: (MATLAB, The Mathworks, Inc. Version 9.7.0.1190202 \(R2019b\). Operating System: Windows 10)
%%Title: ./img/percLessTotDist_vs_gamma_fmincon_greedy.eps
%%CreationDate: 2021-12-16T22:24:26
%%Pages: (atend)
%%BoundingBox:    20     3   383   304
%%LanguageLevel: 3
%%EndComments
%%BeginProlog
%%BeginResource: procset (Apache XML Graphics Std ProcSet) 1.2 0
%%Version: 1.2 0
%%Copyright: (Copyright 2001-2003,2010 The Apache Software Foundation. License terms: http://www.apache.org/licenses/LICENSE-2.0)
/bd{bind def}bind def
/ld{load def}bd
/GR/grestore ld
/GS/gsave ld
/RM/rmoveto ld
/C/curveto ld
/t/show ld
/L/lineto ld
/ML/setmiterlimit ld
/CT/concat ld
/f/fill ld
/N/newpath ld
/S/stroke ld
/CC/setcmykcolor ld
/A/ashow ld
/cp/closepath ld
/RC/setrgbcolor ld
/LJ/setlinejoin ld
/GC/setgray ld
/LW/setlinewidth ld
/M/moveto ld
/re {4 2 roll M
1 index 0 rlineto
0 exch rlineto
neg 0 rlineto
cp } bd
/_ctm matrix def
/_tm matrix def
/BT { _ctm currentmatrix pop matrix _tm copy pop 0 0 moveto } bd
/ET { _ctm setmatrix } bd
/iTm { _ctm setmatrix _tm concat } bd
/Tm { _tm astore pop iTm 0 0 moveto } bd
/ux 0.0 def
/uy 0.0 def
/F {
  /Tp exch def
  /Tf exch def
  Tf findfont Tp scalefont setfont
  /cf Tf def  /cs Tp def
} bd
/ULS {currentpoint /uy exch def /ux exch def} bd
/ULE {
  /Tcx currentpoint pop def
  gsave
  newpath
  cf findfont cs scalefont dup
  /FontMatrix get 0 get /Ts exch def /FontInfo get dup
  /UnderlinePosition get Ts mul /To exch def
  /UnderlineThickness get Ts mul /Tt exch def
  ux uy To add moveto  Tcx uy To add lineto
  Tt setlinewidth stroke
  grestore
} bd
/OLE {
  /Tcx currentpoint pop def
  gsave
  newpath
  cf findfont cs scalefont dup
  /FontMatrix get 0 get /Ts exch def /FontInfo get dup
  /UnderlinePosition get Ts mul /To exch def
  /UnderlineThickness get Ts mul /Tt exch def
  ux uy To add cs add moveto Tcx uy To add cs add lineto
  Tt setlinewidth stroke
  grestore
} bd
/SOE {
  /Tcx currentpoint pop def
  gsave
  newpath
  cf findfont cs scalefont dup
  /FontMatrix get 0 get /Ts exch def /FontInfo get dup
  /UnderlinePosition get Ts mul /To exch def
  /UnderlineThickness get Ts mul /Tt exch def
  ux uy To add cs 10 mul 26 idiv add moveto Tcx uy To add cs 10 mul 26 idiv add lineto
  Tt setlinewidth stroke
  grestore
} bd
/QT {
/Y22 exch store
/X22 exch store
/Y21 exch store
/X21 exch store
currentpoint
/Y21 load 2 mul add 3 div exch
/X21 load 2 mul add 3 div exch
/X21 load 2 mul /X22 load add 3 div
/Y21 load 2 mul /Y22 load add 3 div
/X22 load /Y22 load curveto
} bd
/SSPD {
dup length /d exch dict def
{
/v exch def
/k exch def
currentpagedevice k known {
/cpdv currentpagedevice k get def
v cpdv ne {
/upd false def
/nullv v type /nulltype eq def
/nullcpdv cpdv type /nulltype eq def
nullv nullcpdv or
{
/upd true def
} {
/sametype v type cpdv type eq def
sametype {
v type /arraytype eq {
/vlen v length def
/cpdvlen cpdv length def
vlen cpdvlen eq {
0 1 vlen 1 sub {
/i exch def
/obj v i get def
/cpdobj cpdv i get def
obj cpdobj ne {
/upd true def
exit
} if
} for
} {
/upd true def
} ifelse
} {
v type /dicttype eq {
v {
/dv exch def
/dk exch def
/cpddv cpdv dk get def
dv cpddv ne {
/upd true def
exit
} if
} forall
} {
/upd true def
} ifelse
} ifelse
} if
} ifelse
upd true eq {
d k v put
} if
} if
} if
} forall
d length 0 gt {
d setpagedevice
} if
} bd
/RE { % /NewFontName [NewEncodingArray] /FontName RE -
  findfont dup length dict begin
  {
    1 index /FID ne
    {def} {pop pop} ifelse
  } forall
  /Encoding exch def
  /FontName 1 index def
  currentdict definefont pop
  end
} bind def
%%EndResource
%%BeginResource: procset (Apache XML Graphics EPS ProcSet) 1.0 0
%%Version: 1.0 0
%%Copyright: (Copyright 2002-2003 The Apache Software Foundation. License terms: http://www.apache.org/licenses/LICENSE-2.0)
/BeginEPSF { %def
/b4_Inc_state save def         % Save state for cleanup
/dict_count countdictstack def % Count objects on dict stack
/op_count count 1 sub def      % Count objects on operand stack
userdict begin                 % Push userdict on dict stack
/showpage { } def              % Redefine showpage, { } = null proc
0 setgray 0 setlinecap         % Prepare graphics state
1 setlinewidth 0 setlinejoin
10 setmiterlimit [ ] 0 setdash newpath
/languagelevel where           % If level not equal to 1 then
{pop languagelevel             % set strokeadjust and
1 ne                           % overprint to their defaults.
{false setstrokeadjust false setoverprint
} if
} if
} bd
/EndEPSF { %def
count op_count sub {pop} repeat            % Clean up stacks
countdictstack dict_count sub {end} repeat
b4_Inc_state restore
} bd
%%EndResource
%FOPBeginFontDict
%%IncludeResource: font Courier-Oblique
%%IncludeResource: font Courier-BoldOblique
%%IncludeResource: font Courier-Bold
%%IncludeResource: font ZapfDingbats
%%IncludeResource: font Symbol
%%IncludeResource: font Helvetica
%%IncludeResource: font Helvetica-Oblique
%%IncludeResource: font Helvetica-Bold
%%IncludeResource: font Helvetica-BoldOblique
%%IncludeResource: font Times-Roman
%%IncludeResource: font Times-Italic
%%IncludeResource: font Times-Bold
%%IncludeResource: font Times-BoldItalic
%%IncludeResource: font Courier
%FOPEndFontDict
%%BeginResource: encoding WinAnsiEncoding
/WinAnsiEncoding [
/.notdef /.notdef /.notdef /.notdef /.notdef
/.notdef /.notdef /.notdef /.notdef /.notdef
/.notdef /.notdef /.notdef /.notdef /.notdef
/.notdef /.notdef /.notdef /.notdef /.notdef
/.notdef /.notdef /.notdef /.notdef /.notdef
/.notdef /.notdef /.notdef /.notdef /.notdef
/.notdef /.notdef /space /exclam /quotedbl
/numbersign /dollar /percent /ampersand /quotesingle
/parenleft /parenright /asterisk /plus /comma
/hyphen /period /slash /zero /one
/two /three /four /five /six
/seven /eight /nine /colon /semicolon
/less /equal /greater /question /at
/A /B /C /D /E
/F /G /H /I /J
/K /L /M /N /O
/P /Q /R /S /T
/U /V /W /X /Y
/Z /bracketleft /backslash /bracketright /asciicircum
/underscore /quoteleft /a /b /c
/d /e /f /g /h
/i /j /k /l /m
/n /o /p /q /r
/s /t /u /v /w
/x /y /z /braceleft /bar
/braceright /asciitilde /bullet /Euro /bullet
/quotesinglbase /florin /quotedblbase /ellipsis /dagger
/daggerdbl /circumflex /perthousand /Scaron /guilsinglleft
/OE /bullet /Zcaron /bullet /bullet
/quoteleft /quoteright /quotedblleft /quotedblright /bullet
/endash /emdash /asciitilde /trademark /scaron
/guilsinglright /oe /bullet /zcaron /Ydieresis
/space /exclamdown /cent /sterling /currency
/yen /brokenbar /section /dieresis /copyright
/ordfeminine /guillemotleft /logicalnot /sfthyphen /registered
/macron /degree /plusminus /twosuperior /threesuperior
/acute /mu /paragraph /middot /cedilla
/onesuperior /ordmasculine /guillemotright /onequarter /onehalf
/threequarters /questiondown /Agrave /Aacute /Acircumflex
/Atilde /Adieresis /Aring /AE /Ccedilla
/Egrave /Eacute /Ecircumflex /Edieresis /Igrave
/Iacute /Icircumflex /Idieresis /Eth /Ntilde
/Ograve /Oacute /Ocircumflex /Otilde /Odieresis
/multiply /Oslash /Ugrave /Uacute /Ucircumflex
/Udieresis /Yacute /Thorn /germandbls /agrave
/aacute /acircumflex /atilde /adieresis /aring
/ae /ccedilla /egrave /eacute /ecircumflex
/edieresis /igrave /iacute /icircumflex /idieresis
/eth /ntilde /ograve /oacute /ocircumflex
/otilde /odieresis /divide /oslash /ugrave
/uacute /ucircumflex /udieresis /yacute /thorn
/ydieresis
] def
%%EndResource
%FOPBeginFontReencode
/Courier-Oblique findfont
dup length dict begin
  {1 index /FID ne {def} {pop pop} ifelse} forall
  /Encoding WinAnsiEncoding def
  currentdict
end
/Courier-Oblique exch definefont pop
/Courier-BoldOblique findfont
dup length dict begin
  {1 index /FID ne {def} {pop pop} ifelse} forall
  /Encoding WinAnsiEncoding def
  currentdict
end
/Courier-BoldOblique exch definefont pop
/Courier-Bold findfont
dup length dict begin
  {1 index /FID ne {def} {pop pop} ifelse} forall
  /Encoding WinAnsiEncoding def
  currentdict
end
/Courier-Bold exch definefont pop
/Helvetica findfont
dup length dict begin
  {1 index /FID ne {def} {pop pop} ifelse} forall
  /Encoding WinAnsiEncoding def
  currentdict
end
/Helvetica exch definefont pop
/Helvetica-Oblique findfont
dup length dict begin
  {1 index /FID ne {def} {pop pop} ifelse} forall
  /Encoding WinAnsiEncoding def
  currentdict
end
/Helvetica-Oblique exch definefont pop
/Helvetica-Bold findfont
dup length dict begin
  {1 index /FID ne {def} {pop pop} ifelse} forall
  /Encoding WinAnsiEncoding def
  currentdict
end
/Helvetica-Bold exch definefont pop
/Helvetica-BoldOblique findfont
dup length dict begin
  {1 index /FID ne {def} {pop pop} ifelse} forall
  /Encoding WinAnsiEncoding def
  currentdict
end
/Helvetica-BoldOblique exch definefont pop
/Times-Roman findfont
dup length dict begin
  {1 index /FID ne {def} {pop pop} ifelse} forall
  /Encoding WinAnsiEncoding def
  currentdict
end
/Times-Roman exch definefont pop
/Times-Italic findfont
dup length dict begin
  {1 index /FID ne {def} {pop pop} ifelse} forall
  /Encoding WinAnsiEncoding def
  currentdict
end
/Times-Italic exch definefont pop
/Times-Bold findfont
dup length dict begin
  {1 index /FID ne {def} {pop pop} ifelse} forall
  /Encoding WinAnsiEncoding def
  currentdict
end
/Times-Bold exch definefont pop
/Times-BoldItalic findfont
dup length dict begin
  {1 index /FID ne {def} {pop pop} ifelse} forall
  /Encoding WinAnsiEncoding def
  currentdict
end
/Times-BoldItalic exch definefont pop
/Courier findfont
dup length dict begin
  {1 index /FID ne {def} {pop pop} ifelse} forall
  /Encoding WinAnsiEncoding def
  currentdict
end
/Courier exch definefont pop
%FOPEndFontReencode
%%EndProlog
%%Page: 1 1
%%PageBoundingBox: 0 0 420 315
%%BeginPageSetup
[1 0 0 -1 0 315] CT
%%EndPageSetup
GS
[0.375 0 0 0.375 0 0] CT
1 GC
N
0 0 1120 840 re
f
GR
GS
[0.375 0 0 0.375 0 0] CT
1 GC
N
0 0 1120 840 re
f
GR
GS
[0.375 0 0 0.375 0 0] CT
1 GC
N
146 748 M
1014 748 L
1014 63 L
146 63 L
cp
f
GR
GS
[0.375 0 0 0.375 0 0] CT
0.873 GC
1 LJ
1.333 LW
N
146 748 M
146 63 L
S
GR
GS
[0.375 0 0 0.375 0 0] CT
0.873 GC
1 LJ
1.333 LW
N
363 748 M
363 63 L
S
GR
GS
[0.375 0 0 0.375 0 0] CT
0.873 GC
1 LJ
1.333 LW
N
580 748 M
580 63 L
S
GR
GS
[0.375 0 0 0.375 0 0] CT
0.873 GC
1 LJ
1.333 LW
N
797 748 M
797 63 L
S
GR
GS
[0.375 0 0 0.375 0 0] CT
0.873 GC
1 LJ
1.333 LW
N
1014 748 M
1014 63 L
S
GR
GS
[0.375 0 0 0.375 0 0] CT
0.873 GC
1 LJ
1.333 LW
N
1014 748 M
146 748 L
S
GR
GS
[0.375 0 0 0.375 0 0] CT
0.873 GC
1 LJ
1.333 LW
N
1014 679.5 M
146 679.5 L
S
GR
GS
[0.375 0 0 0.375 0 0] CT
0.873 GC
1 LJ
1.333 LW
N
1014 611 M
146 611 L
S
GR
GS
[0.375 0 0 0.375 0 0] CT
0.873 GC
1 LJ
1.333 LW
N
1014 542.5 M
146 542.5 L
S
GR
GS
[0.375 0 0 0.375 0 0] CT
0.873 GC
1 LJ
1.333 LW
N
1014 474 M
146 474 L
S
GR
GS
[0.375 0 0 0.375 0 0] CT
0.873 GC
1 LJ
1.333 LW
N
1014 405.5 M
146 405.5 L
S
GR
GS
[0.375 0 0 0.375 0 0] CT
0.873 GC
1 LJ
1.333 LW
N
1014 337 M
146 337 L
S
GR
GS
[0.375 0 0 0.375 0 0] CT
0.873 GC
1 LJ
1.333 LW
N
1014 268.5 M
146 268.5 L
S
GR
GS
[0.375 0 0 0.375 0 0] CT
0.873 GC
1 LJ
1.333 LW
N
1014 200 M
146 200 L
S
GR
GS
[0.375 0 0 0.375 0 0] CT
0.873 GC
1 LJ
1.333 LW
N
1014 131.5 M
146 131.5 L
S
GR
GS
[0.375 0 0 0.375 0 0] CT
0.873 GC
1 LJ
1.333 LW
N
1014 63 M
146 63 L
S
GR
GS
[0.375 0 0 0.375 0 0] CT
0.149 GC
2 setlinecap
1 LJ
1.333 LW
N
146 748 M
1014 748 L
S
GR
GS
[0.375 0 0 0.375 0 0] CT
0.149 GC
2 setlinecap
1 LJ
1.333 LW
N
146 63 M
1014 63 L
S
GR
GS
[0.375 0 0 0.375 0 0] CT
0.149 GC
2 setlinecap
1 LJ
1.333 LW
N
146 748 M
146 739.32 L
S
GR
GS
[0.375 0 0 0.375 0 0] CT
0.149 GC
2 setlinecap
1 LJ
1.333 LW
N
363 748 M
363 739.32 L
S
GR
GS
[0.375 0 0 0.375 0 0] CT
0.149 GC
2 setlinecap
1 LJ
1.333 LW
N
580 748 M
580 739.32 L
S
GR
GS
[0.375 0 0 0.375 0 0] CT
0.149 GC
2 setlinecap
1 LJ
1.333 LW
N
797 748 M
797 739.32 L
S
GR
GS
[0.375 0 0 0.375 0 0] CT
0.149 GC
2 setlinecap
1 LJ
1.333 LW
N
1014 748 M
1014 739.32 L
S
GR
GS
[0.375 0 0 0.375 0 0] CT
0.149 GC
2 setlinecap
1 LJ
1.333 LW
N
146 63 M
146 71.68 L
S
GR
GS
[0.375 0 0 0.375 0 0] CT
0.149 GC
2 setlinecap
1 LJ
1.333 LW
N
363 63 M
363 71.68 L
S
GR
GS
[0.375 0 0 0.375 0 0] CT
0.149 GC
2 setlinecap
1 LJ
1.333 LW
N
580 63 M
580 71.68 L
S
GR
GS
[0.375 0 0 0.375 0 0] CT
0.149 GC
2 setlinecap
1 LJ
1.333 LW
N
797 63 M
797 71.68 L
S
GR
GS
[0.375 0 0 0.375 0 0] CT
0.149 GC
2 setlinecap
1 LJ
1.333 LW
N
1014 63 M
1014 71.68 L
S
GR
GS
[0.375 0 0 0.375 54.75 284.50001] CT
0.149 GC
/Helvetica 26.667 F
GS
[1 0 0 1 0 0] CT
-7.5 27 moveto 
1 -1 scale
(0) t 
GR
GR
GS
[0.375 0 0 0.375 136.125 284.50001] CT
0.149 GC
/Helvetica 26.667 F
GS
[1 0 0 1 0 0] CT
-19 27 moveto 
1 -1 scale
(0.5) t 
GR
GR
GS
[0.375 0 0 0.375 217.5 284.50001] CT
0.149 GC
/Helvetica 26.667 F
GS
[1 0 0 1 0 0] CT
-7.5 27 moveto 
1 -1 scale
(1) t 
GR
GR
GS
[0.375 0 0 0.375 298.875 284.50001] CT
0.149 GC
/Helvetica 26.667 F
GS
[1 0 0 1 0 0] CT
-19 27 moveto 
1 -1 scale
(1.5) t 
GR
GR
GS
[0.375 0 0 0.375 380.25 284.50001] CT
0.149 GC
/Helvetica 26.667 F
GS
[1 0 0 1 0 0] CT
-7.5 27 moveto 
1 -1 scale
(2) t 
GR
GR
GS
[0.375 0 0 0.375 214.5 309] CT
0.149 GC
N
8.547 5.672 M
8.547 5.031 8.844 3.781 QT
9.141 2.531 9.555 1.125 QT
9.969 -0.281 10.266 -1.188 QT
10.375 -2.641 10.375 -3.375 QT
10.375 -5.234 10.008 -6.844 QT
9.641 -8.453 8.625 -9.539 QT
7.609 -10.625 5.781 -10.625 QT
4.813 -10.625 3.859 -10.211 QT
2.906 -9.797 2.219 -9.063 QT
1.531 -8.328 1.281 -7.391 QT
1.219 -7.219 1.047 -7.219 QT
0.688 -7.219 L
0.469 -7.219 0.469 -7.484 QT
0.469 -7.578 L
0.797 -8.875 1.625 -10.086 QT
2.453 -11.297 3.648 -12.055 QT
4.844 -12.813 6.172 -12.813 QT
7.531 -12.813 8.523 -11.891 QT
9.516 -10.969 10.109 -9.555 QT
10.703 -8.141 10.969 -6.695 QT
11.234 -5.25 11.234 -3.984 QT
12.688 -7.938 14.5 -11.484 QT
14.938 -12.422 L
15.031 -12.5 15.141 -12.5 QT
15.484 -12.5 L
15.719 -12.5 15.719 -12.234 QT
15.719 -12.172 15.656 -12.063 QT
15.219 -11.156 L
13.969 -8.656 12.914 -6.078 QT
11.859 -3.5 11.109 -1.109 QT
10.984 -0.125 10.664 1.57 QT
10.344 3.266 9.891 4.734 QT
9.438 6.203 8.984 6.266 QT
8.547 6.266 8.547 5.672 QT
cp
f
GR
GS
[0.375 0 0 0.375 0 0] CT
0.149 GC
2 setlinecap
1 LJ
1.333 LW
N
146 748 M
146 63 L
S
GR
GS
[0.375 0 0 0.375 0 0] CT
0.149 GC
2 setlinecap
1 LJ
1.333 LW
N
1014 748 M
1014 63 L
S
GR
GS
[0.375 0 0 0.375 0 0] CT
0.149 GC
2 setlinecap
1 LJ
1.333 LW
N
146 748 M
154.68 748 L
S
GR
GS
[0.375 0 0 0.375 0 0] CT
0.149 GC
2 setlinecap
1 LJ
1.333 LW
N
146 679.5 M
154.68 679.5 L
S
GR
GS
[0.375 0 0 0.375 0 0] CT
0.149 GC
2 setlinecap
1 LJ
1.333 LW
N
146 611 M
154.68 611 L
S
GR
GS
[0.375 0 0 0.375 0 0] CT
0.149 GC
2 setlinecap
1 LJ
1.333 LW
N
146 542.5 M
154.68 542.5 L
S
GR
GS
[0.375 0 0 0.375 0 0] CT
0.149 GC
2 setlinecap
1 LJ
1.333 LW
N
146 474 M
154.68 474 L
S
GR
GS
[0.375 0 0 0.375 0 0] CT
0.149 GC
2 setlinecap
1 LJ
1.333 LW
N
146 405.5 M
154.68 405.5 L
S
GR
GS
[0.375 0 0 0.375 0 0] CT
0.149 GC
2 setlinecap
1 LJ
1.333 LW
N
146 337 M
154.68 337 L
S
GR
GS
[0.375 0 0 0.375 0 0] CT
0.149 GC
2 setlinecap
1 LJ
1.333 LW
N
146 268.5 M
154.68 268.5 L
S
GR
GS
[0.375 0 0 0.375 0 0] CT
0.149 GC
2 setlinecap
1 LJ
1.333 LW
N
146 200 M
154.68 200 L
S
GR
GS
[0.375 0 0 0.375 0 0] CT
0.149 GC
2 setlinecap
1 LJ
1.333 LW
N
146 131.5 M
154.68 131.5 L
S
GR
GS
[0.375 0 0 0.375 0 0] CT
0.149 GC
2 setlinecap
1 LJ
1.333 LW
N
146 63 M
154.68 63 L
S
GR
GS
[0.375 0 0 0.375 0 0] CT
0.149 GC
2 setlinecap
1 LJ
1.333 LW
N
1014 748 M
1005.32 748 L
S
GR
GS
[0.375 0 0 0.375 0 0] CT
0.149 GC
2 setlinecap
1 LJ
1.333 LW
N
1014 679.5 M
1005.32 679.5 L
S
GR
GS
[0.375 0 0 0.375 0 0] CT
0.149 GC
2 setlinecap
1 LJ
1.333 LW
N
1014 611 M
1005.32 611 L
S
GR
GS
[0.375 0 0 0.375 0 0] CT
0.149 GC
2 setlinecap
1 LJ
1.333 LW
N
1014 542.5 M
1005.32 542.5 L
S
GR
GS
[0.375 0 0 0.375 0 0] CT
0.149 GC
2 setlinecap
1 LJ
1.333 LW
N
1014 474 M
1005.32 474 L
S
GR
GS
[0.375 0 0 0.375 0 0] CT
0.149 GC
2 setlinecap
1 LJ
1.333 LW
N
1014 405.5 M
1005.32 405.5 L
S
GR
GS
[0.375 0 0 0.375 0 0] CT
0.149 GC
2 setlinecap
1 LJ
1.333 LW
N
1014 337 M
1005.32 337 L
S
GR
GS
[0.375 0 0 0.375 0 0] CT
0.149 GC
2 setlinecap
1 LJ
1.333 LW
N
1014 268.5 M
1005.32 268.5 L
S
GR
GS
[0.375 0 0 0.375 0 0] CT
0.149 GC
2 setlinecap
1 LJ
1.333 LW
N
1014 200 M
1005.32 200 L
S
GR
GS
[0.375 0 0 0.375 0 0] CT
0.149 GC
2 setlinecap
1 LJ
1.333 LW
N
1014 131.5 M
1005.32 131.5 L
S
GR
GS
[0.375 0 0 0.375 0 0] CT
0.149 GC
2 setlinecap
1 LJ
1.333 LW
N
1014 63 M
1005.32 63 L
S
GR
GS
[0.375 0 0 0.375 50.75 280.5] CT
0.149 GC
/Helvetica 26.667 F
GS
[1 0 0 1 0 0] CT
-15 10.5 moveto 
1 -1 scale
(0) t 
GR
GR
GS
[0.375 0 0 0.375 50.75 254.8125] CT
0.149 GC
/Helvetica 26.667 F
GS
[1 0 0 1 0 0] CT
-30 10.5 moveto 
1 -1 scale
(10) t 
GR
GR
GS
[0.375 0 0 0.375 50.75 229.125] CT
0.149 GC
/Helvetica 26.667 F
GS
[1 0 0 1 0 0] CT
-30 10.5 moveto 
1 -1 scale
(20) t 
GR
GR
GS
[0.375 0 0 0.375 50.75 203.4375] CT
0.149 GC
/Helvetica 26.667 F
GS
[1 0 0 1 0 0] CT
-30 10.5 moveto 
1 -1 scale
(30) t 
GR
GR
GS
[0.375 0 0 0.375 50.75 177.75] CT
0.149 GC
/Helvetica 26.667 F
GS
[1 0 0 1 0 0] CT
-30 10.5 moveto 
1 -1 scale
(40) t 
GR
GR
GS
[0.375 0 0 0.375 50.75 152.0625] CT
0.149 GC
/Helvetica 26.667 F
GS
[1 0 0 1 0 0] CT
-30 10.5 moveto 
1 -1 scale
(50) t 
GR
GR
GS
[0.375 0 0 0.375 50.75 126.375] CT
0.149 GC
/Helvetica 26.667 F
GS
[1 0 0 1 0 0] CT
-30 10.5 moveto 
1 -1 scale
(60) t 
GR
GR
GS
[0.375 0 0 0.375 50.75 100.6875] CT
0.149 GC
/Helvetica 26.667 F
GS
[1 0 0 1 0 0] CT
-30 10.5 moveto 
1 -1 scale
(70) t 
GR
GR
GS
[0.375 0 0 0.375 50.75 75] CT
0.149 GC
/Helvetica 26.667 F
GS
[1 0 0 1 0 0] CT
-30 10.5 moveto 
1 -1 scale
(80) t 
GR
GR
GS
[0.375 0 0 0.375 50.75 49.3125] CT
0.149 GC
/Helvetica 26.667 F
GS
[1 0 0 1 0 0] CT
-30 10.5 moveto 
1 -1 scale
(90) t 
GR
GR
GS
[0.375 0 0 0.375 50.75 23.625] CT
0.149 GC
/Helvetica 26.667 F
GS
[1 0 0 1 0 0] CT
-45 10.5 moveto 
1 -1 scale
(100) t 
GR
GR
GS
[0 -0.375 0.375 0 30.875 152.06237] CT
0.149 GC
/Helvetica 29.333 F
GS
[1 0 0 1 0 0] CT
-161 -7 moveto 
1 -1 scale
(% total distance retained) t 
GR
GR
GS
[0.375 0 0 0.375 56.25 19.875] CT
/Helvetica-Bold 29.333 F
GS
[1 0 0 1 0 0] CT
0 0 moveto 
1 -1 scale
(% total distance retained vs ) t 
GR
GR
GS
[0.375 0 0 0.375 204.375 19.875] CT
N
9.547 5.672 M
9.547 5.031 9.844 3.781 QT
10.141 2.531 10.555 1.125 QT
10.969 -0.281 11.266 -1.188 QT
11.375 -2.641 11.375 -3.375 QT
11.375 -5.234 11.008 -6.844 QT
10.641 -8.453 9.625 -9.539 QT
8.609 -10.625 6.781 -10.625 QT
6.781 -10.625 5.844 -10.211 QT
4.906 -9.797 4.219 -9.063 QT
3.531 -8.328 3.281 -7.391 QT
3.219 -7.219 2.047 -7.219 QT
1.688 -7.219 L
1.469 -7.219 1.469 -7.484 QT
1.469 -7.578 L
1.797 -8.875 2.625 -10.086 QT
3.453 -11.297 4.648 -12.055 QT
5.844 -12.813 7.172 -12.813 QT
9.531 -12.813 10.523 -11.891 QT
11.516 -10.969 12.109 -9.555 QT
12.703 -8.141 12.875 -6.695 QT
13.047 -5.25 13.047 -5.25 QT
13.688 -7.938 15.5 -11.484 QT
15.938 -12.422 L
16.031 -12.5 16.141 -12.5 QT
16.484 -12.5 L
17.719 -12.5 17.719 -12.234 QT
17.719 -12.172 17.656 -12.063 QT
17.219 -11.156 L
15.969 -8.656 14.914 -6.078 QT
13.859 -3.5 13.109 -1.109 QT
12.984 -0.125 12.664 1.57 QT
12.344 3.266 11.891 4.734 QT
11.438 6.203 10.984 6.266 QT
9.547 6.266 9.547 5.672 QT
cp
f
GR
GS
[0.375 0 0 0.375 210.75 19.875] CT
/Helvetica-Bold 29.333 F
GS
[1 0 0 1 0 0] CT
0 0 moveto 
1 -1 scale
( - ) t 
GR
GR
GS
[0.375 0 0 0.375 220.875 19.875] CT
N
3.188 0 M
2.938 0 2.781 -0.172 QT
2.625 -0.344 2.625 -0.578 QT
2.625 -0.797 2.781 -0.977 QT
2.938 -1.156 3.188 -1.156 QT
11.703 -1.156 L
11.703 -9.078 L
3.188 -9.078 L
2.938 -9.078 2.781 -9.258 QT
2.625 -9.438 2.625 -9.656 QT
2.625 -9.875 2.781 -10.055 QT
2.938 -10.234 3.188 -10.234 QT
11.703 -10.234 L
11.703 -18.797 L
11.703 -19.016 11.875 -19.164 QT
12.047 -19.313 12.281 -19.313 QT
13.484 -19.313 13.672 -19.164 QT
13.859 -19.016 13.859 -18.797 QT
13.859 -10.234 L
21.391 -10.234 L
22.609 -10.234 22.766 -10.055 QT
22.922 -9.875 22.922 -9.656 QT
22.922 -9.438 22.766 -9.258 QT
22.609 -9.078 21.391 -9.078 QT
13.859 -9.078 L
13.859 -1.156 L
21.391 -1.156 L
22.609 -1.156 22.766 -0.977 QT
22.922 -0.797 22.922 -0.578 QT
22.922 -0.344 22.766 -0.172 QT
22.609 0 21.391 0 QT
3.188 0 L
cp
f
GR
GS
[0.375 0 0 0.375 230.25 19.875] CT
/Helvetica-Bold 29.333 F
GS
[1 0 0 1 0 0] CT
0 0 moveto 
1 -1 scale
( 0.5 standard dev. error bars) t 
GR
GR
GS
[0.375 0 0 0.375 0 0] CT
0 0.447 0.741 RC
1 LJ
5.333 LW
N
146 63 M
146 63 L
S
GR
GS
[0.375 0 0 0.375 0 0] CT
0 0.447 0.741 RC
1 LJ
5.333 LW
N
175.121 141.819 M
175.121 170.972 L
S
GR
GS
[0.375 0 0 0.375 0 0] CT
0 0.447 0.741 RC
1 LJ
5.333 LW
N
204.243 168.627 M
204.243 195.019 L
S
GR
GS
[0.375 0 0 0.375 0 0] CT
0 0.447 0.741 RC
1 LJ
5.333 LW
N
233.364 166.234 M
233.364 193.686 L
S
GR
GS
[0.375 0 0 0.375 0 0] CT
0 0.447 0.741 RC
1 LJ
5.333 LW
N
262.529 190.161 M
262.529 221.634 L
S
GR
GS
[0.375 0 0 0.375 0 0] CT
0 0.447 0.741 RC
1 LJ
5.333 LW
N
291.65 207.578 M
291.65 238.822 L
S
GR
GS
[0.375 0 0 0.375 0 0] CT
0 0.447 0.741 RC
1 LJ
5.333 LW
N
320.772 219.718 M
320.772 249.983 L
S
GR
GS
[0.375 0 0 0.375 0 0] CT
0 0.447 0.741 RC
1 LJ
5.333 LW
N
349.893 241.701 M
349.893 274.945 L
S
GR
GS
[0.375 0 0 0.375 0 0] CT
0 0.447 0.741 RC
1 LJ
5.333 LW
N
379.015 231.752 M
379.015 262.432 L
S
GR
GS
[0.375 0 0 0.375 0 0] CT
0 0.447 0.741 RC
1 LJ
5.333 LW
N
408.136 245.997 M
408.136 276.936 L
S
GR
GS
[0.375 0 0 0.375 0 0] CT
0 0.447 0.741 RC
1 LJ
5.333 LW
N
437.257 253.126 M
437.257 284.899 L
S
GR
GS
[0.375 0 0 0.375 0 0] CT
0 0.447 0.741 RC
1 LJ
5.333 LW
N
466.422 264.026 M
466.422 305.157 L
S
GR
GS
[0.375 0 0 0.375 0 0] CT
0 0.447 0.741 RC
1 LJ
5.333 LW
N
495.544 268.391 M
495.544 300.868 L
S
GR
GS
[0.375 0 0 0.375 0 0] CT
0 0.447 0.741 RC
1 LJ
5.333 LW
N
524.665 274.437 M
524.665 305.261 L
S
GR
GS
[0.375 0 0 0.375 0 0] CT
0 0.447 0.741 RC
1 LJ
5.333 LW
N
553.786 294.865 M
553.786 326.421 L
S
GR
GS
[0.375 0 0 0.375 0 0] CT
0 0.447 0.741 RC
1 LJ
5.333 LW
N
582.908 278.049 M
582.908 312.104 L
S
GR
GS
[0.375 0 0 0.375 0 0] CT
0 0.447 0.741 RC
1 LJ
5.333 LW
N
612.029 294.964 M
612.029 327.702 L
S
GR
GS
[0.375 0 0 0.375 0 0] CT
0 0.447 0.741 RC
1 LJ
5.333 LW
N
641.151 289.651 M
641.151 322.807 L
S
GR
GS
[0.375 0 0 0.375 0 0] CT
0 0.447 0.741 RC
1 LJ
5.333 LW
N
670.315 308.201 M
670.315 342.911 L
S
GR
GS
[0.375 0 0 0.375 0 0] CT
0 0.447 0.741 RC
1 LJ
5.333 LW
N
699.437 292.42 M
699.437 325.301 L
S
GR
GS
[0.375 0 0 0.375 0 0] CT
0 0.447 0.741 RC
1 LJ
5.333 LW
N
728.558 297.467 M
728.558 329.683 L
S
GR
GS
[0.375 0 0 0.375 0 0] CT
0 0.447 0.741 RC
1 LJ
5.333 LW
N
757.68 298.712 M
757.68 331.388 L
S
GR
GS
[0.375 0 0 0.375 0 0] CT
0 0.447 0.741 RC
1 LJ
5.333 LW
N
786.801 310.694 M
786.801 360.461 L
S
GR
GS
[0.375 0 0 0.375 0 0] CT
0 0.447 0.741 RC
1 LJ
5.333 LW
N
815.922 305.023 M
815.922 339.175 L
S
GR
GS
[0.375 0 0 0.375 0 0] CT
0 0.447 0.741 RC
1 LJ
5.333 LW
N
845.044 299.314 M
845.044 333.501 L
S
GR
GS
[0.375 0 0 0.375 0 0] CT
0 0.447 0.741 RC
1 LJ
5.333 LW
N
874.209 310.077 M
874.209 345.233 L
S
GR
GS
[0.375 0 0 0.375 0 0] CT
0 0.447 0.741 RC
1 LJ
5.333 LW
N
903.33 317.844 M
903.33 372.21 L
S
GR
GS
[0.375 0 0 0.375 0 0] CT
0 0.447 0.741 RC
1 LJ
5.333 LW
N
932.451 311.256 M
932.451 345.505 L
S
GR
GS
[0.375 0 0 0.375 0 0] CT
0 0.447 0.741 RC
1 LJ
5.333 LW
N
961.573 314.894 M
961.573 364.454 L
S
GR
GS
[0.375 0 0 0.375 0 0] CT
0 0.447 0.741 RC
1 LJ
5.333 LW
N
990.694 314.131 M
990.694 347.629 L
S
GR
GS
[0.375 0 0 0.375 0 0] CT
0 0.447 0.741 RC
1 LJ
5.333 LW
N
146 63 M
146 63 L
S
GR
GS
[0.375 0 0 0.375 0 0] CT
0 0.447 0.741 RC
1 LJ
5.333 LW
N
175.121 141.819 M
175.121 112.666 L
S
GR
GS
[0.375 0 0 0.375 0 0] CT
0 0.447 0.741 RC
1 LJ
5.333 LW
N
204.243 168.627 M
204.243 142.235 L
S
GR
GS
[0.375 0 0 0.375 0 0] CT
0 0.447 0.741 RC
1 LJ
5.333 LW
N
233.364 166.234 M
233.364 138.782 L
S
GR
GS
[0.375 0 0 0.375 0 0] CT
0 0.447 0.741 RC
1 LJ
5.333 LW
N
262.529 190.161 M
262.529 158.689 L
S
GR
GS
[0.375 0 0 0.375 0 0] CT
0 0.447 0.741 RC
1 LJ
5.333 LW
N
291.65 207.578 M
291.65 176.334 L
S
GR
GS
[0.375 0 0 0.375 0 0] CT
0 0.447 0.741 RC
1 LJ
5.333 LW
N
320.772 219.718 M
320.772 189.453 L
S
GR
GS
[0.375 0 0 0.375 0 0] CT
0 0.447 0.741 RC
1 LJ
5.333 LW
N
349.893 241.701 M
349.893 208.457 L
S
GR
GS
[0.375 0 0 0.375 0 0] CT
0 0.447 0.741 RC
1 LJ
5.333 LW
N
379.015 231.752 M
379.015 201.071 L
S
GR
GS
[0.375 0 0 0.375 0 0] CT
0 0.447 0.741 RC
1 LJ
5.333 LW
N
408.136 245.997 M
408.136 215.058 L
S
GR
GS
[0.375 0 0 0.375 0 0] CT
0 0.447 0.741 RC
1 LJ
5.333 LW
N
437.257 253.126 M
437.257 221.354 L
S
GR
GS
[0.375 0 0 0.375 0 0] CT
0 0.447 0.741 RC
1 LJ
5.333 LW
N
466.422 264.026 M
466.422 222.895 L
S
GR
GS
[0.375 0 0 0.375 0 0] CT
0 0.447 0.741 RC
1 LJ
5.333 LW
N
495.544 268.391 M
495.544 235.913 L
S
GR
GS
[0.375 0 0 0.375 0 0] CT
0 0.447 0.741 RC
1 LJ
5.333 LW
N
524.665 274.437 M
524.665 243.613 L
S
GR
GS
[0.375 0 0 0.375 0 0] CT
0 0.447 0.741 RC
1 LJ
5.333 LW
N
553.786 294.865 M
553.786 263.309 L
S
GR
GS
[0.375 0 0 0.375 0 0] CT
0 0.447 0.741 RC
1 LJ
5.333 LW
N
582.908 278.049 M
582.908 243.994 L
S
GR
GS
[0.375 0 0 0.375 0 0] CT
0 0.447 0.741 RC
1 LJ
5.333 LW
N
612.029 294.964 M
612.029 262.225 L
S
GR
GS
[0.375 0 0 0.375 0 0] CT
0 0.447 0.741 RC
1 LJ
5.333 LW
N
641.151 289.651 M
641.151 256.494 L
S
GR
GS
[0.375 0 0 0.375 0 0] CT
0 0.447 0.741 RC
1 LJ
5.333 LW
N
670.315 308.201 M
670.315 273.491 L
S
GR
GS
[0.375 0 0 0.375 0 0] CT
0 0.447 0.741 RC
1 LJ
5.333 LW
N
699.437 292.42 M
699.437 259.54 L
S
GR
GS
[0.375 0 0 0.375 0 0] CT
0 0.447 0.741 RC
1 LJ
5.333 LW
N
728.558 297.467 M
728.558 265.25 L
S
GR
GS
[0.375 0 0 0.375 0 0] CT
0 0.447 0.741 RC
1 LJ
5.333 LW
N
757.68 298.712 M
757.68 266.036 L
S
GR
GS
[0.375 0 0 0.375 0 0] CT
0 0.447 0.741 RC
1 LJ
5.333 LW
N
786.801 310.694 M
786.801 260.928 L
S
GR
GS
[0.375 0 0 0.375 0 0] CT
0 0.447 0.741 RC
1 LJ
5.333 LW
N
815.922 305.023 M
815.922 270.871 L
S
GR
GS
[0.375 0 0 0.375 0 0] CT
0 0.447 0.741 RC
1 LJ
5.333 LW
N
845.044 299.314 M
845.044 265.126 L
S
GR
GS
[0.375 0 0 0.375 0 0] CT
0 0.447 0.741 RC
1 LJ
5.333 LW
N
874.209 310.077 M
874.209 274.921 L
S
GR
GS
[0.375 0 0 0.375 0 0] CT
0 0.447 0.741 RC
1 LJ
5.333 LW
N
903.33 317.844 M
903.33 263.477 L
S
GR
GS
[0.375 0 0 0.375 0 0] CT
0 0.447 0.741 RC
1 LJ
5.333 LW
N
932.451 311.256 M
932.451 277.006 L
S
GR
GS
[0.375 0 0 0.375 0 0] CT
0 0.447 0.741 RC
1 LJ
5.333 LW
N
961.573 314.894 M
961.573 265.334 L
S
GR
GS
[0.375 0 0 0.375 0 0] CT
0 0.447 0.741 RC
1 LJ
5.333 LW
N
990.694 314.131 M
990.694 280.632 L
S
GR
GS
[0.375 0 0 0.375 0 0] CT
0 0.447 0.741 RC
1 LJ
5.333 LW
N
146 63 M
175.121 141.819 L
204.243 168.627 L
233.364 166.234 L
262.529 190.161 L
291.65 207.578 L
320.772 219.718 L
349.893 241.701 L
379.015 231.752 L
408.136 245.997 L
437.257 253.126 L
466.422 264.026 L
495.544 268.391 L
524.665 274.437 L
553.786 294.865 L
582.908 278.049 L
612.029 294.964 L
641.151 289.651 L
670.315 308.201 L
699.437 292.42 L
728.558 297.467 L
757.68 298.712 L
786.801 310.694 L
815.922 305.023 L
845.044 299.314 L
874.209 310.077 L
903.33 317.844 L
932.451 311.256 L
961.573 314.894 L
990.694 314.131 L
S
GR
GS
[0.375 0 0 0.375 54.75 23.625] CT
0 0.447 0.741 RC
N
-8 0 M
8 0 L
f
GR
GS
[0.375 0 0 0.375 54.75 23.625] CT
0 0.447 0.741 RC
10.0 ML
5.333 LW
N
-8 0 M
8 0 L
S
GR
GS
[0.375 0 0 0.375 65.67052 64.11443] CT
0 0.447 0.741 RC
N
/f1004432658{-8 0 M
8 0 L}def
f1004432658
f
GR
GS
[0.375 0 0 0.375 65.67052 64.11443] CT
0 0.447 0.741 RC
10.0 ML
5.333 LW
N
-8 0 M
8 0 L
S
GR
GS
[0.375 0 0 0.375 76.59105 73.1321] CT
0 0.447 0.741 RC
N
f1004432658
f
GR
GS
[0.375 0 0 0.375 76.59105 73.1321] CT
0 0.447 0.741 RC
10.0 ML
5.333 LW
N
-8 0 M
8 0 L
S
GR
GS
[0.375 0 0 0.375 87.51157 72.63221] CT
0 0.447 0.741 RC
N
f1004432658
f
GR
GS
[0.375 0 0 0.375 87.51157 72.63221] CT
0 0.447 0.741 RC
10.0 ML
5.333 LW
N
-8 0 M
8 0 L
S
GR
GS
[0.375 0 0 0.375 98.44837 83.11261] CT
0 0.447 0.741 RC
N
f1004432658
f
GR
GS
[0.375 0 0 0.375 98.44837 83.11261] CT
0 0.447 0.741 RC
10.0 ML
5.333 LW
N
-8 0 M
8 0 L
S
GR
GS
[0.375 0 0 0.375 109.3689 89.55842] CT
0 0.447 0.741 RC
N
f1004432658
f
GR
GS
[0.375 0 0 0.375 109.3689 89.55842] CT
0 0.447 0.741 RC
10.0 ML
5.333 LW
N
-8 0 M
8 0 L
S
GR
GS
[0.375 0 0 0.375 120.28942 93.74363] CT
0 0.447 0.741 RC
N
f1004432658
f
GR
GS
[0.375 0 0 0.375 120.28942 93.74363] CT
0 0.447 0.741 RC
10.0 ML
5.333 LW
N
-8 0 M
8 0 L
S
GR
GS
[0.375 0 0 0.375 131.20995 103.10433] CT
0 0.447 0.741 RC
N
f1004432658
f
GR
GS
[0.375 0 0 0.375 131.20995 103.10433] CT
0 0.447 0.741 RC
10.0 ML
5.333 LW
N
-8 0 M
8 0 L
S
GR
GS
[0.375 0 0 0.375 142.13047 98.41217] CT
0 0.447 0.741 RC
N
f1004432658
f
GR
GS
[0.375 0 0 0.375 142.13047 98.41217] CT
0 0.447 0.741 RC
10.0 ML
5.333 LW
N
-8 0 M
8 0 L
S
GR
GS
[0.375 0 0 0.375 153.05099 103.8511] CT
0 0.447 0.741 RC
N
f1004432658
f
GR
GS
[0.375 0 0 0.375 153.05099 103.8511] CT
0 0.447 0.741 RC
10.0 ML
5.333 LW
N
-8 0 M
8 0 L
S
GR
GS
[0.375 0 0 0.375 163.97153 106.83695] CT
0 0.447 0.741 RC
N
f1004432658
f
GR
GS
[0.375 0 0 0.375 163.97153 106.83695] CT
0 0.447 0.741 RC
10.0 ML
5.333 LW
N
-8 0 M
8 0 L
S
GR
GS
[0.375 0 0 0.375 174.90833 114.43399] CT
0 0.447 0.741 RC
N
f1004432658
f
GR
GS
[0.375 0 0 0.375 174.90833 114.43399] CT
0 0.447 0.741 RC
10.0 ML
5.333 LW
N
-8 0 M
8 0 L
S
GR
GS
[0.375 0 0 0.375 185.82885 112.82564] CT
0 0.447 0.741 RC
N
f1004432658
f
GR
GS
[0.375 0 0 0.375 185.82885 112.82564] CT
0 0.447 0.741 RC
10.0 ML
5.333 LW
N
-8 0 M
8 0 L
S
GR
GS
[0.375 0 0 0.375 196.74937 114.47292] CT
0 0.447 0.741 RC
N
f1004432658
f
GR
GS
[0.375 0 0 0.375 196.74937 114.47292] CT
0 0.447 0.741 RC
10.0 ML
5.333 LW
N
-8 0 M
8 0 L
S
GR
GS
[0.375 0 0 0.375 207.66989 122.40791] CT
0 0.447 0.741 RC
N
f1004432658
f
GR
GS
[0.375 0 0 0.375 207.66989 122.40791] CT
0 0.447 0.741 RC
10.0 ML
5.333 LW
N
-8 0 M
8 0 L
S
GR
GS
[0.375 0 0 0.375 218.59044 117.03913] CT
0 0.447 0.741 RC
N
f1004432658
f
GR
GS
[0.375 0 0 0.375 218.59044 117.03913] CT
0 0.447 0.741 RC
10.0 ML
5.333 LW
N
-8 0 M
8 0 L
S
GR
GS
[0.375 0 0 0.375 229.51094 122.88809] CT
0 0.447 0.741 RC
N
f1004432658
f
GR
GS
[0.375 0 0 0.375 229.51094 122.88809] CT
0 0.447 0.741 RC
10.0 ML
5.333 LW
N
-8 0 M
8 0 L
S
GR
GS
[0.375 0 0 0.375 240.43149 121.05251] CT
0 0.447 0.741 RC
N
f1004432658
f
GR
GS
[0.375 0 0 0.375 240.43149 121.05251] CT
0 0.447 0.741 RC
10.0 ML
5.333 LW
N
-8 0 M
8 0 L
S
GR
GS
[0.375 0 0 0.375 251.36826 128.59162] CT
0 0.447 0.741 RC
N
f1004432658
f
GR
GS
[0.375 0 0 0.375 251.36826 128.59162] CT
0 0.447 0.741 RC
10.0 ML
5.333 LW
N
-8 0 M
8 0 L
S
GR
GS
[0.375 0 0 0.375 262.28881 121.98785] CT
0 0.447 0.741 RC
N
f1004432658
f
GR
GS
[0.375 0 0 0.375 262.28881 121.98785] CT
0 0.447 0.741 RC
10.0 ML
5.333 LW
N
-8 0 M
8 0 L
S
GR
GS
[0.375 0 0 0.375 273.20934 123.63114] CT
0 0.447 0.741 RC
N
f1004432658
f
GR
GS
[0.375 0 0 0.375 273.20934 123.63114] CT
0 0.447 0.741 RC
10.0 ML
5.333 LW
N
-8 0 M
8 0 L
S
GR
GS
[0.375 0 0 0.375 284.12984 124.2705] CT
0 0.447 0.741 RC
N
f1004432658
f
GR
GS
[0.375 0 0 0.375 284.12984 124.2705] CT
0 0.447 0.741 RC
10.0 ML
5.333 LW
N
-8 0 M
8 0 L
S
GR
GS
[0.375 0 0 0.375 295.05038 135.17281] CT
0 0.447 0.741 RC
N
f1004432658
f
GR
GS
[0.375 0 0 0.375 295.05038 135.17281] CT
0 0.447 0.741 RC
10.0 ML
5.333 LW
N
-8 0 M
8 0 L
S
GR
GS
[0.375 0 0 0.375 305.97089 127.19072] CT
0 0.447 0.741 RC
N
f1004432658
f
GR
GS
[0.375 0 0 0.375 305.97089 127.19072] CT
0 0.447 0.741 RC
10.0 ML
5.333 LW
N
-8 0 M
8 0 L
S
GR
GS
[0.375 0 0 0.375 316.89143 125.06276] CT
0 0.447 0.741 RC
N
f1004432658
f
GR
GS
[0.375 0 0 0.375 316.89143 125.06276] CT
0 0.447 0.741 RC
10.0 ML
5.333 LW
N
-8 0 M
8 0 L
S
GR
GS
[0.375 0 0 0.375 327.82821 129.46238] CT
0 0.447 0.741 RC
N
f1004432658
f
GR
GS
[0.375 0 0 0.375 327.82821 129.46238] CT
0 0.447 0.741 RC
10.0 ML
5.333 LW
N
-8 0 M
8 0 L
S
GR
GS
[0.375 0 0 0.375 338.74876 139.5789] CT
0 0.447 0.741 RC
N
f1004432658
f
GR
GS
[0.375 0 0 0.375 338.74876 139.5789] CT
0 0.447 0.741 RC
10.0 ML
5.333 LW
N
-8 0 M
8 0 L
S
GR
GS
[0.375 0 0 0.375 349.66928 129.56455] CT
0 0.447 0.741 RC
N
f1004432658
f
GR
GS
[0.375 0 0 0.375 349.66928 129.56455] CT
0 0.447 0.741 RC
10.0 ML
5.333 LW
N
-8 0 M
8 0 L
S
GR
GS
[0.375 0 0 0.375 360.58981 136.67019] CT
0 0.447 0.741 RC
N
f1004432658
f
GR
GS
[0.375 0 0 0.375 360.58981 136.67019] CT
0 0.447 0.741 RC
10.0 ML
5.333 LW
N
-8 0 M
8 0 L
S
GR
GS
[0.375 0 0 0.375 371.51033 130.36095] CT
0 0.447 0.741 RC
N
f1004432658
f
GR
GS
[0.375 0 0 0.375 371.51033 130.36095] CT
0 0.447 0.741 RC
10.0 ML
5.333 LW
N
-8 0 M
8 0 L
S
GR
GS
[0.375 0 0 0.375 54.75 23.625] CT
0 0.447 0.741 RC
N
f1004432658
f
GR
GS
[0.375 0 0 0.375 54.75 23.625] CT
0 0.447 0.741 RC
10.0 ML
5.333 LW
N
-8 0 M
8 0 L
S
GR
GS
[0.375 0 0 0.375 65.67052 42.24979] CT
0 0.447 0.741 RC
N
f1004432658
f
GR
GS
[0.375 0 0 0.375 65.67052 42.24979] CT
0 0.447 0.741 RC
10.0 ML
5.333 LW
N
-8 0 M
8 0 L
S
GR
GS
[0.375 0 0 0.375 76.59105 53.33799] CT
0 0.447 0.741 RC
N
f1004432658
f
GR
GS
[0.375 0 0 0.375 76.59105 53.33799] CT
0 0.447 0.741 RC
10.0 ML
5.333 LW
N
-8 0 M
8 0 L
S
GR
GS
[0.375 0 0 0.375 87.51157 52.04309] CT
0 0.447 0.741 RC
N
f1004432658
f
GR
GS
[0.375 0 0 0.375 87.51157 52.04309] CT
0 0.447 0.741 RC
10.0 ML
5.333 LW
N
-8 0 M
8 0 L
S
GR
GS
[0.375 0 0 0.375 98.44837 59.50834] CT
0 0.447 0.741 RC
N
f1004432658
f
GR
GS
[0.375 0 0 0.375 98.44837 59.50834] CT
0 0.447 0.741 RC
10.0 ML
5.333 LW
N
-8 0 M
8 0 L
S
GR
GS
[0.375 0 0 0.375 109.3689 66.12526] CT
0 0.447 0.741 RC
N
f1004432658
f
GR
GS
[0.375 0 0 0.375 109.3689 66.12526] CT
0 0.447 0.741 RC
10.0 ML
5.333 LW
N
-8 0 M
8 0 L
S
GR
GS
[0.375 0 0 0.375 120.28942 71.04481] CT
0 0.447 0.741 RC
N
f1004432658
f
GR
GS
[0.375 0 0 0.375 120.28942 71.04481] CT
0 0.447 0.741 RC
10.0 ML
5.333 LW
N
-8 0 M
8 0 L
S
GR
GS
[0.375 0 0 0.375 131.20995 78.17125] CT
0 0.447 0.741 RC
N
f1004432658
f
GR
GS
[0.375 0 0 0.375 131.20995 78.17125] CT
0 0.447 0.741 RC
10.0 ML
5.333 LW
N
-8 0 M
8 0 L
S
GR
GS
[0.375 0 0 0.375 142.13047 75.4017] CT
0 0.447 0.741 RC
N
f1004432658
f
GR
GS
[0.375 0 0 0.375 142.13047 75.4017] CT
0 0.447 0.741 RC
10.0 ML
5.333 LW
N
-8 0 M
8 0 L
S
GR
GS
[0.375 0 0 0.375 153.05099 80.64681] CT
0 0.447 0.741 RC
N
f1004432658
f
GR
GS
[0.375 0 0 0.375 153.05099 80.64681] CT
0 0.447 0.741 RC
10.0 ML
5.333 LW
N
-8 0 M
8 0 L
S
GR
GS
[0.375 0 0 0.375 163.97153 83.00765] CT
0 0.447 0.741 RC
N
f1004432658
f
GR
GS
[0.375 0 0 0.375 163.97153 83.00765] CT
0 0.447 0.741 RC
10.0 ML
5.333 LW
N
-8 0 M
8 0 L
S
GR
GS
[0.375 0 0 0.375 174.90833 83.58567] CT
0 0.447 0.741 RC
N
f1004432658
f
GR
GS
[0.375 0 0 0.375 174.90833 83.58567] CT
0 0.447 0.741 RC
10.0 ML
5.333 LW
N
-8 0 M
8 0 L
S
GR
GS
[0.375 0 0 0.375 185.82885 88.46752] CT
0 0.447 0.741 RC
N
f1004432658
f
GR
GS
[0.375 0 0 0.375 185.82885 88.46752] CT
0 0.447 0.741 RC
10.0 ML
5.333 LW
N
-8 0 M
8 0 L
S
GR
GS
[0.375 0 0 0.375 196.74937 91.35497] CT
0 0.447 0.741 RC
N
f1004432658
f
GR
GS
[0.375 0 0 0.375 196.74937 91.35497] CT
0 0.447 0.741 RC
10.0 ML
5.333 LW
N
-8 0 M
8 0 L
S
GR
GS
[0.375 0 0 0.375 207.66989 98.74095] CT
0 0.447 0.741 RC
N
f1004432658
f
GR
GS
[0.375 0 0 0.375 207.66989 98.74095] CT
0 0.447 0.741 RC
10.0 ML
5.333 LW
N
-8 0 M
8 0 L
S
GR
GS
[0.375 0 0 0.375 218.59044 91.49772] CT
0 0.447 0.741 RC
N
f1004432658
f
GR
GS
[0.375 0 0 0.375 218.59044 91.49772] CT
0 0.447 0.741 RC
10.0 ML
5.333 LW
N
-8 0 M
8 0 L
S
GR
GS
[0.375 0 0 0.375 229.51094 98.33456] CT
0 0.447 0.741 RC
N
f1004432658
f
GR
GS
[0.375 0 0 0.375 229.51094 98.33456] CT
0 0.447 0.741 RC
10.0 ML
5.333 LW
N
-8 0 M
8 0 L
S
GR
GS
[0.375 0 0 0.375 240.43149 96.18537] CT
0 0.447 0.741 RC
N
f1004432658
f
GR
GS
[0.375 0 0 0.375 240.43149 96.18537] CT
0 0.447 0.741 RC
10.0 ML
5.333 LW
N
-8 0 M
8 0 L
S
GR
GS
[0.375 0 0 0.375 251.36826 102.55906] CT
0 0.447 0.741 RC
N
f1004432658
f
GR
GS
[0.375 0 0 0.375 251.36826 102.55906] CT
0 0.447 0.741 RC
10.0 ML
5.333 LW
N
-8 0 M
8 0 L
S
GR
GS
[0.375 0 0 0.375 262.28881 97.32748] CT
0 0.447 0.741 RC
N
f1004432658
f
GR
GS
[0.375 0 0 0.375 262.28881 97.32748] CT
0 0.447 0.741 RC
10.0 ML
5.333 LW
N
-8 0 M
8 0 L
S
GR
GS
[0.375 0 0 0.375 273.20934 99.46882] CT
0 0.447 0.741 RC
N
f1004432658
f
GR
GS
[0.375 0 0 0.375 273.20934 99.46882] CT
0 0.447 0.741 RC
10.0 ML
5.333 LW
N
-8 0 M
8 0 L
S
GR
GS
[0.375 0 0 0.375 284.12984 99.7636] CT
0 0.447 0.741 RC
N
f1004432658
f
GR
GS
[0.375 0 0 0.375 284.12984 99.7636] CT
0 0.447 0.741 RC
10.0 ML
5.333 LW
N
-8 0 M
8 0 L
S
GR
GS
[0.375 0 0 0.375 295.05038 97.84798] CT
0 0.447 0.741 RC
N
f1004432658
f
GR
GS
[0.375 0 0 0.375 295.05038 97.84798] CT
0 0.447 0.741 RC
10.0 ML
5.333 LW
N
-8 0 M
8 0 L
S
GR
GS
[0.375 0 0 0.375 305.97089 101.57671] CT
0 0.447 0.741 RC
N
f1004432658
f
GR
GS
[0.375 0 0 0.375 305.97089 101.57671] CT
0 0.447 0.741 RC
10.0 ML
5.333 LW
N
-8 0 M
8 0 L
S
GR
GS
[0.375 0 0 0.375 316.89143 99.42239] CT
0 0.447 0.741 RC
N
f1004432658
f
GR
GS
[0.375 0 0 0.375 316.89143 99.42239] CT
0 0.447 0.741 RC
10.0 ML
5.333 LW
N
-8 0 M
8 0 L
S
GR
GS
[0.375 0 0 0.375 327.82821 103.09546] CT
0 0.447 0.741 RC
N
f1004432658
f
GR
GS
[0.375 0 0 0.375 327.82821 103.09546] CT
0 0.447 0.741 RC
10.0 ML
5.333 LW
N
-8 0 M
8 0 L
S
GR
GS
[0.375 0 0 0.375 338.74876 98.804] CT
0 0.447 0.741 RC
N
f1004432658
f
GR
GS
[0.375 0 0 0.375 338.74876 98.804] CT
0 0.447 0.741 RC
10.0 ML
5.333 LW
N
-8 0 M
8 0 L
S
GR
GS
[0.375 0 0 0.375 349.66928 103.87743] CT
0 0.447 0.741 RC
N
f1004432658
f
GR
GS
[0.375 0 0 0.375 349.66928 103.87743] CT
0 0.447 0.741 RC
10.0 ML
5.333 LW
N
-8 0 M
8 0 L
S
GR
GS
[0.375 0 0 0.375 360.58981 99.5004] CT
0 0.447 0.741 RC
N
f1004432658
f
GR
GS
[0.375 0 0 0.375 360.58981 99.5004] CT
0 0.447 0.741 RC
10.0 ML
5.333 LW
N
-8 0 M
8 0 L
S
GR
GS
[0.375 0 0 0.375 371.51033 105.23704] CT
0 0.447 0.741 RC
N
f1004432658
f
GR
GS
[0.375 0 0 0.375 371.51033 105.23704] CT
0 0.447 0.741 RC
10.0 ML
5.333 LW
N
-8 0 M
8 0 L
S
GR
GS
[0.375 0 0 0.375 0 0] CT
0.851 0.325 0.098 RC
1 LJ
5.333 LW
N
146 63 M
146 63 L
S
GR
GS
[0.375 0 0 0.375 0 0] CT
0.851 0.325 0.098 RC
1 LJ
5.333 LW
N
175.121 292.672 M
175.121 369.842 L
S
GR
GS
[0.375 0 0 0.375 0 0] CT
0.851 0.325 0.098 RC
1 LJ
5.333 LW
N
204.243 415.418 M
204.243 565.464 L
S
GR
GS
[0.375 0 0 0.375 0 0] CT
0.851 0.325 0.098 RC
1 LJ
5.333 LW
N
233.364 462.564 M
233.364 599.654 L
S
GR
GS
[0.375 0 0 0.375 0 0] CT
0.851 0.325 0.098 RC
1 LJ
5.333 LW
N
262.529 467.588 M
262.529 528.735 L
S
GR
GS
[0.375 0 0 0.375 0 0] CT
0.851 0.325 0.098 RC
1 LJ
5.333 LW
N
291.65 507.568 M
291.65 564.082 L
S
GR
GS
[0.375 0 0 0.375 0 0] CT
0.851 0.325 0.098 RC
1 LJ
5.333 LW
N
320.772 513.459 M
320.772 568.7 L
S
GR
GS
[0.375 0 0 0.375 0 0] CT
0.851 0.325 0.098 RC
1 LJ
5.333 LW
N
349.893 540.345 M
349.893 594.713 L
S
GR
GS
[0.375 0 0 0.375 0 0] CT
0.851 0.325 0.098 RC
1 LJ
5.333 LW
N
379.015 558.312 M
379.015 615.625 L
S
GR
GS
[0.375 0 0 0.375 0 0] CT
0.851 0.325 0.098 RC
1 LJ
5.333 LW
N
408.136 562.4 M
408.136 620.55 L
S
GR
GS
[0.375 0 0 0.375 0 0] CT
0.851 0.325 0.098 RC
1 LJ
5.333 LW
N
437.257 583.607 M
437.257 659.289 L
S
GR
GS
[0.375 0 0 0.375 0 0] CT
0.851 0.325 0.098 RC
1 LJ
5.333 LW
N
466.422 589.838 M
466.422 657.699 L
S
GR
GS
[0.375 0 0 0.375 0 0] CT
0.851 0.325 0.098 RC
1 LJ
5.333 LW
N
495.544 621.398 M
495.544 685.283 L
S
GR
GS
[0.375 0 0 0.375 0 0] CT
0.851 0.325 0.098 RC
1 LJ
5.333 LW
N
524.665 621.398 M
524.665 685.283 L
S
GR
GS
[0.375 0 0 0.375 0 0] CT
0.851 0.325 0.098 RC
1 LJ
5.333 LW
N
553.786 637.117 M
553.786 708.582 L
S
GR
GS
[0.375 0 0 0.375 0 0] CT
0.851 0.325 0.098 RC
1 LJ
5.333 LW
N
582.908 637.117 M
582.908 700.211 L
S
GR
GS
[0.375 0 0 0.375 0 0] CT
0.851 0.325 0.098 RC
1 LJ
5.333 LW
N
612.029 643.789 M
612.029 674.36 L
S
GR
GS
[0.375 0 0 0.375 0 0] CT
0.851 0.325 0.098 RC
1 LJ
5.333 LW
N
641.151 628.172 M
641.151 659.167 L
S
GR
GS
[0.375 0 0 0.375 0 0] CT
0.851 0.325 0.098 RC
1 LJ
5.333 LW
N
670.315 692.016 M
670.315 713.47 L
S
GR
GS
[0.375 0 0 0.375 0 0] CT
0.851 0.325 0.098 RC
1 LJ
5.333 LW
N
699.437 692.016 M
699.437 711.512 L
S
GR
GS
[0.375 0 0 0.375 0 0] CT
0.851 0.325 0.098 RC
1 LJ
5.333 LW
N
728.558 677.864 M
728.558 700.544 L
S
GR
GS
[0.375 0 0 0.375 0 0] CT
0.851 0.325 0.098 RC
1 LJ
5.333 LW
N
757.68 677.864 M
757.68 700.544 L
S
GR
GS
[0.375 0 0 0.375 0 0] CT
0.851 0.325 0.098 RC
1 LJ
5.333 LW
N
786.801 661.657 M
786.801 683.69 L
S
GR
GS
[0.375 0 0 0.375 0 0] CT
0.851 0.325 0.098 RC
1 LJ
5.333 LW
N
815.922 661.657 M
815.922 682.618 L
S
GR
GS
[0.375 0 0 0.375 0 0] CT
0.851 0.325 0.098 RC
1 LJ
5.333 LW
N
845.044 674.666 M
845.044 696.684 L
S
GR
GS
[0.375 0 0 0.375 0 0] CT
0.851 0.325 0.098 RC
1 LJ
5.333 LW
N
874.209 681.149 M
874.209 703.803 L
S
GR
GS
[0.375 0 0 0.375 0 0] CT
0.851 0.325 0.098 RC
1 LJ
5.333 LW
N
903.33 691.694 M
903.33 713.196 L
S
GR
GS
[0.375 0 0 0.375 0 0] CT
0.851 0.325 0.098 RC
1 LJ
5.333 LW
N
932.451 691.694 M
932.451 711.37 L
S
GR
GS
[0.375 0 0 0.375 0 0] CT
0.851 0.325 0.098 RC
1 LJ
5.333 LW
N
961.573 711.56 M
961.573 738.163 L
S
GR
GS
[0.375 0 0 0.375 0 0] CT
0.851 0.325 0.098 RC
1 LJ
5.333 LW
N
990.694 712.603 M
990.694 738.574 L
S
GR
GS
[0.375 0 0 0.375 0 0] CT
0.851 0.325 0.098 RC
1 LJ
5.333 LW
N
146 63 M
146 63 L
S
GR
GS
[0.375 0 0 0.375 0 0] CT
0.851 0.325 0.098 RC
1 LJ
5.333 LW
N
175.121 292.672 M
175.121 215.503 L
S
GR
GS
[0.375 0 0 0.375 0 0] CT
0.851 0.325 0.098 RC
1 LJ
5.333 LW
N
204.243 415.418 M
204.243 265.371 L
S
GR
GS
[0.375 0 0 0.375 0 0] CT
0.851 0.325 0.098 RC
1 LJ
5.333 LW
N
233.364 462.564 M
233.364 325.475 L
S
GR
GS
[0.375 0 0 0.375 0 0] CT
0.851 0.325 0.098 RC
1 LJ
5.333 LW
N
262.529 467.588 M
262.529 406.441 L
S
GR
GS
[0.375 0 0 0.375 0 0] CT
0.851 0.325 0.098 RC
1 LJ
5.333 LW
N
291.65 507.568 M
291.65 451.054 L
S
GR
GS
[0.375 0 0 0.375 0 0] CT
0.851 0.325 0.098 RC
1 LJ
5.333 LW
N
320.772 513.459 M
320.772 458.218 L
S
GR
GS
[0.375 0 0 0.375 0 0] CT
0.851 0.325 0.098 RC
1 LJ
5.333 LW
N
349.893 540.345 M
349.893 485.976 L
S
GR
GS
[0.375 0 0 0.375 0 0] CT
0.851 0.325 0.098 RC
1 LJ
5.333 LW
N
379.015 558.312 M
379.015 500.999 L
S
GR
GS
[0.375 0 0 0.375 0 0] CT
0.851 0.325 0.098 RC
1 LJ
5.333 LW
N
408.136 562.4 M
408.136 504.249 L
S
GR
GS
[0.375 0 0 0.375 0 0] CT
0.851 0.325 0.098 RC
1 LJ
5.333 LW
N
437.257 583.607 M
437.257 507.926 L
S
GR
GS
[0.375 0 0 0.375 0 0] CT
0.851 0.325 0.098 RC
1 LJ
5.333 LW
N
466.422 589.838 M
466.422 521.977 L
S
GR
GS
[0.375 0 0 0.375 0 0] CT
0.851 0.325 0.098 RC
1 LJ
5.333 LW
N
495.544 621.398 M
495.544 557.512 L
S
GR
GS
[0.375 0 0 0.375 0 0] CT
0.851 0.325 0.098 RC
1 LJ
5.333 LW
N
524.665 621.398 M
524.665 557.512 L
S
GR
GS
[0.375 0 0 0.375 0 0] CT
0.851 0.325 0.098 RC
1 LJ
5.333 LW
N
553.786 637.117 M
553.786 565.653 L
S
GR
GS
[0.375 0 0 0.375 0 0] CT
0.851 0.325 0.098 RC
1 LJ
5.333 LW
N
582.908 637.117 M
582.908 574.024 L
S
GR
GS
[0.375 0 0 0.375 0 0] CT
0.851 0.325 0.098 RC
1 LJ
5.333 LW
N
612.029 643.789 M
612.029 613.219 L
S
GR
GS
[0.375 0 0 0.375 0 0] CT
0.851 0.325 0.098 RC
1 LJ
5.333 LW
N
641.151 628.172 M
641.151 597.176 L
S
GR
GS
[0.375 0 0 0.375 0 0] CT
0.851 0.325 0.098 RC
1 LJ
5.333 LW
N
670.315 692.016 M
670.315 670.563 L
S
GR
GS
[0.375 0 0 0.375 0 0] CT
0.851 0.325 0.098 RC
1 LJ
5.333 LW
N
699.437 692.016 M
699.437 672.52 L
S
GR
GS
[0.375 0 0 0.375 0 0] CT
0.851 0.325 0.098 RC
1 LJ
5.333 LW
N
728.558 677.864 M
728.558 655.183 L
S
GR
GS
[0.375 0 0 0.375 0 0] CT
0.851 0.325 0.098 RC
1 LJ
5.333 LW
N
757.68 677.864 M
757.68 655.183 L
S
GR
GS
[0.375 0 0 0.375 0 0] CT
0.851 0.325 0.098 RC
1 LJ
5.333 LW
N
786.801 661.657 M
786.801 639.624 L
S
GR
GS
[0.375 0 0 0.375 0 0] CT
0.851 0.325 0.098 RC
1 LJ
5.333 LW
N
815.922 661.657 M
815.922 640.695 L
S
GR
GS
[0.375 0 0 0.375 0 0] CT
0.851 0.325 0.098 RC
1 LJ
5.333 LW
N
845.044 674.666 M
845.044 652.648 L
S
GR
GS
[0.375 0 0 0.375 0 0] CT
0.851 0.325 0.098 RC
1 LJ
5.333 LW
N
874.209 681.149 M
874.209 658.495 L
S
GR
GS
[0.375 0 0 0.375 0 0] CT
0.851 0.325 0.098 RC
1 LJ
5.333 LW
N
903.33 691.694 M
903.33 670.191 L
S
GR
GS
[0.375 0 0 0.375 0 0] CT
0.851 0.325 0.098 RC
1 LJ
5.333 LW
N
932.451 691.694 M
932.451 672.018 L
S
GR
GS
[0.375 0 0 0.375 0 0] CT
0.851 0.325 0.098 RC
1 LJ
5.333 LW
N
961.573 711.56 M
961.573 684.957 L
S
GR
GS
[0.375 0 0 0.375 0 0] CT
0.851 0.325 0.098 RC
1 LJ
5.333 LW
N
990.694 712.603 M
990.694 686.631 L
S
GR
GS
[0.375 0 0 0.375 0 0] CT
0.851 0.325 0.098 RC
1 LJ
5.333 LW
N
146 63 M
175.121 292.672 L
204.243 415.418 L
233.364 462.564 L
262.529 467.588 L
291.65 507.568 L
320.772 513.459 L
349.893 540.345 L
379.015 558.312 L
408.136 562.4 L
437.257 583.607 L
466.422 589.838 L
495.544 621.398 L
524.665 621.398 L
553.786 637.117 L
582.908 637.117 L
612.029 643.789 L
641.151 628.172 L
670.315 692.016 L
699.437 692.016 L
728.558 677.864 L
757.68 677.864 L
786.801 661.657 L
815.922 661.657 L
845.044 674.666 L
874.209 681.149 L
903.33 691.694 L
932.451 691.694 L
961.573 711.56 L
990.694 712.603 L
S
GR
GS
[0.375 0 0 0.375 54.75 23.625] CT
0.851 0.325 0.098 RC
N
f1004432658
f
GR
GS
[0.375 0 0 0.375 54.75 23.625] CT
0.851 0.325 0.098 RC
10.0 ML
5.333 LW
N
-8 0 M
8 0 L
S
GR
GS
[0.375 0 0 0.375 65.67052 138.69071] CT
0.851 0.325 0.098 RC
N
f1004432658
f
GR
GS
[0.375 0 0 0.375 65.67052 138.69071] CT
0.851 0.325 0.098 RC
10.0 ML
5.333 LW
N
-8 0 M
8 0 L
S
GR
GS
[0.375 0 0 0.375 76.59105 212.04886] CT
0.851 0.325 0.098 RC
N
f1004432658
f
GR
GS
[0.375 0 0 0.375 76.59105 212.04886] CT
0.851 0.325 0.098 RC
10.0 ML
5.333 LW
N
-8 0 M
8 0 L
S
GR
GS
[0.375 0 0 0.375 87.51157 224.87006] CT
0.851 0.325 0.098 RC
N
f1004432658
f
GR
GS
[0.375 0 0 0.375 87.51157 224.87006] CT
0.851 0.325 0.098 RC
10.0 ML
5.333 LW
N
-8 0 M
8 0 L
S
GR
GS
[0.375 0 0 0.375 98.44837 198.27573] CT
0.851 0.325 0.098 RC
N
f1004432658
f
GR
GS
[0.375 0 0 0.375 98.44837 198.27573] CT
0.851 0.325 0.098 RC
10.0 ML
5.333 LW
N
-8 0 M
8 0 L
S
GR
GS
[0.375 0 0 0.375 109.3689 211.53085] CT
0.851 0.325 0.098 RC
N
f1004432658
f
GR
GS
[0.375 0 0 0.375 109.3689 211.53085] CT
0.851 0.325 0.098 RC
10.0 ML
5.333 LW
N
-8 0 M
8 0 L
S
GR
GS
[0.375 0 0 0.375 120.28942 213.26237] CT
0.851 0.325 0.098 RC
N
f1004432658
f
GR
GS
[0.375 0 0 0.375 120.28942 213.26237] CT
0.851 0.325 0.098 RC
10.0 ML
5.333 LW
N
-8 0 M
8 0 L
S
GR
GS
[0.375 0 0 0.375 131.20995 223.0174] CT
0.851 0.325 0.098 RC
N
f1004432658
f
GR
GS
[0.375 0 0 0.375 131.20995 223.0174] CT
0.851 0.325 0.098 RC
10.0 ML
5.333 LW
N
-8 0 M
8 0 L
S
GR
GS
[0.375 0 0 0.375 142.13047 230.85924] CT
0.851 0.325 0.098 RC
N
f1004432658
f
GR
GS
[0.375 0 0 0.375 142.13047 230.85924] CT
0.851 0.325 0.098 RC
10.0 ML
5.333 LW
N
-8 0 M
8 0 L
S
GR
GS
[0.375 0 0 0.375 153.05099 232.70643] CT
0.851 0.325 0.098 RC
N
f1004432658
f
GR
GS
[0.375 0 0 0.375 153.05099 232.70643] CT
0.851 0.325 0.098 RC
10.0 ML
5.333 LW
N
-8 0 M
8 0 L
S
GR
GS
[0.375 0 0 0.375 163.97153 247.23349] CT
0.851 0.325 0.098 RC
N
f1004432658
f
GR
GS
[0.375 0 0 0.375 163.97153 247.23349] CT
0.851 0.325 0.098 RC
10.0 ML
5.333 LW
N
-8 0 M
8 0 L
S
GR
GS
[0.375 0 0 0.375 174.90833 246.63725] CT
0.851 0.325 0.098 RC
N
f1004432658
f
GR
GS
[0.375 0 0 0.375 174.90833 246.63725] CT
0.851 0.325 0.098 RC
10.0 ML
5.333 LW
N
-8 0 M
8 0 L
S
GR
GS
[0.375 0 0 0.375 185.82885 256.98127] CT
0.851 0.325 0.098 RC
N
f1004432658
f
GR
GS
[0.375 0 0 0.375 185.82885 256.98127] CT
0.851 0.325 0.098 RC
10.0 ML
5.333 LW
N
-8 0 M
8 0 L
S
GR
GS
[0.375 0 0 0.375 196.74937 256.98127] CT
0.851 0.325 0.098 RC
N
f1004432658
f
GR
GS
[0.375 0 0 0.375 196.74937 256.98127] CT
0.851 0.325 0.098 RC
10.0 ML
5.333 LW
N
-8 0 M
8 0 L
S
GR
GS
[0.375 0 0 0.375 207.66989 265.71812] CT
0.851 0.325 0.098 RC
N
f1004432658
f
GR
GS
[0.375 0 0 0.375 207.66989 265.71812] CT
0.851 0.325 0.098 RC
10.0 ML
5.333 LW
N
-8 0 M
8 0 L
S
GR
GS
[0.375 0 0 0.375 218.59044 262.57922] CT
0.851 0.325 0.098 RC
N
f1004432658
f
GR
GS
[0.375 0 0 0.375 218.59044 262.57922] CT
0.851 0.325 0.098 RC
10.0 ML
5.333 LW
N
-8 0 M
8 0 L
S
GR
GS
[0.375 0 0 0.375 229.51094 252.8849] CT
0.851 0.325 0.098 RC
N
f1004432658
f
GR
GS
[0.375 0 0 0.375 229.51094 252.8849] CT
0.851 0.325 0.098 RC
10.0 ML
5.333 LW
N
-8 0 M
8 0 L
S
GR
GS
[0.375 0 0 0.375 240.43149 247.18774] CT
0.851 0.325 0.098 RC
N
f1004432658
f
GR
GS
[0.375 0 0 0.375 240.43149 247.18774] CT
0.851 0.325 0.098 RC
10.0 ML
5.333 LW
N
-8 0 M
8 0 L
S
GR
GS
[0.375 0 0 0.375 251.36826 267.55108] CT
0.851 0.325 0.098 RC
N
f1004432658
f
GR
GS
[0.375 0 0 0.375 251.36826 267.55108] CT
0.851 0.325 0.098 RC
10.0 ML
5.333 LW
N
-8 0 M
8 0 L
S
GR
GS
[0.375 0 0 0.375 262.28881 266.81715] CT
0.851 0.325 0.098 RC
N
f1004432658
f
GR
GS
[0.375 0 0 0.375 262.28881 266.81715] CT
0.851 0.325 0.098 RC
10.0 ML
5.333 LW
N
-8 0 M
8 0 L
S
GR
GS
[0.375 0 0 0.375 273.20934 262.70391] CT
0.851 0.325 0.098 RC
N
f1004432658
f
GR
GS
[0.375 0 0 0.375 273.20934 262.70391] CT
0.851 0.325 0.098 RC
10.0 ML
5.333 LW
N
-8 0 M
8 0 L
S
GR
GS
[0.375 0 0 0.375 284.12984 262.70391] CT
0.851 0.325 0.098 RC
N
f1004432658
f
GR
GS
[0.375 0 0 0.375 284.12984 262.70391] CT
0.851 0.325 0.098 RC
10.0 ML
5.333 LW
N
-8 0 M
8 0 L
S
GR
GS
[0.375 0 0 0.375 295.05038 256.38361] CT
0.851 0.325 0.098 RC
N
f1004432658
f
GR
GS
[0.375 0 0 0.375 295.05038 256.38361] CT
0.851 0.325 0.098 RC
10.0 ML
5.333 LW
N
-8 0 M
8 0 L
S
GR
GS
[0.375 0 0 0.375 305.97089 255.98193] CT
0.851 0.325 0.098 RC
N
f1004432658
f
GR
GS
[0.375 0 0 0.375 305.97089 255.98193] CT
0.851 0.325 0.098 RC
10.0 ML
5.333 LW
N
-8 0 M
8 0 L
S
GR
GS
[0.375 0 0 0.375 316.89143 261.25653] CT
0.851 0.325 0.098 RC
N
f1004432658
f
GR
GS
[0.375 0 0 0.375 316.89143 261.25653] CT
0.851 0.325 0.098 RC
10.0 ML
5.333 LW
N
-8 0 M
8 0 L
S
GR
GS
[0.375 0 0 0.375 327.82821 263.92628] CT
0.851 0.325 0.098 RC
N
f1004432658
f
GR
GS
[0.375 0 0 0.375 327.82821 263.92628] CT
0.851 0.325 0.098 RC
10.0 ML
5.333 LW
N
-8 0 M
8 0 L
S
GR
GS
[0.375 0 0 0.375 338.74876 267.44859] CT
0.851 0.325 0.098 RC
N
f1004432658
f
GR
GS
[0.375 0 0 0.375 338.74876 267.44859] CT
0.851 0.325 0.098 RC
10.0 ML
5.333 LW
N
-8 0 M
8 0 L
S
GR
GS
[0.375 0 0 0.375 349.66928 266.76359] CT
0.851 0.325 0.098 RC
N
f1004432658
f
GR
GS
[0.375 0 0 0.375 349.66928 266.76359] CT
0.851 0.325 0.098 RC
10.0 ML
5.333 LW
N
-8 0 M
8 0 L
S
GR
GS
[0.375 0 0 0.375 360.58981 276.81129] CT
0.851 0.325 0.098 RC
N
f1004432658
f
GR
GS
[0.375 0 0 0.375 360.58981 276.81129] CT
0.851 0.325 0.098 RC
10.0 ML
5.333 LW
N
-8 0 M
8 0 L
S
GR
GS
[0.375 0 0 0.375 371.51033 276.96515] CT
0.851 0.325 0.098 RC
N
f1004432658
f
GR
GS
[0.375 0 0 0.375 371.51033 276.96515] CT
0.851 0.325 0.098 RC
10.0 ML
5.333 LW
N
-8 0 M
8 0 L
S
GR
GS
[0.375 0 0 0.375 54.75 23.625] CT
0.851 0.325 0.098 RC
N
f1004432658
f
GR
GS
[0.375 0 0 0.375 54.75 23.625] CT
0.851 0.325 0.098 RC
10.0 ML
5.333 LW
N
-8 0 M
8 0 L
S
GR
GS
[0.375 0 0 0.375 65.67052 80.81361] CT
0.851 0.325 0.098 RC
N
f1004432658
f
GR
GS
[0.375 0 0 0.375 65.67052 80.81361] CT
0.851 0.325 0.098 RC
10.0 ML
5.333 LW
N
-8 0 M
8 0 L
S
GR
GS
[0.375 0 0 0.375 76.59105 99.51431] CT
0.851 0.325 0.098 RC
N
f1004432658
f
GR
GS
[0.375 0 0 0.375 76.59105 99.51431] CT
0.851 0.325 0.098 RC
10.0 ML
5.333 LW
N
-8 0 M
8 0 L
S
GR
GS
[0.375 0 0 0.375 87.51157 122.05305] CT
0.851 0.325 0.098 RC
N
f1004432658
f
GR
GS
[0.375 0 0 0.375 87.51157 122.05305] CT
0.851 0.325 0.098 RC
10.0 ML
5.333 LW
N
-8 0 M
8 0 L
S
GR
GS
[0.375 0 0 0.375 98.44837 152.41521] CT
0.851 0.325 0.098 RC
N
f1004432658
f
GR
GS
[0.375 0 0 0.375 98.44837 152.41521] CT
0.851 0.325 0.098 RC
10.0 ML
5.333 LW
N
-8 0 M
8 0 L
S
GR
GS
[0.375 0 0 0.375 109.3689 169.14539] CT
0.851 0.325 0.098 RC
N
f1004432658
f
GR
GS
[0.375 0 0 0.375 109.3689 169.14539] CT
0.851 0.325 0.098 RC
10.0 ML
5.333 LW
N
-8 0 M
8 0 L
S
GR
GS
[0.375 0 0 0.375 120.28942 171.8317] CT
0.851 0.325 0.098 RC
N
f1004432658
f
GR
GS
[0.375 0 0 0.375 120.28942 171.8317] CT
0.851 0.325 0.098 RC
10.0 ML
5.333 LW
N
-8 0 M
8 0 L
S
GR
GS
[0.375 0 0 0.375 131.20995 182.241] CT
0.851 0.325 0.098 RC
N
f1004432658
f
GR
GS
[0.375 0 0 0.375 131.20995 182.241] CT
0.851 0.325 0.098 RC
10.0 ML
5.333 LW
N
-8 0 M
8 0 L
S
GR
GS
[0.375 0 0 0.375 142.13047 187.87467] CT
0.851 0.325 0.098 RC
N
f1004432658
f
GR
GS
[0.375 0 0 0.375 142.13047 187.87467] CT
0.851 0.325 0.098 RC
10.0 ML
5.333 LW
N
-8 0 M
8 0 L
S
GR
GS
[0.375 0 0 0.375 153.05099 189.09354] CT
0.851 0.325 0.098 RC
N
f1004432658
f
GR
GS
[0.375 0 0 0.375 153.05099 189.09354] CT
0.851 0.325 0.098 RC
10.0 ML
5.333 LW
N
-8 0 M
8 0 L
S
GR
GS
[0.375 0 0 0.375 163.97153 190.47211] CT
0.851 0.325 0.098 RC
N
f1004432658
f
GR
GS
[0.375 0 0 0.375 163.97153 190.47211] CT
0.851 0.325 0.098 RC
10.0 ML
5.333 LW
N
-8 0 M
8 0 L
S
GR
GS
[0.375 0 0 0.375 174.90833 195.74144] CT
0.851 0.325 0.098 RC
N
f1004432658
f
GR
GS
[0.375 0 0 0.375 174.90833 195.74144] CT
0.851 0.325 0.098 RC
10.0 ML
5.333 LW
N
-8 0 M
8 0 L
S
GR
GS
[0.375 0 0 0.375 185.82885 209.06694] CT
0.851 0.325 0.098 RC
N
f1004432658
f
GR
GS
[0.375 0 0 0.375 185.82885 209.06694] CT
0.851 0.325 0.098 RC
10.0 ML
5.333 LW
N
-8 0 M
8 0 L
S
GR
GS
[0.375 0 0 0.375 196.74937 209.06694] CT
0.851 0.325 0.098 RC
N
f1004432658
f
GR
GS
[0.375 0 0 0.375 196.74937 209.06694] CT
0.851 0.325 0.098 RC
10.0 ML
5.333 LW
N
-8 0 M
8 0 L
S
GR
GS
[0.375 0 0 0.375 207.66989 212.12002] CT
0.851 0.325 0.098 RC
N
f1004432658
f
GR
GS
[0.375 0 0 0.375 207.66989 212.12002] CT
0.851 0.325 0.098 RC
10.0 ML
5.333 LW
N
-8 0 M
8 0 L
S
GR
GS
[0.375 0 0 0.375 218.59044 215.25893] CT
0.851 0.325 0.098 RC
N
f1004432658
f
GR
GS
[0.375 0 0 0.375 218.59044 215.25893] CT
0.851 0.325 0.098 RC
10.0 ML
5.333 LW
N
-8 0 M
8 0 L
S
GR
GS
[0.375 0 0 0.375 229.51094 229.9571] CT
0.851 0.325 0.098 RC
N
f1004432658
f
GR
GS
[0.375 0 0 0.375 229.51094 229.9571] CT
0.851 0.325 0.098 RC
10.0 ML
5.333 LW
N
-8 0 M
8 0 L
S
GR
GS
[0.375 0 0 0.375 240.43149 223.94099] CT
0.851 0.325 0.098 RC
N
f1004432658
f
GR
GS
[0.375 0 0 0.375 240.43149 223.94099] CT
0.851 0.325 0.098 RC
10.0 ML
5.333 LW
N
-8 0 M
8 0 L
S
GR
GS
[0.375 0 0 0.375 251.36826 251.46121] CT
0.851 0.325 0.098 RC
N
f1004432658
f
GR
GS
[0.375 0 0 0.375 251.36826 251.46121] CT
0.851 0.325 0.098 RC
10.0 ML
5.333 LW
N
-8 0 M
8 0 L
S
GR
GS
[0.375 0 0 0.375 262.28881 252.19514] CT
0.851 0.325 0.098 RC
N
f1004432658
f
GR
GS
[0.375 0 0 0.375 262.28881 252.19514] CT
0.851 0.325 0.098 RC
10.0 ML
5.333 LW
N
-8 0 M
8 0 L
S
GR
GS
[0.375 0 0 0.375 273.20934 245.6938] CT
0.851 0.325 0.098 RC
N
f1004432658
f
GR
GS
[0.375 0 0 0.375 273.20934 245.6938] CT
0.851 0.325 0.098 RC
10.0 ML
5.333 LW
N
-8 0 M
8 0 L
S
GR
GS
[0.375 0 0 0.375 284.12984 245.6938] CT
0.851 0.325 0.098 RC
N
f1004432658
f
GR
GS
[0.375 0 0 0.375 284.12984 245.6938] CT
0.851 0.325 0.098 RC
10.0 ML
5.333 LW
N
-8 0 M
8 0 L
S
GR
GS
[0.375 0 0 0.375 295.05038 239.85883] CT
0.851 0.325 0.098 RC
N
f1004432658
f
GR
GS
[0.375 0 0 0.375 295.05038 239.85883] CT
0.851 0.325 0.098 RC
10.0 ML
5.333 LW
N
-8 0 M
8 0 L
S
GR
GS
[0.375 0 0 0.375 305.97089 240.26051] CT
0.851 0.325 0.098 RC
N
f1004432658
f
GR
GS
[0.375 0 0 0.375 305.97089 240.26051] CT
0.851 0.325 0.098 RC
10.0 ML
5.333 LW
N
-8 0 M
8 0 L
S
GR
GS
[0.375 0 0 0.375 316.89143 244.74307] CT
0.851 0.325 0.098 RC
N
f1004432658
f
GR
GS
[0.375 0 0 0.375 316.89143 244.74307] CT
0.851 0.325 0.098 RC
10.0 ML
5.333 LW
N
-8 0 M
8 0 L
S
GR
GS
[0.375 0 0 0.375 327.82821 246.93569] CT
0.851 0.325 0.098 RC
N
f1004432658
f
GR
GS
[0.375 0 0 0.375 327.82821 246.93569] CT
0.851 0.325 0.098 RC
10.0 ML
5.333 LW
N
-8 0 M
8 0 L
S
GR
GS
[0.375 0 0 0.375 338.74876 251.32173] CT
0.851 0.325 0.098 RC
N
f1004432658
f
GR
GS
[0.375 0 0 0.375 338.74876 251.32173] CT
0.851 0.325 0.098 RC
10.0 ML
5.333 LW
N
-8 0 M
8 0 L
S
GR
GS
[0.375 0 0 0.375 349.66928 252.00673] CT
0.851 0.325 0.098 RC
N
f1004432658
f
GR
GS
[0.375 0 0 0.375 349.66928 252.00673] CT
0.851 0.325 0.098 RC
10.0 ML
5.333 LW
N
-8 0 M
8 0 L
S
GR
GS
[0.375 0 0 0.375 360.58981 256.8587] CT
0.851 0.325 0.098 RC
N
f1004432658
f
GR
GS
[0.375 0 0 0.375 360.58981 256.8587] CT
0.851 0.325 0.098 RC
10.0 ML
5.333 LW
N
-8 0 M
8 0 L
S
GR
GS
[0.375 0 0 0.375 371.51033 257.48676] CT
0.851 0.325 0.098 RC
N
f1004432658
f
GR
GS
[0.375 0 0 0.375 371.51033 257.48676] CT
0.851 0.325 0.098 RC
10.0 ML
5.333 LW
N
-8 0 M
8 0 L
S
GR
GS
[0.375 0 0 0.375 0 0] CT
1 GC
N
/f1474737812{996 147 M
996 76 L
815 76 L
815 147 L
cp}def
f1474737812
f
GR
GS
[0.375 0 0 0.375 340.875 35.8125] CT
/Helvetica 24 F
GS
[1 0 0 1 0 0] CT
0 9.5 moveto 
1 -1 scale
(BFGS) t 
GR
GR
GS
[0.375 0 0 0.375 0 0] CT
0 0.447 0.741 RC
1 LJ
5.333 LW
N
823 95.5 M
903 95.5 L
S
GR
GS
[0.375 0 0 0.375 323.625 40.17188] CT
0 0.447 0.741 RC
N
f1004432658
f
GR
GS
[0.375 0 0 0.375 323.625 40.17188] CT
0 0.447 0.741 RC
10.0 ML
5.333 LW
N
-8 0 M
8 0 L
S
GR
GS
[0.375 0 0 0.375 323.625 31.45313] CT
0 0.447 0.741 RC
N
f1004432658
f
GR
GS
[0.375 0 0 0.375 323.625 31.45313] CT
0 0.447 0.741 RC
10.0 ML
5.333 LW
N
-8 0 M
8 0 L
S
GR
GS
[0.375 0 0 0.375 0 0] CT
0 0.447 0.741 RC
1 LJ
5.333 LW
N
863 107.125 M
863 83.875 L
S
GR
GS
[0.375 0 0 0.375 340.875 47.8125] CT
/Helvetica 24 F
GS
[1 0 0 1 0 0] CT
0 9.5 moveto 
1 -1 scale
(Greedy) t 
GR
GR
GS
[0.375 0 0 0.375 0 0] CT
0.851 0.325 0.098 RC
1 LJ
5.333 LW
N
823 127.5 M
903 127.5 L
S
GR
GS
[0.375 0 0 0.375 323.625 52.17188] CT
0.851 0.325 0.098 RC
N
f1004432658
f
GR
GS
[0.375 0 0 0.375 323.625 52.17188] CT
0.851 0.325 0.098 RC
10.0 ML
5.333 LW
N
-8 0 M
8 0 L
S
GR
GS
[0.375 0 0 0.375 323.625 43.45313] CT
0.851 0.325 0.098 RC
N
f1004432658
f
GR
GS
[0.375 0 0 0.375 323.625 43.45313] CT
0.851 0.325 0.098 RC
10.0 ML
5.333 LW
N
-8 0 M
8 0 L
S
GR
GS
[0.375 0 0 0.375 0 0] CT
0.851 0.325 0.098 RC
1 LJ
5.333 LW
N
863 139.125 M
863 115.875 L
S
GR
GS
[0.375 0 0 0.375 0 0] CT
0.149 GC
10.0 ML
1.333 LW
N
815 147 M
815 76 L
996 76 L
996 147 L
cp
S
GR
%%Trailer
%%Pages: 1
%%EOF
